<?xml version="1.0" encoding="UTF-8" standalone="no"?>
<!-- Generator: Adobe Illustrator 19.0.0, SVG Export Plug-In . SVG Version: 6.00 Build 0)  -->

<svg
   xmlns:dc="http://purl.org/dc/elements/1.1/"
   xmlns:cc="http://creativecommons.org/ns#"
   xmlns:rdf="http://www.w3.org/1999/02/22-rdf-syntax-ns#"
   xmlns:svg="http://www.w3.org/2000/svg"
   xmlns="http://www.w3.org/2000/svg"
   xmlns:sodipodi="http://sodipodi.sourceforge.net/DTD/sodipodi-0.dtd"
   xmlns:inkscape="http://www.inkscape.org/namespaces/inkscape"
   version="1.1"
   id="Capa_1"
   x="0px"
   y="0px"
   viewBox="0 0 16 16"
   xml:space="preserve"
   sodipodi:docname="wind-flag.svg"
   width="16"
   height="16"
   inkscape:version="0.92.1 r15371"
   inkscape:export-filename="/home/giagio/.conky/Conky-Harlequin/Cards/pic/wind-flag.png"
   inkscape:export-xdpi="96"
   inkscape:export-ydpi="96"><metadata
     id="metadata61"><rdf:RDF><cc:Work
         rdf:about=""><dc:format>image/svg+xml</dc:format><dc:type
           rdf:resource="http://purl.org/dc/dcmitype/StillImage" /><dc:title /></cc:Work></rdf:RDF></metadata><defs
     id="defs59" /><sodipodi:namedview
     pagecolor="#ffffff"
     bordercolor="#666666"
     borderopacity="1"
     objecttolerance="10"
     gridtolerance="10"
     guidetolerance="10"
     inkscape:pageopacity="0"
     inkscape:pageshadow="2"
     inkscape:window-width="640"
     inkscape:window-height="480"
     id="namedview57"
     showgrid="false"
     inkscape:zoom="34.439025"
     inkscape:cx="-8.9991704"
     inkscape:cy="7.7516725"
     inkscape:current-layer="Capa_1" /><g
     id="g26"
     transform="translate(0,-496)" /><g
     id="g28"
     transform="translate(0,-496)" /><g
     id="g30"
     transform="translate(0,-496)" /><g
     id="g32"
     transform="translate(0,-496)" /><g
     id="g34"
     transform="translate(0,-496)" /><g
     id="g36"
     transform="translate(0,-496)" /><g
     id="g38"
     transform="translate(0,-496)" /><g
     id="g40"
     transform="translate(0,-496)" /><g
     id="g42"
     transform="translate(0,-496)" /><g
     id="g44"
     transform="translate(0,-496)" /><g
     id="g46"
     transform="translate(0,-496)" /><g
     id="g48"
     transform="translate(0,-496)" /><g
     id="g50"
     transform="translate(0,-496)" /><g
     id="g52"
     transform="translate(0,-496)" /><g
     id="g54"
     transform="translate(0,-496)" /><g
     id="g3825"
     transform="translate(-0.91478147,0.79699745)"
     style="fill:#dcdcdc;fill-opacity:1"><rect
       y="2.0634835"
       x="2.6938436"
       height="11.266289"
       width="0.93459874"
       id="rect3822"
       style="opacity:1;fill:#dcdcdc;fill-opacity:1;fill-rule:nonzero;stroke:none;stroke-width:3.77952766;stroke-linecap:round;stroke-linejoin:miter;stroke-miterlimit:4;stroke-dasharray:none;stroke-dashoffset:65;stroke-opacity:1" /><path
       id="rect3824"
       d="M 4.0687927,2.5857587 V 9.7869301 L 5.9652771,9.2517743 V 3.120915 Z"
       style="opacity:1;fill:#dcdcdc;fill-opacity:1;fill-rule:nonzero;stroke:none;stroke-width:3.77952766;stroke-linecap:round;stroke-linejoin:miter;stroke-miterlimit:4;stroke-dasharray:none;stroke-dashoffset:65;stroke-opacity:1"
       inkscape:connector-curvature="0" /><path
       id="rect3826"
       d="M 7.1758328,3.267399 V 9.1052897 L 9.0723172,8.5701334 V 3.8025553 Z"
       style="opacity:1;fill:#dcdcdc;fill-opacity:1;fill-rule:nonzero;stroke:none;stroke-width:3.77952766;stroke-linecap:round;stroke-linejoin:miter;stroke-miterlimit:4;stroke-dasharray:none;stroke-dashoffset:65;stroke-opacity:1"
       inkscape:connector-curvature="0" /><path
       id="rect3828"
       d="m 10.248342,3.9470866 v 4.4785156 l 1.896485,-0.5371094 v -3.40625 z"
       style="opacity:1;fill:#dcdcdc;fill-opacity:1;fill-rule:nonzero;stroke:none;stroke-width:3.77952766;stroke-linecap:round;stroke-linejoin:miter;stroke-miterlimit:4;stroke-dasharray:none;stroke-dashoffset:65;stroke-opacity:1"
       inkscape:connector-curvature="0" /><path
       id="rect3830"
       d="M 13.297309,4.6277506 V 7.7449382 L 15.193793,7.2078288 V 5.16486 Z"
       style="opacity:1;fill:#dcdcdc;fill-opacity:1;fill-rule:nonzero;stroke:none;stroke-width:3.77952766;stroke-linecap:round;stroke-linejoin:miter;stroke-miterlimit:4;stroke-dasharray:none;stroke-dashoffset:65;stroke-opacity:1"
       inkscape:connector-curvature="0" /></g></svg>