<?xml version="1.0" encoding="UTF-8" standalone="no"?>
<!-- Svg Vector Icons : http://www.onlinewebfonts.com/icon -->

<svg
   xmlns:dc="http://purl.org/dc/elements/1.1/"
   xmlns:cc="http://creativecommons.org/ns#"
   xmlns:rdf="http://www.w3.org/1999/02/22-rdf-syntax-ns#"
   xmlns:svg="http://www.w3.org/2000/svg"
   xmlns="http://www.w3.org/2000/svg"
   xmlns:sodipodi="http://sodipodi.sourceforge.net/DTD/sodipodi-0.dtd"
   xmlns:inkscape="http://www.inkscape.org/namespaces/inkscape"
   version="1.1"
   x="0px"
   y="0px"
   viewBox="0 0 16 16"
   enable-background="new 0 0 1000 1000"
   xml:space="preserve"
   id="svg8"
   sodipodi:docname="offline.svg"
   width="16"
   height="16"
   inkscape:version="0.92.1 r15371"
   inkscape:export-filename="/home/giagio/.conky/Conky-Harlequin/Orange-Juice/pic/offline.png"
   inkscape:export-xdpi="96"
   inkscape:export-ydpi="96"><defs
     id="defs12" /><sodipodi:namedview
     pagecolor="#ffffff"
     bordercolor="#666666"
     borderopacity="1"
     objecttolerance="10"
     gridtolerance="10"
     guidetolerance="10"
     inkscape:pageopacity="0"
     inkscape:pageshadow="2"
     inkscape:window-width="640"
     inkscape:window-height="480"
     id="namedview10"
     showgrid="false"
     inkscape:zoom="61.367886"
     inkscape:cx="7.9707032"
     inkscape:cy="7.9999999"
     inkscape:current-layer="svg8" /><metadata
     id="metadata2"> Svg Vector Icons : http://www.onlinewebfonts.com/icon <rdf:RDF><cc:Work
     rdf:about=""><dc:format>image/svg+xml</dc:format><dc:type
       rdf:resource="http://purl.org/dc/dcmitype/StillImage" /><dc:title /></cc:Work></rdf:RDF></metadata><path
     style="opacity:1;fill:#323232;fill-opacity:1;fill-rule:nonzero;stroke:none;stroke-width:1;stroke-linecap:round;stroke-linejoin:miter;stroke-miterlimit:4;stroke-dasharray:none;stroke-dashoffset:65;stroke-opacity:1"
     d="M 7.9707031 1.0664062 A 6.9340844 6.9340844 0 0 0 1.0371094 8 A 6.9340844 6.9340844 0 0 0 7.9707031 14.933594 A 6.9340844 6.9340844 0 0 0 14.904297 8 A 6.9340844 6.9340844 0 0 0 7.9707031 1.0664062 z M 5.5039062 4.7773438 A 1.0722811 1.0722811 0 0 1 6.5761719 5.8496094 A 1.0722811 1.0722811 0 0 1 5.5039062 6.921875 A 1.0722811 1.0722811 0 0 1 4.4316406 5.8496094 A 1.0722811 1.0722811 0 0 1 5.5039062 4.7773438 z M 10.292969 4.7773438 A 1.0722811 1.0722811 0 0 1 11.365234 5.8496094 A 1.0722811 1.0722811 0 0 1 10.292969 6.921875 A 1.0722811 1.0722811 0 0 1 9.2207031 5.8496094 A 1.0722811 1.0722811 0 0 1 10.292969 4.7773438 z M 5.0566406 9.4882812 L 11.099609 10.451172 C 11.509077 10.516472 11.791673 10.868702 11.732422 11.240234 C 11.673171 11.611767 11.294233 11.858269 10.884766 11.792969 L 4.8417969 10.828125 C 4.4323294 10.762825 4.1497337 10.412548 4.2089844 10.041016 C 4.268235 9.6694828 4.6471731 9.4229809 5.0566406 9.4882812 z "
     id="path3802" /></svg>