<?xml version="1.0" encoding="UTF-8" standalone="no"?>
<!-- Created with Inkscape (http://www.inkscape.org/) -->

<svg
   xmlns:dc="http://purl.org/dc/elements/1.1/"
   xmlns:cc="http://creativecommons.org/ns#"
   xmlns:rdf="http://www.w3.org/1999/02/22-rdf-syntax-ns#"
   xmlns:svg="http://www.w3.org/2000/svg"
   xmlns="http://www.w3.org/2000/svg"
   xmlns:sodipodi="http://sodipodi.sourceforge.net/DTD/sodipodi-0.dtd"
   xmlns:inkscape="http://www.inkscape.org/namespaces/inkscape"
   width="240mm"
   height="185mm"
   viewBox="0 0 240 185"
   version="1.1"
   id="svg8"
   inkscape:export-filename="/home/giagio/.conky/Conky-Harlequin/Button/pic/bottom-bg.png"
   inkscape:export-xdpi="96"
   inkscape:export-ydpi="96"
   inkscape:version="0.92.1 r15371"
   sodipodi:docname="bottom-bg.svg">
  <defs
     id="defs2" />
  <sodipodi:namedview
     id="base"
     pagecolor="#ffffff"
     bordercolor="#666666"
     borderopacity="1.0"
     inkscape:pageopacity="0"
     inkscape:pageshadow="2"
     inkscape:zoom="0.85240274"
     inkscape:cx="453.54296"
     inkscape:cy="353.38606"
     inkscape:document-units="mm"
     inkscape:current-layer="layer1"
     showgrid="false" />
  <metadata
     id="metadata5">
    <rdf:RDF>
      <cc:Work
         rdf:about="">
        <dc:format>image/svg+xml</dc:format>
        <dc:type
           rdf:resource="http://purl.org/dc/dcmitype/StillImage" />
        <dc:title />
      </cc:Work>
    </rdf:RDF>
  </metadata>
  <g
     inkscape:label="Layer 1"
     inkscape:groupmode="layer"
     id="layer1"
     transform="translate(0,-112)">
    <path
       style="opacity:1;fill:#33696a;fill-opacity:1;fill-rule:nonzero;stroke:none;stroke-width:1.00000012;stroke-linecap:round;stroke-linejoin:miter;stroke-miterlimit:4;stroke-dasharray:none;stroke-dashoffset:65;stroke-opacity:1"
       d="M 15.117188 0 L 15.117188 646.29883 C 15.117187 667.23741 31.97548 684.09375 52.914062 684.09375 L 854.17383 684.09375 C 875.11241 684.09375 891.96875 667.23741 891.96875 646.29883 L 891.96875 0 L 15.117188 0 z "
       transform="matrix(0.26458333,0,0,0.26458333,0,112)"
       id="path3858" />
    <path
       style="opacity:1;fill:#51a7a8;fill-opacity:1;fill-rule:nonzero;stroke:none;stroke-width:1.00000012;stroke-linecap:round;stroke-linejoin:miter;stroke-miterlimit:4;stroke-dasharray:none;stroke-dashoffset:65;stroke-opacity:1"
       d="M 15.117188 0 L 15.117188 623.62305 C 15.117187 644.56163 31.975507 661.41797 52.914062 661.41797 L 854.17188 661.41797 C 875.11042 661.41797 891.9668 644.56163 891.9668 623.62305 L 891.9668 0 L 15.117188 0 z "
       transform="matrix(0.26458333,0,0,0.26458333,0,112)"
       id="rect3867" />
  </g>
</svg>
