<?xml version="1.0" encoding="UTF-8" standalone="no"?>
<!-- Generator: Adobe Illustrator 16.0.0, SVG Export Plug-In . SVG Version: 6.00 Build 0)  -->

<svg
   xmlns:dc="http://purl.org/dc/elements/1.1/"
   xmlns:cc="http://creativecommons.org/ns#"
   xmlns:rdf="http://www.w3.org/1999/02/22-rdf-syntax-ns#"
   xmlns:svg="http://www.w3.org/2000/svg"
   xmlns="http://www.w3.org/2000/svg"
   xmlns:sodipodi="http://sodipodi.sourceforge.net/DTD/sodipodi-0.dtd"
   xmlns:inkscape="http://www.inkscape.org/namespaces/inkscape"
   version="1.1"
   id="Capa_1"
   x="0px"
   y="0px"
   width="16"
   height="16"
   viewBox="0 0 16 16"
   xml:space="preserve"
   sodipodi:docname="humidity.svg"
   inkscape:export-filename="/home/giagio/.conky/Conky-Harlequin/Metro/pic/humidity.png"
   inkscape:export-xdpi="96"
   inkscape:export-ydpi="96"
   inkscape:version="0.92.1 r15371"><metadata
     id="metadata41"><rdf:RDF><cc:Work
         rdf:about=""><dc:format>image/svg+xml</dc:format><dc:type
           rdf:resource="http://purl.org/dc/dcmitype/StillImage" /><dc:title /></cc:Work></rdf:RDF></metadata><defs
     id="defs39" /><sodipodi:namedview
     pagecolor="#000000"
     bordercolor="#666666"
     borderopacity="1"
     objecttolerance="10"
     gridtolerance="10"
     guidetolerance="10"
     inkscape:pageopacity="0"
     inkscape:pageshadow="2"
     inkscape:window-width="640"
     inkscape:window-height="480"
     id="namedview37"
     showgrid="false"
     inkscape:zoom="18.530284"
     inkscape:cx="-17.564093"
     inkscape:cy="6.7794753"
     inkscape:current-layer="Capa_1" /><g
     id="g4"
     transform="matrix(0.01059752,0,0,0.01059752,3.5099763,3.5099831)"
     style="stroke-width:94.36169434;fill:#ffffff;fill-opacity:1"><path
       d="m 406.269,10.052 -232.65,405.741 c -48.889,85.779 -52.665,194.85 0,286.697 79.169,138.07 255.277,185.82 393.348,106.65 C 705.038,729.971 752.788,553.864 673.618,415.792 L 440.968,10.052 c -7.685,-13.403 -27.015,-13.403 -34.699,0 z"
       id="path2"
       inkscape:connector-curvature="0"
       style="stroke-width:94.36169434;fill:#ffffff;fill-opacity:1" /></g><g
     id="g6"
     transform="translate(0,-831.37201)" /><g
     id="g8"
     transform="translate(0,-831.37201)" /><g
     id="g10"
     transform="translate(0,-831.37201)" /><g
     id="g12"
     transform="translate(0,-831.37201)" /><g
     id="g14"
     transform="translate(0,-831.37201)" /><g
     id="g16"
     transform="translate(0,-831.37201)" /><g
     id="g18"
     transform="translate(0,-831.37201)" /><g
     id="g20"
     transform="translate(0,-831.37201)" /><g
     id="g22"
     transform="translate(0,-831.37201)" /><g
     id="g24"
     transform="translate(0,-831.37201)" /><g
     id="g26"
     transform="translate(0,-831.37201)" /><g
     id="g28"
     transform="translate(0,-831.37201)" /><g
     id="g30"
     transform="translate(0,-831.37201)" /><g
     id="g32"
     transform="translate(0,-831.37201)" /><g
     id="g34"
     transform="translate(0,-831.37201)" /></svg>