<?xml version="1.0" encoding="UTF-8" standalone="no"?>
<!-- Created with Inkscape (http://www.inkscape.org/) -->

<svg
   xmlns:dc="http://purl.org/dc/elements/1.1/"
   xmlns:cc="http://creativecommons.org/ns#"
   xmlns:rdf="http://www.w3.org/1999/02/22-rdf-syntax-ns#"
   xmlns:svg="http://www.w3.org/2000/svg"
   xmlns="http://www.w3.org/2000/svg"
   xmlns:xlink="http://www.w3.org/1999/xlink"
   xmlns:sodipodi="http://sodipodi.sourceforge.net/DTD/sodipodi-0.dtd"
   xmlns:inkscape="http://www.inkscape.org/namespaces/inkscape"
   width="240mm"
   height="90mm"
   viewBox="0 0 240 90"
   version="1.1"
   id="svg3951"
   inkscape:export-filename="/home/giagio/.conky/Conky-Harlequin/Green-Meadow/pic/fav-color.png"
   inkscape:export-xdpi="96"
   inkscape:export-ydpi="96"
   inkscape:version="0.92.1 r15371"
   sodipodi:docname="fav-color.svg">
  <defs
     id="defs3945" />
  <sodipodi:namedview
     id="base"
     pagecolor="#000000"
     bordercolor="#666666"
     borderopacity="1.0"
     inkscape:pageopacity="0"
     inkscape:pageshadow="2"
     inkscape:zoom="1.0554919"
     inkscape:cx="269.26904"
     inkscape:cy="170.07871"
     inkscape:document-units="mm"
     inkscape:current-layer="layer1"
     showgrid="false"
     inkscape:showpageshadow="false" />
  <metadata
     id="metadata3948">
    <rdf:RDF>
      <cc:Work
         rdf:about="">
        <dc:format>image/svg+xml</dc:format>
        <dc:type
           rdf:resource="http://purl.org/dc/dcmitype/StillImage" />
        <dc:title />
      </cc:Work>
    </rdf:RDF>
  </metadata>
  <g
     inkscape:label="Layer 1"
     inkscape:groupmode="layer"
     id="layer1"
     transform="translate(0,-207)">
    <image
       y="207.00002"
       x="-4.0282739e-14"
       id="image3876"
       xlink:href="data:image/png;base64,iVBORw0KGgoAAAANSUhEUgAAAPAAAABaCAIAAAAJsExNAAAACXBIWXMAAAsTAAALEwEAmpwYAAAA B3RJTUUH4goWCAEUpUi0TwAAIABJREFUeAEAjoFxfgEzfwQTFRPr7Pj/Avb29AHw9P4fFQgGBwXt 8/kCAfkKCQgCAvv//f8FAwv49/oMDwjw9fUBAf369/z9/AMDBv8B/wL+/AEDAAECAv0EAwH//wgC AfwFBf/2/AT1/vwLBP0GBAH4+/7//gQFBf8MCA4B/wPz+O4BBv/7/P79/QX59vwrKxEmIizS2OPe 4+gCAfcMBQUEA/8CBAjn5fn8/vwQFP0bHg8aFxn//wMBAQf59/n6+/oGAwT////7+/v/Af/7+vv8 /gD6+Pv+AgL29fjx8vPz8/0RDgAVEgwXFR/V1tsEBf/8/P78/P4GBgMCAQD7/wH6+f8ODAf8+/cM CwgBAgL4+fj//v/+/v79/f75/QEJCQADAf4BAAMB/gX7+gIB//wIBQUIAwQTDxLw7v7q+PIIBAEE /fj1A/v9//0GBgP///4BAQP+/gADAgMEBAT9/Pv/Af0A/QIABALt7vgSEQYLDAT++wYBAv0BAQH/ /wD//wAAAAIIBQv8/fb8/f3+/gIA/wD8/f3///v5+v39/PwICwQA///6+f4AAQEGBgf7+/3w7v35 +QICAv79//sGBwUNCv8NDwf9/fgAAAAMCw75+/n8/Pz7/f4QDgwGBAX9///8AAD++v7//P79AAAB /wD8+/77/Pz6+/cNDQYBAAEDAgT9/v4GBgf39/j9/fv9/f0DBAIEAwQAAAADBAAEAwn5+vz6+vv6 +vr69wD29wL7/QAFBgEICgABBQP8AP/7+v0GBAT9+v39/f4A//8BAQP///8CAgD8/v7//wAAAAED AwIA/wD8/fwHBwIJBwINCwQDAfwB/wH+AP4DAgX+/v8KCgoVGBfi4eD9/f0BAQL+/QEABP8GBAAA AP7//Qfq7Pf09P0JCQUEBvsTEQkeGxfn6u/8+/kEBQIAAAH9+/3///79/f4CAQEHAwb6+voZFRoW Exb2+Pjq7ezx9fEDEjsB9+70AQMA+wH/Af3/A/0A9fb78vX5CAf/Dg0H+fn9/P36DQ4LAAQC9PX5 AQP+9/b5AQACBAMDAQL+//7+AP4BBAEDBQMCBQIABwUHHQ4c8fAD7/r3BgH+AgP8CAUEAwP//wIA /wMBJiAUAAYH7Pb4+P/9CAH+AwcBEA4M8PL44+H149/k7PDvDwQBFQoGDhAO6e/4IBgY8PH29fr+ BwcG+Pb1EQ4GEhARBQUE+/8A/wICAgICAAIBAwYFBAUF/QEAAQED/gD/+/z++fv78fP3CQIACQYK 7e329ff3///8CAj9EA4R/Pv6BwcCBAMD9Pb5BgIAAPz9CwoM9PT3AAP9/vn8BwIDAAAE+f3//f3/ DQoFAwECBQEJ/PwA//v//f38AgUBEg0OTDpBLSBN3+Tu7vLoAwb3+gIF/Pr+//79DAsHBggJ+Pn8 /P76AQD/AQACAwAADgsH7vT3+v0BDw4BCgUIAwYDBQcIAAECAQEEAwQFAQAAAAL+AAEBAQEBAQEA AQD/AwQA/gME9vf4BwUBCAkEAP/+BgQIBAQCAAD7//8ABgcEAP/6AwMACgkDDAsCAQL9AP39CgYI AQME9Pj6AwH99fcCAAMAFhgNAgEHCAcLBgUE/gL/AwQFBQQF/f38BAUF//79AP7+BwUD/gD+/wH+ /v/+/f39AAD///8DBgYEAAD9AwQD/wD9/fwBCQkJAQAB+fj5AQAAAwQAAgEB+vr++vn/+PYA9vMA +PD7//r///cB/Pj//Pr///wC/Pr//Pn/+vj+//0B//wCAP0B//3+AP8BBAQBCAUADgsDAP79AQIE //8A/v4AAgIE//8B8vL29/XzBAIEAgEBAAD+ExIQBAED/v79AgED/v3/CggI//7+BAP9DQoIAwMA 6uvs/f39AwT/AgIFBQQH/f/7Af8C+/z7/gD9/f7+/fz++vv37+/u+fj4/vz8BQECAxc+Ax0ZEiUj H/Dv9/78/wcHAg8SDv//+gsLBQ8PDPn6+g0NDPLy9f/+AP8A/gAA/QICAv/+Afv7/AICBAIAAAsI CwEAAgEA/wQDAykgEnxfaCIfVMbXywYB+fz/Av//+gQFAQEBBfP0/CgrGCMgIu7t8PHw+QH+B//7 Af79+gIE//8AAQQEBgcF/A8RCwADA+nq8P35BOHk7QD/Bvv2+gMD/wUIAPj99RUWEBMVEggICA4L EQABAwEDAQYJBQAC/gAE/fz8Avz+APb3+fDx8gEAAAsHAwMDAf4A/AAA/gID/gUDBBsaIPTz8/8A /QoKC/7/+wgHBBYXE/X39/v+/QUBAgoLCvn9/fz9Afb3/gkJAwQDAQEAAwEBBf7//wMC/wcHBQUE AAoHAz83N0koSe77B8vd0QIF8wP9/v4BA/z7/QICAv7//wAB/AYFAf7+/v7//wIDBAcJCfT29vn7 AAwLAggFBwUGBgICAAcGCAQDAQMDAQQEAwEEAgEBAAD/AQMDA/39/gAAAPv+APj4+ggGBfz//AUF BRwaHfjz9vr8+gEGBf//+wYIARISC/8C+QkMAQgFBhANDQYGBfj5+/38/wQFAPb2/v0A/hcWFQYE BQUFBQACAQYFBgQEBQL/AAYHB/8AAgABAfb69woMCPz7+gMDAw0NDQsKC/z8+/39AAICAAUFAwAA AAMDBBYXFvHx8f79/f8A/gYGBv3//f/+AQQEAwAB//8A/gIBAQMEAQL/AAQDA/39/gIAAAD//wUI BgoKCf38+wMFAQICAgQGAgEC/gsMBQ0OAgoKAwUE/wUFAwAAAP///gQEAwMDAgEBAAQEAv39/AAB AAEBAf8A//r6+/z8/vz9/Pz8+//+/v7//goMAgcIAwYIAf//+gAA/wUFBgABAAD/APv7/P7//fv6 +gECAAQDBf79AQL/Awb+Cv4BAvP5+f0A/f4A/QMVLwr18/nv7+sA/QX6+/j/Avv//fkFBwL7/Prz 9PQA//8FBAf8/P8JCAj6+ff//v8DBAX19/oDAQMFBAQOCwoFBQUBAQEAAP//AgH5+v/2/evs8Pnd 4t73/Pn7+/v//v0AAP8FBQf49/3e3vDn4urw7u8GBv/8/Pn99/sHAQUEAQgDAwMFBPoHAwXz9Pb6 /vwQEhAC/wL3/Pz++v4A/AD9/P//AQYABQHw8/H9/vYUFQ8LDAkKDA8BAgEDBAcAAAT49/7s7fHl 5uvw8fb+/PwGBAAFAv////0DAwEHCAUEBQP3+P7i4ugAAv77/Pv3+voRDw/4+/kYGh3u7/T4+v0O BwgaHRvw8/X3+f76+P8IBv4EBQIDAQX8/AD/AQD+/AEGBAH+///7+/zy7/H8Avfk7/bZ39YAAvP/ /QH////9/QD9/QAEBgL///oB/wACBAMAAQH8/f7z9vcA/wH09v4NDQQMCwwDBAMDAwIEBAP/AP0B AgABAQD/AP///v4AAAECAgL9/f4CAgPz9/j7+vwLCgf+AvwODQ0B/gP29fX+Af4EBwULCQf6+PgD BP8GBQELCgn19/gXGhcbHR8AAgPz8/MCAAP5+v73+vwXGAsWFgv5AP8IDAz/AgEBAgMCBQQAAQD6 /vz5+/v7+/gDBAEIBgf+/v76+vv4+PgBAQEHBwcAAf7//////wD7+/z4+vgJCgn6/PsA/wAA//4D AwL8/fwDAgICBAADBQAFAQADAwADAgH+/v4BAQEDAgL///4A/v4AAf3/Af8DAwAGBQEEBAAICAAF Bf8MCwYA//wCAgMA/wACAQIBAQEDBAP///77+/kDAwH//wILCwr///79/v0GBQUFBQn8/Pv8/f0G BgUEAwL///0EBAL//v4BAAIEAwX/AAL+//wNDRD5+fv7+/oGBQMBAQMAAQP//AEEAgYOCwlPPlcj Eizo5u/z//UDcnpV7vIR5O3n/f78AwP+AgQCBwgFAgL+/v8B/v8A/vz+//7+AP///f37AgL+AgEE AQIC/f39CgsHCggIAgUD+/z7/f/9BAgEAwUD+QL+3Ovs2+LWAvwA9wLuAwAFAAD//Pv+BgYFAgH+ 9/n8/fv8EBEP9PT2CQYGBwYEGBQbAP8K8PLwCAn8//4DBwkL+ff5EhIQBQYE+vn1AwIB/Pv//PsB +fYA+/r9/voA7e7x5Obm6evr7/Hn8vLv7Ozr4eDl5uTp7Ony9PP7/Pn9CwcDEAsHAgIA/f39BAQC +Pf8/fz/BQMDBQQDBQQDAwL/AwEF9PP09fX85unq/fz+Af0B9Pf15ebsAQL//P0B/PwACwoBBAIB AgAHBQYJAgIA+vz+CAYH/gAA/gAC7/HzzuXQ6e3n/fr0AAL8/AEDBAEDAAIC/wD+AgL/BgYD/fwA AQAAAgIB///+BQMF/f3++v4CAwT9DgwLCAkH/wAAAAEAAQICBwgHAAAA/gL//v//BgUF//8BAQAB /wAB+v3++vv6BwYCExMOFBIO/gEE9fr69/n2Af//AP8DBgYCAAEAAQAC+fj9/fv/5Obu5urp6uvr BwUD//0A/f8D9ff8+fj2MDEkFRcUBQUE/wICAAICBAUCBQYH/v4A9/f2/v38BwMB//7/AAAAFRUV 9fT1AAAA/Pz7AQH//////f39BAQFAQQDDA8O+fb4/v3//wAB/wD+AQAAAAH/AAD+BwYDBQUBBAMC AgMCAwQCAwIABwQCCQoGAgP+AgP+CAsEDA0GAgP/BAX/CgsGAgP+FRIU+/z9AgICAAAD/vz++/z7 AgEBAgIDAwMC////AgEECwsK+fr4///+/Pz8+vj6BQUEBAMF/v/9////AwIG/f3/AQADAAAB//3/ AAID///99/f4+fn6BgYFAwMC/wACAf8EAgEDAwICCQ0FNig4QjJB7vLv3uziA32ERxkgR9Tg1e7v 6gIBAQACAPz5+wAB/v7//wABBAH/AQMEAf///AMDAf//AgQDBff5+vwBABAPCgYDAP8BAQUHBQMF A/4A/wIDAwMCAgX8BPsA+ff9+An8AgAEAf3+APv8/gMD/wQF/f/+AQcHBfv/+wMD/SIcFvoCB/P0 8Pb79v4DA/n8/Q4PBhEOEff09uzt8PT3+gYAAQADAgIHBfz7/Pr4/AP+A/Ty/PX2Afb2Aejo9evo 9+bk8+jl9PTv/fHv+v/7///9AgYFBhALBAQA+fv//gUFBP//BPz7//v6/wUDAA4MDvj49gQFA/38 /goMCv8C/AsKBxIODvv5+f4FBAwKBQcEBfr6+/n9ABEOBAMCAgUEC///Af0A/AEC/wIA/wEEAgEE Avz+APv5//v98v4F/f8CBP/9+gH+AwADAP0A/AcGBQQCBv7+/xERD/n49xEQEPv6+wEBBff6/wED /AsIBgkKBgUHCQECAwUGBvz9/QUHBwMDAwEBAAIBAwEAAvj5+f3+/PL19P7+/hEPDPb59TMwKP0E Bez08v3+/QYBAvz8/QMEAP7+/Pf2/P79AxUNFvr5+v/+/w8MBwUA/gAEAvr6Afj3Avj1/unn6iMe DSglJQ0LDgcFBwoHCvP29+fp6PTx8gYDAQP//gECAvr6+vLx8wAAAAQFBAMCAgACAf//AAMDAgYF CPwA/vPy9P/+AAMCBAMDBP///wMDAwAA/v//AAQEAgwLBvv7+wEBAQECAf7+/RAPCvz9+gQFAQkK BAIDAAUG/wEC/wcIBgkJB/79+fj29QMDAAAA//7++wH//v7+AQICBAD///7+/gEBAQEBBBscGvX1 9P39/QQEBAAA/wgICfn5+AMDAwMDBBAQDvn5+f8A/gAA/v8A/wIDBQEA//39//z6/QgJBgcFBQEC Bf/+AgMCAwMCAfj9/9fg0crcwOfx4fn69gPdFtPT38ju7+z/Af3/AvwD/gH+AP4GCAUDAgAC/v0C AgX8/wD9AQEFAwEIBQL2+wL19P4GBAALDAMBAgIFBwUBAgQCAQMEAwYAAAP9+foDBAP8+/4GBAT/ AwADAwb5+fr8/f4HBQQDAQAEAwD/A/z7+v4KCAkrLRkEBgYCCgv+BgX8/Pj//Pn19fry+PcCAwAJ BQELCQv8/PoDAwL9+/38/P/9AAL8/QD9/f8A/wD69v7++AH48P737QAA/gL7//sD/wYHBwQTDP8G Bwj/BPgEAQEA/wL2+v7+/AD++P0LCQcbEBfw8ff4/Pz+A/3///35/PsC/v8iHxsMDwzq7vQDBfwI AwH/AP0AAgT59wEPDgIKCwj/AQD8/PsCAv8DAQMBBAIEAgQC/wAEAgP/Af36+/z8/P3+/v8FBAX6 +/76+voBAP8GBgQAAf/8/fv9APz+AP7y9Pb8/f71+Pz8/vwCAwMFBgERDgsMDAgFBAX+/wECAgIE BAP+/v4AAAH8/f79/v/9/v75/Pr59v0HBAP2+ffw7/zf4urs7e/z8u8KBwX///4EAwP7/Pr+AAAC AwUICAkWGBjt7vECAv8FBQEAAAD8/fv//f/9+/v//QHz8fze4ufg4OT59/bn6OvZ2uPj4On18fIG BAEKCQUCAwMMCgkBAQMAAgMCAv8NCgj5+vn7+AAICAYFBQEIBgzy9vEB/AMGAgUHBwT19vYAAgAC AwECAQMA/wEB/gT4+fkDAwQFBQICAv8LCwgBBAT/AP4CAwAMDQr//vwDAf8CAgAQDw4PDxD09PUG AwUFBQcCAgD8+/wCBAICAwEDBAL+//7///8AAQD69/vo5un///4DAwL8/f4BAgQaGhjz9fEKDAr7 /vwaGhv4+f3z7/YNCxD7+Pr6+/sDAgD3+QMBBv4MCgj/AQP//wADBAIHBgUAAwAEAgL//v/z+fX6 APoB/gEDEjoD9Pb3AgQABQQCBQMD+/v8/wIA/v/+CQkHBwUD/P7/AAL//f39BQUBGRgZ8vP4+/v8 BQf/EhIKCAcJ/gEDAQIDBAIB/v3/AgIABwgJ/wAAAAAA+vv8AAEB/Pv8/v4AAwUDBgcE//78AAIB AgQDBAMI8/P2Hh4YLS0y+vr94N7j9fP1CwcIBAQDAwQF//77///+AAMD/P7/+fv6AAD/BwgDEA8J 9vf8BgcE///+AgID/fz/AwQGBAAF/v78AQD/BP/+BAX9GhQMAP/5Awf9BwgGCQkE/f0I+Pb+FBAN AgX8BgUJ8/f5+Pv5BAQD/v/9BQEE/f0E6O3x7e7yBgUEAwMDBAAAAwUG8vT6+Pf8DQsCBgYD/v0A AQECAQEBAQIBAAAAAgAB/gAAAAH//wD/AQIBAP8BBgUFAgIC/gD9//8C+/v/AwP/AgT+BAQE+/r9 AgMBBQUG/f4AAP4F+/z+AwQD+vz4CgsEEhEOBAMDAgMDBQUHBwcG//8A////AP8C+fn89vb18/f6 AP79DQ0EAwIABQMG+ff9+/v6FRMSAP3+/v39//4AAAAC/gAAGhoVCgsD9PT2AgMD+fz4/wD7BAMF AAMAAAAC/v8B+/z9/P3/9/QF7Of34d/s5ubx7+3y+Pj4BwYBCAkE/v37AP/++vv7/gH9AwMBBAQF /f0A9/n9AwT/CQoN7+/3+Pj3AQD9/v/+DAoL9fX4BAMEBAUADw4N+Pb4BwYI/Pz7AgQG/gD9BwgE AAL9HB4WEhIS/P35/P34AQL9AAL+BQMFAQAB9PX19vX1AgECAQD/BAQD/v/9AQEBAAAA//////// AQEBBwcHBQQEAQECBQcCAQICAQIBBwcGCgoJ7OnsAwME9vT3+fr85ebrAAAACgoHCgsK9/n6AAL9 CQkF8vL7BgkDBAEBAwEIBwYHAQEABAMCAgIBAAYAAwUB/P79AAED/QACAxpDDPv++gYGAfz8+wEC AwUHBfv+/v7//wYFBAICAPv7AP7/AP/9//v6/e/v8v38Afn6/QME/hIUCwwJCv4BAwUFAwICAQID AP/+/QMEBf7+/gEBAgAB//8BAAABAvv9/vr6+wgIAwQFAAAB/wIBBfT0/fn2AeDg6tPS2Nva4fz6 +hUSDP79+wICBPr7+wQC/wH///3+/v7/AAEDAvz+//36//f1/AD/AAAA/QMBAQIA/wEAAgECBv35 +AYGAggFAg4IAgQA/wYDCQQEA/f4/Pn5BQEAAfn7/wgG/RITDAEDCfX49/n8APv9/AAA/QgGBQcF AwYIDvP39gIC/wL//f38/P/9/QIDBu7w+f/9AAsKAQoLCAEBAAMCBAMDAAABAAEBAAMEAv///v8A AP7//QICAQIDA/z8/f3+/P///vv6//79AQQFAAoMAf7+AP///wQEBv39/wsLC/n4/vT1+v8BAgUH Avn89goJBQoKCgQGBQMDAv39/wABAf39AP39/vb29/T19vb3+wwMBQwJBg8PD/79/gIC+wcHAv/9 +QIB+wQEAQgJDfn4/fr6/BwcFxUXDQQFDPf5+vj59gcGBAUEBvz++wcGCPn7+/7+AP8B/w4NAv3/ /f3+/wMC/wUE/wsKBgYHAwQD/wQEAQIBAggICv38/AUFBBAQE+/v8wEDASksIwwMD/T0+gEE+v77 /RQTEAcICvPz9gEB/wQDAf38+wQEBQoLCf/+/fz+/AECAP7+//v8/vf0+/39/fPz8QgIB////gYG BQD/AQMDAwUEBf//AAQEA//+/AIBA/z8+////wICAgICAv39/QMDA/39/QgICfn7+AMEBBEQEPX1 9vv7/P/7/AkIBwwKDPr8+gMEAgMFCPf29icpJBETEe3t7wAA/AICAO/y+wQHAw0KCQMCBQAAAAcI BgIBAAUGAwcGBgsOCxILEwkBCvz+/gMhSwwEBQH8/PoAAQL9/v//A/z+/v3//wH///4A//77/gAD AwIDAgIRERT7+f38/v729/0DBQIODgESEwkBAgcCAgEAAQEBAwECBQQA/QH/AQD/AP8DAwMDAwL6 +v38/f74+vsKCQUBAv3+/v36+f4DAgb7/AD39/7//wAHBgMMCwX8+vj8//z8+v0CAgIHBAIUEA76 /P79/Pv+/P0CAgP49v0JBAkCBQIBAf8VFhP6+vkEBAD+//wKCP8MCgUDA/0WEgtUSF3Z2+7u9Oz+ /vsCBf39+wX8//0REf4WGA/8/gkBBwH9/wL6+foEA/0GBQP4+/rz9fYIAwUNCgcDAAIHCAcTEg32 +f309f8BAP8LCwMNDwoAAQABAgMCBAL9/vsCAgACAwL///4DBAQCAgABAgL+//3+/v8BAgEEAwX8 /AD9/P0ICgMGBgIHBwYGBgj6+vv+/v729vf///3+/QP7+f4ICAcDBALy9PEAAgEFCAYCBQX6/fz3 9/r09vXu7/Ly8/T3+PkCAQAJCAL29Pj29fgSEw/w8PgA/QQKBgz49/79/QEA//79/f/29/z09fUY Fxvw8Pbk5eQEBAIFAwEODRHx7/H9/fwDAgEBAf4GBAILCwgEBgX9/v0LCQcGBAEJCAAGBAIDAwED AwP5+Pv7+f4LCAzy8vX5+PoHCQbx8PQFAwP5+frv7+oBAAABAAQjJh4EBQf+/gL+/vsBAv/5+fwR EhQgIiPr7OkFBf4FAwIFBAf+/AH6+f729fQHBgYDAgMCAQP49/gDBAH+/v3+/v0AAP8FAwL//wAA AAD9/vz////+/v0FBQUAAAD+/v4HBwf6+vr9/f38+/359/r8+/7++/8C/QL9+v/7+/37/PkEBf8E BQT9/P7l5O3x8e/6+/kHBgP8/P73+AAFCQILCwYFAgQHCAUHBwYDAwEHBwYTEBIBAv80KjNOP1Dl 6uIDIksJAQABBQUJAgQF/gH/AwX+AAIC/Pz/BAMCBQUB/gD8AgH+CQsH9/XzAAIAAwIF8/L/AAIB Cgr+GRkMCwkQAwMDAwUG/wEB//8BAAEBAAEBAgMC/P7+9vf3/P39+fj8AwUCCQwI/Pn4AQEEAgED AgT/AgT7BwoBBAgBBgUA//78+/r+/f0DAAD//f3+BQH/BQH/IiAi9/X6/wH//f38Dg4IDQsEAAEG +fn3/f35BAQBAAD/BwgCFBEHBwgEBQUCCQj9DAH68fwC7/nvAQADAAAABwkE+fn/AwL+MTMmAwcF /gMC+fn9+ff3BwcCCgoG+v8E/Pb8CQMDJB8h6en1/wH9NDYs8vL56uv0AP/8BgUBERIMBwcFAgID BQUE/gIBAwQEBAMCAAEA/f79AgICAP8AAQEBAQICAgICAP8C+/v9/P36CAoE/v/8/f39+/v9/fz/ AAEAAQH/CQoH+fj/+PX9+/n8AQD+AwcC9fn37e/u7+/v8/b17/Dz7u/w9Pb2+fr6AwMECgYCDAoJ BAEJ/f0B9ffwAwYCDgwLCgoK8/PyBAYEAAAB/v//CAkI7+724eHp7uzuFhUW+fr3/v789/X4CgkN AwMCAgIAAgIABQQB+Pj//P37CwwBCgsABgf9CgkIAQD9AAAA/Pz+/v4BCgcIKycw7+3y+fv5AwX+ /fwB9vQC8/PyBQYB//4G+/r8DhIKDg8S4+Tn+Pv0AQAB/wAC6+zy7vDt+/v6BAEABAMD/v77BQUA AwT7CQoHAgIAAwMBBAQD///+AAIBAP8ABAMD////AAD/AwMDAwMCAgIBAwMDCAgHAAAA/Pz9AwMD AQAB+/z8Af7///7///wBBQMGBQMIIx4uFxQc6+zuAwUC+fz3AgL9AwEEAP4CAgAAAgL9AQABAAEA +PoB/QL7EA8ICwkJBgcEAgMCAQEBCwoK+Pv29fryCAII+fb33+rbAxZDDQkHBAD+/QD/Af7//QL/ //H3+wcEBAoDAP3+/gUDAvz8AfoA/gEE///+//78/Pr4APr6AQIB/gcJ/hoVDQQHC/8DCgADAwMF AQIC/AQDAv38/vr6/f//Avj9//r8+AgGAgMA/f8AAAQFAfv8/f36/gYGAwMD/gMDAv39/vn6/f8A AgD/AAH9AAP+/wcABfj4/ezz8AT//vn3AA4SASElHfr7A/j8/fz++QICAwQECvv8+RcSCAgMCP4B /QACAQIEC+fz8PX47AIA/vz8/P/9AAIF/wAA+evnAgAA9SQgHPn5COjl7fTx9AcHBgICAPfy+w0L CRAUCe/z8vH2NxVYAAAgAElEQVTy+erw+OXm7fTx8/z6+wAABgAD/hISBAwMCQIBCP4A+gH+AwUD AwAA/wICA///AQEEAAICAf39/gIBA/v6+/v9+vn5//r8/gsKAgID//3+Afz9AAME/wEB//z+BP/9 APn7/vz+AP79Avv3APr3Av/8/gMBAAAA/vf19vv7+vn5//78BQH+/gkE/wwHChgYGQUIA/H07/8B AQ8NBxUXEP7/AvT3/QIE/QL9/AEEAwEEAwAA+wgGAAYIAwAC+gQE/gEBAgEDA/f89v///f/6/wUB BgwMCQoIAwMAAAkJAAID+gECBBASFfb49AMCBPv7/QsMBQcJBuft5wAEAPr6+AIBAAkGAwUEAQID /f///gcFBvf3AODd6+Dd5QD9+gQCAgwLDQH/A/79/QIA/wQEAP3+/f3+AQUFCAQFBP8A/gkHDfn5 +RcYFfv9+vr7+wD//QICAQEBA/7//QMEAQICAf7+/QEBAf39/fz8/f/+AQIDBf8A/v8C/v39AP39 /QMBBQICBAEAAAcGBCgcIygmJODg3vn4+AH9Af0BAQQEAwcJBAcFBQD+AQL+//4BBPj7+v77CgIG +REPDAQGBAUGBAYIBvr//+/r7/Lw8vH07N3n3vb2+QMdSQcLCwYDAwP+/wH+AQL09/z6/fsKCP8E AP0DAgABBAf7+wD6+P3/+/8H/wn3+wD//gT29PoBAAH19Pn/AvodGxcPDAj//QEEAgoA/QL8/AH8 /gH5+Pr09PH09/sB//0KBwMDAgAEAgH7+vz+/v8LCwv+/v79/v73+f75+f4FAwIDAAEDAQEKBQkL Bf5LP0sI/irm6+P39vb7/v7x8f0bHREYGB3q6+36+vcEBAT+/f0DBAEREgcFCAT9APwCBAUCAgIA Av4DBAP8/f3//gH9/v8HBwICAwTt7v3v7vbW1Ofg4eP29vUGBgACAP76+vv8Af4fIQwREBD9/gj9 Bv77+PwEBAEDAgD7+v78+wH+Af4QEwYPDwkBAQUBAwYFBAQFBgQCAwL+/f4A/wL/AQH+/wEA//8F BAb////5+v339v4DA/8HCAAFBQEGCAj7+/z+/v4A/v///QD/AP39/f79/f/9/f8CAAH++wH18v33 9f/39QD//AX//AH59f349fsKCAUGAwD///3n5+z39/cJBwj6+fz6/P4pKif5+vvu8OoDA/sGBQcG Bwf1+PgICAgFAwMCAgEA//4AAAL//AH59/3/AQL+/f/+/v0BAwD7+/wA/gAEBgT+//z+///+/f/z 8vP8/P4CAgf//v4cHxcJCAgDBQf+/gP3+fv8/P0DAgL//wH+/vwICQYICAr4+vcCAv8GBgEGBwQE BAMGBgb6+/wCAwIBAQAEBAADBAL7+vsEAwT8/PsNDg0LCgvx8vTx8fT///0HBwMDAQUDAwYDAwUA AAD8/f3///4EBAQBAQIAAAD+/v7+/v4A//8AAv8CAgPz9PoMCAcFBgUBAgIHCAkCBQHq8erZ4tv2 /PYAA//8APz7/f4KCAn9/fz6+vj5+fwMCwwA/wPx9Pj7+gP6/PkKCQMODg4GBgcFBAfy7/Lr6O/0 8fr+/Qbz8vb4+PkDMFsXAQP/AQIF/f4C9/n78PP5CwkDBgQCBAEFBAEF+v39+Pj8Afz/DwoPEAsV 4efsAgID//7/9vX9/fsI9vz38fLtBAT5CAoG9/v7+P749vn56u3v7/Dx+fj7+vn9DQoECQcE//7+ /fz9BAYGAgIBCgsK+fr5/Pz+/P4BBgQDBwUFAwICAgAABggBCwYGJyIeDw8h1eLQAAH6+/sG9vj9 5OLu3t7i//73BAMAAAEA+Pr9BQcDFRUICg0KAQQCBQgFAAEBAgX//wAB/wAB+/7++vv9BwQF+/z8 /wADAAIA/PwEAQD8EQ8HBgYB///+BAMI7e4B/fv6Ly4jAgYH6u3///zzCAYDAgEB+Pj8//8E/P0A AwP6FRUNBAQF//8E//7+AQIB/v//AQEC/wD///8DAP///v7//f3+/wAB+Pj99vb6//7/Dw8F/f77 Af8C/Pz/CAcH/vv+BwIHAQIAAwQD/f//AgEBAf8AAv8B/Pr+/vwE/PkA+Pf7/fn+AQABBwYCBwQB BQQEAQIBAgEAAQEBAf8ACwoL6+334N7n6+rtCgUHBwYJBgcGDQ8P8/Pz/f38AgMEAgD+/Pz++/z+ +/n+/PkAAwD+Af8CA/8BCQIKBvwP9/n4/QD9/f/9/vwABAQECwsJ/v0ABQQJ8/X3HB0YHR4ZBAUH +vz87/Dw/v79ERAQ9PT3BQYDAQEA+fj5BQYDAQH+BwcEBAQE/f388fH0/f38Hx8f9PTx////AgAD AAACAAAD/Pv8BgUHGxwa7+/wAQACAgIAAAD+BQUFBwYF+fn3AAD+AAH//////////////v7///// BwgHAQACAP/++/z+9vf9CgoEBQYFCQoIAQQAAQMC/gP9/P7+AAECAwMEAwQE9vn6//77BAMBAAEC DA4PEhIP/v8C9PXz+Pf/BgYC/Pz4CgwKDg0LBwUH+fn66+nx9/b+8PD5+Pn8HBsYAy1cGwEBBPv8 Aenq8e3u8AH+/g8HAgYDCvL0+gAB//n7+ggIBQ0OCwQEBOrr8foB/gcFBPr4+///Avj3/Pv7Afz9 /+nr7eTn6Obo6Orr7Ont8fDw+fz7AP37/QwHAgsJBv79+wICAvr8AAH9/gIDAPX29QEBAvv9AAoH AwcFAwQFAwMCAQQEAPn9+QUHDd7k1uDp2vP98gQCA/8ABf3//AUCDgkLAxERBwEB/f7/BPv9Af7+ /hwbDQwNCgQGBQYHBwECAgUFBf7+/wECAwEBAvr6+gcGA/8AAAsNCP3++QUE/gcGAgcHBP7++wcH CPr4+/3+//Ds/9ra5+Hk5fj49BAOBfz6+Pz7/vv7Afj6/gMFBAQE/RMUDQgLCv/+AQECAQAAAAAB /wICAgQFBf39/QQFAgIDAfn6/vv7//r4/Pr5+wUGAAkJA/7+/QEB//39AfX0+QUBAQoFCfX3+/3+ /wICAAACAAIAAAIC/wEB/wcIAwYF/wcIAwYDAggIAQUIAAAA/hMSEfb5+wQEBf////3+/fj39wcL BAAA/gYCAQUE/v77/e3v9PHx8AcEAgkKBwUFBP37+wAAAfn9AP/9AAQFAwkGBAcGCAYEAjYsNUQ3 Tdng4fv++Pv++/8AAgEA//v6+gAC//39APj5/err7hcYF/n4/N3c3wcF/yEgGwABAvb3+gAB/gQE BPv7/QcIBv7//AMDAf7+/f7+/gQEAwEB/+np7QUFAQMEA/79APz8/f//AAAAAfLy9+Di5QQDAAkK BgIDAv37/AsLDhMTFe/w7w4PDP3++AEAAwUFBQQEBf39/QICAvv6/gMCAQICAQAEBPX4/QsKBQwP DQUIBQIDAgEBAAQEBgD/AQQBBQYFBQIAAfkA/QQB/g0MDPv8/wIDCTEyLOno7vj39Pj1/AEBAQIF Aff59gEDABIUEQwNDvr8/Pf79w8QDw8RDQwPDQMpWR3s7e/j4+vz8fcDAAASDQMhGRYBAAjv9fgG Bv4DAwAaGRcEBwP/BAH7AQL+///5+PgGBAQFAwX8/f7+9gD29P719wL18gD69P/79wL59QH28f0C /P0OBwUFBP8FAv8MDQoAAgT4+PwFBQQDAwABAwH7+//8/QAQDwQFBQIFAwIFBgYFBwYFBAf+Av39 /wH8/vsAAQUC/wb/A/n9/v4KDfsFBv3+/PoBAgEBAQb2+P3+/wASDwAiIiABAwIBAAQFBAcAAQMC AgX6+/vx8fEEBgMKB/78/QD7+/kIBQcHBf4PDwYJCQj29foFBAUCAv8XFhHy+PP/AQUC/wQPCQEB Afv+/v8FBAf4+P35+gD/Af4EBAEEBgAZGRMBAwMEAwX9/vsCAgEHBgj9/P4BA/4A//78/P37+//7 +v4CAAD5+fwFBgILCwUAAQAEBAT5+v4GBQQJBQcpJCjj5O37/fwCBf8CAQACAgD//wMDBf4ICgIF BwEEBQAFBAAREwsAAvoUFhILCw3x9Pf8/f0HCAb8/foJCQcGBwn38/wC/gENCQ0PBxfu8/EPDQz/ APv//v3/AP4XFRfv8/L9//4HBgYEAgIEBwj/AgADBPsRDAclHCfc5Ovy9+78/fwDAgT//fwCAwEG BgL/Af///wT29v7b2uPk4+sEAgH//P0dGhYABATr6ewBAQAgICD8/P/z9PQDAwP9/f0CAQEDBAMA /wMBAQAHCAMCAgEBAAEBAv4ODgz8/PkHCAQcHBj8/AAAAf3+//sCAQD5+f/19f3v7vEAAAH9/f0B AP8CAgP7+/v9/f79/f0DBAMEAwcBAAADAwD8/v75/P8ICgYREQ4JCgcGBgUIBwkDBgMFBQMAAgL+ AP35/Pj2+PcPDQwLCgnu7vPs7fLh4uLv7PUFAgL7/AD2+P0EBgL/Af74+fTu8+/4+vgCBP8FBwT9 APn8//7k5eoD+Sjx4uHw9/D+A/v9EQsD/gD/8fb4+fz9+/b3BQIB/QD/OC4WDQsQ9gID/v8G9/X6 BAb6+/oB9/UBAAH9/v8D//8B/fkA+vcA+vgD9vj9+fb9CQUCDQ0GAwb/AwMBCAkK9PX4/Pz+///+ /gD+BQUI9PT6/gAC/gEADQoEBwYMAwf/Af8F/wH8BQIF//79AwME/v8BAgEB/P37/P4F+Pz6AwP/ BQEC/wED9vj89vYACQMN+vb2+//7EBH/Hx0WDAoT+v4CAQD/9Pb+5+fx8/L3CgcD/P37BgUDCwoJ /Pv6AwMFIiMe8vP+8/b2/QH7AwMD+/n4AwH+Bgb+CwsDBwcE+voE//8D9Pb6//sC/Pn/AgH/BgYD /f77EA0JDw0FAQUDBAQDBAMD/wD//gD8+/7+AAAE9fT7AgADAP389/b2/fsBCgsDGRsR+PX89vT+ Bwf+DQsOAAIF6O3l/wL+//0CAwIBBQUAAf4ECAj/CQkFAwMACgoHAP79/gIB+vv3AAD/AwQDBgcI 8/HvBAMCFBMV9vT2+/z++/v5BAIDDAoDCggH/f4H9PfwAAP+BgUE+/v8AgED9Pj68vb9BgECCwcB AwMFAwMEAP/+/wAE8fb30N7Q8PLr/f7+AQAAAQEA/P39AAMBBQUEAQH+AAH9+/79CgYFBAICCQv/ +PYF29zo8+3uDg0P9PT56+7u+Pv2BQIG/Pr6AAD/AAABAQEFAgIA////AwMC/wAAAAL//f7/AAAC +/z89/f6CQsI9/X2AP/+AAEA/f7+BQYEDw0QBgYD+Pn2/v77/v7/AgABAQECAP7/BAQDBgQFAgME BwgH9Pf2//0E+vX/AwT+ERENDhEMBAcEAgYFBgEHAAECAQEABAUE7u/w/vn8/Pv9DxAR9fX1BQT/ GBcU/P31/wEA/vwB/fsC/P3+/vsD/PwB+/v69fnz8/X09fn69PL88vH69/T7A/4k+/36/wkGAQ8O BwUEAP0B//r5AAAA/A8RCvr3BObq+RcUCSsuLPwABuHe7Pbz7AIAAQIAAAID/AkIB/r7/QAB/gMF AAEDAf0A/ggGAAgIAQkLAwEB/QEAAP76//v7/QEBAf39/AABAA8PEQUDBff3+f79/wABABIOBA4R BwIBCQMFAgMGBgD/AAIDAwIDAQQEBgACAf8C/vr+Avn4+wgIAgcIAvX1AgkHAw0KCvb3/fDz//r3 /+vo8/Hz7voA9e7w8OTf8d/g5vj19xEPCAMC+/4DAAACBv3+AgAAAff4+ebn7/n6+QIE/gH//v38 ///+ABAREf3++w8QCB0eFvPz9vr7+AIA/hEREPf2+vz+/wYIAwMF/v4B+hgXEQgGCwMBA/7+Af4A A//+A/4AAPz6/f/+APn5+Pv59/r9//z//wIC/Pf49fr7/vv9/RUVFA4TEwIGBP4D/wYHC/v7/AAA /P///QUGBAYGAf///QMDAgkJCvj5+AMEBgcGB/////T0+PPz9gwLCQICAO/v7wcIB/z8/PsA/hkb FQoND/4CAvX+8QYEBv39+gsMCQD//wsKDvb49/X4/A0KBQ0LCAUGCQABAQEBAgEBAgMEBfn8+wMC AQYHBQUGBvz9+/z8+wMEBAEA//z8/AIDAxUXFQ0KCfz9+gUHAvj1+wYGBhsXGhAPEe3t7gUFAgQD AgUEBQICAAECAf79/wMDAgUFBfz8/AgJCf39/QQEBRUVF/j2+fv6/AIBBvTy9wIC//7//AUGBv39 /xYWGCcnIfDw7vv7+wUFB/39/wQFAf8AAAcIB/38/wkKC/Hx8fj4+QYHBRISE/Lw9vf4+wIE/xAR CxcYFAgKBwUGBQQGBfv8/Ovt7/Ly9A0MCvr5+/X19QICAAcHBvX19gICAP7+/QECAwD///z7A/Xy +/f1/vv6Av34Afv2BO/o+vf0/QH9AgoGCAMQMQULCgINDAECBPsLCwX9/gD+/AMNDQUlJSHq5/js 8vjp6PLW1tzX1OD28/MPDAf8+QAHBwMHBwP39vsEBgIJCwQSEw/4/PgDBAEMCQEMDwUBBP0EAwAI CQYSDhb08/UBAwD/Af//AP739Pn6+/v+AP/+/QAA/wESEgUWGAkEAQ0DBgQBBQUA/wAHCQYCAwP/ AQD+/wH9Af79/QX29/cQEAn//fn8/P4VEgwqKSH09/bq8PX++Aj29Abr6fXn5/Ln4/zv7vL8+v0L CQIJCAIREAz+AAH49fr59v0DAAMFAQD/AQQHBwIEBP4NDQ/+/gEHB/8SExHw8fPz7/jx7/n6/PoC AQD//QD8/f/9/v/8+gD//v0GCAT+APv9APwRDw0FBQP9/v79AAD8/QD//AD7+/76+fr5+fn7/fv5 /gH//v0HCAMBAf4BAgT9+QESFAUkJhQAAwAJBhT9/v/r7esCA/8KCQgHBQEBAwD9/fwCAgP39/cH BwYREA/8/PkDAwAGBgQVExLy8vEEBQL9/fwKCQn+/QD7+QAXGQcdHRX/AgUCBgIA/AD6+vj5+PYF BAcRERPt7u739/4NCwcICQQEBQj/AAAA/wADAwMBAQMBAQH/APwAAQH+//78/fz7/PsFBAQKCQkB AQH+//4BAgIMCgn09fH7+v4BAgIODwkEBQPz9PQBAf4CAvwGBgAFBQj+/v/9/f4AAP/+/v37+/wH Bwf+/v8KCgvz9PXr6PH/AP0A//0LDAUUEQ//AAD+/v78/P36+/3q7PHn5Of3+PcAAP4MDQn+/vv8 /v4AAAALDA319vYICQr8/PoBAQP7/fwAAAH29vr08wHx8vf19vT8+/4A/gT09PTo5+vn5urs6/AD AQEHBAAICAUCAgL///78/P0CAgICAgIBAf//AP7/AP79+gAA/gL9/AH/+wL7+AD79f39+v4HBQUM CAUC//sDFToCBwgABQf/DAoFEA4M7vP2BQQG8vD15ubq/gEB///8/fkE//3/BwQHCAsBAf/+AQL8 CAcJ+fv9AQMDAgEAAQD8/wD7/v/9CgoEBgb+/v/9BQcDDg0IFRIO8/b79/j3AAH+AQEABAQCBgED AAH///8B+f4B+Pb+AQL9FhcLEhMO/wEGAgUCBAQEBQUEAgMDAQEEAgME9/n+8O3yBgUAAf/7AP4A +vgD6un37e707vH2+/sCBwb6AAD7AAAD+/kB/vwABwUADg0GCgYA///9+Pr7/Pn8/Pr+BwIBIyAg 9/X3+wABBAT9+/j9+Pf6/Pz6+fkD7e/xBAQCCQoIDAoI9ff4BAIB/v4A+/sC+fsCAP4C/fz+BAME AQQC8Pb08/L0BwkKAQMCAgQD+fv89vf68/T29vj4+fv7/wEA9PX8AgD+DAkGAQEC/Pz9+vYB9/r2 FhcRFhQY4+Dz39/dDQsF/vz+AQABCw0J/Pv9BAMFBwcH+vr4AAD++vv5/v/7BwcF+fn5+fn4AQEE AAD/BAQDBwYI9/j79fP9+Pb0KiwmDQ4T8vH76efoAgIABgYE/f398/LzAgIG8vP7EBAJDw0L/gAB AAQABwgHAAICAgQDAgQDAf///v8ABAQF+Pr6+/38BAQABgYH/v3+AgQE8fH08/HzBAQA//4EHR4U DQ4L/gIABQcE/QD9/v/6AAL/AP8BAAABAgICAAD/AQIAAQEC+/v7+/v7//8B/v3///4BAwMABQUC BQIA+vr5/v0C9/j5BQYFCAgJBQYFAP0BBgYI//78/v/7BAUB/PoAAP8BDw4P9vX1+fj4BQUD+fj7 AgQB+fn4//4C9/j//fsA9/T+5uPw49/n5ufr7u728+/4BAMADg4J/Pv6/f0ABAQE+vr9AQADBQUC /Pz6AwMDAQEB/wD/BAQDBQUDAwIBAP/+BAP/BQP+CQoECQoFAQH5Hh8WAxI7/wMFA/7+///9AgEA A/v9/QD++wQDCP3/BPv++AL+/wUGAiAfDAYDBPz+/AYF/x4hERMVFezs9QUI///8/gQGAwMD/ggH AQgGAwIE/v4AAvv5/wsIBDUxKfsCCert6wYGAwMDAv37/AsGCPz+/fv/AP7/BPX0/QECA/8A9Bob DBUSIAEE/gYGBwMEAwIDBP//AO/w8+bl8f37+gsKAgP//wMABQwMCPP0/fb7/AYHAAQB/QL9BgMF /wUECAD9/RAR/wIA/ggGAAQE/w4PEP0AA/j4+w4QCQ4RDPHz9Pz+Avf79AMC/w0KEQICB/7/+gQF AAkKBP3+/fv6/Pv5/gMG/QEA/xQSE/8ABO/y9fr2/v7+APr7/gMGBP4AAPT3+e3u7/Dx8vHx9PPz 9fb39vPz9PT29/v8/fz9//79AgsJAQQA/wD+AgIDAfj9BurrANzb79LS3ujn6gwIAwMC/QIBA/// BPr6+fz8AAABAfv6+wIC/wIDAAD/AgAAA/v7//78AAcHCPn5+woJCRwcGw8PE/Lx9Pn9/Ozr/9rZ 5trd4eTm6wcEAQAA/gMEAQEBAP38/fv6//z+AAcGARUTEQMGBwYHAgAB/wECAgEBAQEBAf/+AQEB A/n7/Pv7+gICAQgHA/r5+f7+/wEBBAECAgUCBP7//Pb0/hkaDx8fHQYND/z/AOrr7AQGB/z7+hMS FPT09QICAwEB/wAB/wUEBgQEBPz8/fX1+AMDAQgHBQMCAAUDBAUBDPj1Afn6+gUHBfr7+gADAQIE AwEA/v/+/f3+/wEAA//+A/79Afr6+vb19QMCAAICAAAAAP7+AAcHBgEBARYWGPz79/r5/v/6B//9 A/37/f39BAD8AwUEBA0MBQUE/v7+Af//AQsKDAD/AvPz9hYXE/39/Pv7/AABAv/+/wEBAPv7/AQE AgMDAAUGAgUG/ggJBv4B/P7//RITEgMnRA/9/QH/AwL6/vn29/kJBgEVFRb9/vz9/voGBwMHBgP9 /fv9/wD1+fj/AAEF/QPz+fr+/wDx8fAHAwUMCgP5/P4JCwQGAgcBAvoIAgb6+wH5+gDw7/vj5/Tk 5OkD//sDAwAB/wILBQYHCA3s8PcEBAEE///y7/7+/f//AAbu8PMAAvcPDQcCAgT6+gPn5+ri4+fi 4/P39/0aGA0B//z9AP0jJRUHCA/4+fv9/vsHBwADAv0LDAQA/wf///cYGwYFAwIBAgAAA//6/AAM DRP3+PX8//0jIREUGBQBBg/v9PT8/vkREggSFRPz8/r2+fkEAwD//wP8+QP//AAIBv4BAgL7+v/s 7PX8/AEC/gACAQD+/QD6+gH49vwCAAUHCAL8/fz19/nz9vrx8vny8fL4/fz8///6+/z//P4IBP4D AgEBAf8EBAMEAgP9AgP8/PoCAAEC//0NDQMHBv4CAwMOEA739/f//gIVFg0CAAX08/cFBAYA//3/ Af8LCQ/6+vv9//37+v8XFxLw8vvg4unt8Oz9+/oDAQL9AP76+/0BAP0MCAAREAr9+/kDAwIA/wL/ /wL//v359wICBP4ZGwwLCQoEAgUBBAL/BAEBAQIFAQQEAgEAAwH8/Pz49vUGBAQCAQP//v4AAQAA //0IBgQFBwj+///4+ADo6fEcIBH6/gLX1dr//fwDAP3//f/y8vMEBAT///8BAQL9/AACAgD+/v76 +v0DAgMGBgABAgQC/AUC/wAaFRwjFDLi6u8BAvf9/fv7+v4AAv0E/wf9+wIEAwD/Afv8+wP09vgE /QYQCBH49/v7/gABAAL///0GBwXz9voICw36+vb//v0CAv8BBPwFCQAFA/4LCwMGBf4CAwEA/wAC Af0QDw4JCAn9/P76+fvy8PIBAv0DAQUDAQYHCQIJBwkAAP0IBwEGBgEJCgQEBgMDBAMFAwMIBgrl 4+wDFD0F9fj7//7+CgkDCgQG+fz/+vz+/P3+BgYG//399ff7BAIC//3/AAAAAf7//v77+vgI8PP0 CwkCAAAEBgMH/QD9/wD5APoD/v8E/gD7/gIB//3/AP0A+vv8AQH+DAkF/v3+CgwFGhkM7vH89/3+ /v/9//v/+voB/foC9fT66+z86eXx29bq29jl4d7k7ev47uv7Af4EDgwBBQD7AP8E+PcA/PoBBQMH 8fHvBQb+AQD+CgcLKCkd6+zu/wH/AAAB+fn/BgUAAgIA/fz98vH1AgEC9fT/BAMBJSQo3+Do7+zv /wIF8vP7CwwK7fDrBQYH9fX++Pf7AP79BgEBFA8T+PsA+/z6DAwIBgcG9fb4Af/9//4CAP8CAgID +Pb6+vn/BAII//4BAgEC+/n6BgYI/f4C//8D+PX9BwMKCwkDCAgG/fz7/v3++Pj7/wD6BAMABwT/ DQwEBAT/AQIACQkH9/f4/f39BAMC8/Pz/f77CAYEBAQBBQQECQsK7+7yAAH+AAD//Pz+IyIcAQID 8/XyAgP/IB4b/v8A+vv6CAkEEhAKCQkC//7/BAUC+/r8AgICBgYJ/vwB9vb+/wH8Cw0BExQRAQIC BwgH/wMABQMEAgIDAAID+vr7+Pj4+Pb3FBMQBwcHAAEA/v7+BgYE+Pj5+Pr5AwMB/v0D9/QA397p 4+Lk/e/kFuwAACAASURBVPv8CAcB//3+Hhsf8PHzBQUGGhob8fHwAgIBAgIA/f3+//8CBgYDBwYF /f/6/f3/BAIEKh4sbFZt2+Xj5+3l/gL/+vr8BwUCMDEx9vb2+fr4AP8A+Pb6BgcGBgQDQkFE3uHh +v78AP/9/P79ExQU8/X37OzvAgMABAQCBAX/AQUCEBEQAwL9CAgFBQYCExcT+Pn3//3/AP8ALi4u BQYD8fHvBAUEAgEC+fj9HR8i8vL0+fj2///+BAUFAAH/CgkI+/v4AQL/AwUEISMh/gL8AxlJEPv/ /gME/gsJBgUFBfn7//P09f0A/wD+/vr5+gICAQIAAQP+AQD9/gIAAv/9AgX++v4IAAL/Afz6+wcH /Pv+AQUDAxEPFPX78Q4PDfn6+v77/A4NDQACAQgJAQD7/Q4OFPDw9B0cGwgNFO/08v77+wL+Af4A A/78AP7+A/z7A/fzAPPw/vj3A/v7/fj0/QMAAw4O/w0KAwUA/RARFvHx/e/u9fDv8AICAQoKBfv5 /Pb1/vPy9/n6/gIEAvn6+gH/AQMC/QoHBv/9/wH/AwIDA/4B/urm9tfV4vHw8Q8M/gD+/vr2//Lw 8QcFAfj0/gIBAQIAAAYAABgQFREHGdzj5/n5/BQUEhAREvHw8wUEAAYGB/n4/P37AP/+AP79Aff0 +/bz//jy/f75A/n1/fn0+/75/AcDAAgFAQkKBv/+/f///gECAgQEAgwKCP78+wMDAQIB/wQCAv4B AAMEA//+/wAA///+AQECAgMC/wIC/wH8AP37AP////7/AQD//goKB/79/+Xl6vr6+wMDAQEB//79 Afr8+QIA/QoJBgEB/f39+wwLDvn4+f////7+AAAAAPf3/fz6/wIEAAMH/RYZFA8QDwQFAgIDAgAB Av/+AP39APPz8+7s7gYGAvn59/z7/AYGBvn59wEBAf///QoJCwIC///9/QUDBQH/AgMCAQwLBwUE /h0eGff2+/z9/vj2+AD+//r8/P3//QQDAvf3/QICAAsLBwEBBAP/BwEEAP8F+fX56e7w3vP4+O7x 6/r9/Pz8/vv5/ejr6P4B/QACAvX0+AsKCQoLBgMEBN/i4AIEBf4CAP/+/BESEevt7QQDBQcGBgED AAUFAAIC//8A/w8QDwUE/v8A/f3+/PT29QD//wQBCOzs9uXl6PDw7////P////39/xETEvj39QMD BPr5+QICAvz8/P///vr7+g0NDv79APT0+QQGBvb39AMyYCfz9PL9/Pj6+/r5+/sB+/sJDAgBAP36 +vsFAgQC//4GAwQEAgECAP8EBQQ0LyQrFUPW4vH/+/gAAAT+/f/9APojJBL6+wDw8vr18/UBAf4U Dw3+AP/1+voBAvr9/P38/ATw8fri4Ovp7On8/PkIAwP/+/7+Af7+/f38/QAA/gH+/v0GBgH/AQIC Av8JCQQLDQAKCf0BAf8VFQ/7+//x9PgJCQYUFA/7/Pv9AP0CAQP+/AH8+wP///4A//0CAP8DAgEG AgEUEQ8aGBj8+/319/YDAggEAvwBBf0QEQoFAAUDAvwNDAsIBgb//QEA+gEGCPwIBQgFA/4XFBQv LDfP2NYCAgHx8PPs7u4EBQIDBQPw8fgCAgMAAP/+/v8CAv/+/AEA/gMA/gIA/QIC/gADAAALCQMa FxABAPn5+fr9/PsEBQP+/v7+/v7+/P4CAgL///8A/wMAAQL/AgIjISPw8e/+/f/7+vz//v8BAQQF AgUSEBP59/v+//0A/gD/AP3+//39/fwUExUICAn29fQBAQD29fn+Av0IBwT8+fj//v739/0SEhP9 /fz9/f3+/v8NDA75+fv29vz8/P4CBP//A/wYFxYEBAUEBAUAAALz9Pfw8fPo5ucCAQELCwcGBwP9 /f76+vgGBgYBAv////4JCA39/f7/APr/APsCBf0KCgYHBwf7/PohISMNDhHn5+YA///5+fgCAf8A AgAODg3z8vkCAgEJCgX7+gAAAQIDAgL+AgT2/ALh6evw9ej8/v39/f79/P8DBAQGBwP1+Pb+AAD8 /f8YGBEDBwQKDQsCBgQABAADAwP7+ff9/f0BAwIA//4DAwEB//8CAQMA/gH////x8fP///sICAf/ //8EAAIEAQP//wP8/P0CAgH+/fwDAwL///73+P0iIh4LDwj5+vz39fQFBQUCAv4EBAMCAgEFBQkB AAEDAwX39vX49/UDBivz+/b2Dw4L+ff6Af8CEgwJ/P76/wH/AP//CQcHDAgGAwEAAf//AgQCAAP/ Jx0TOSs83O7s7enjAQT8/f3+/v8B/vv99vb/+//7DAkKAf//KCUiERMR5u3vAgIBAwL/+Pr7CAsK //78CQgGBQX+CQQGCAYJ+v/6BAECBAQH////Bgf+HR4QBg0C+fj8DhAI///5Af0FAQUBLy4pCQwK 7O/xBgb9+/z2AwYD/wD/CAoG///+AAD+Bwf/AgP/BgEFAf7+////+Pb2AgD+CAkK+Pr3AwT7CwoL AgMB+/33DAgH+/4F+f32+/7/+vr9CQv/Cg0KAgQJAQb+9vvw1dzXAQQAAwMC/Pz+BgcDBwcC/f3/ AgIC/wAA/wD/BwkEAwQBAgIBAgMABwf/BQb8BAkABwsCAQP/AAL//f//AgEAAgMBAwMCAAECAP// AgEBAgP/AQH/BAQC//4A9/n86+3s/fv9AgAC/v4AAP8A//0C+Pb89/T4BAICAwIA/Pr9AAH+BQcD AQMD+/z6+fr5BwcCAgL/AQIFAQT/AP7+AwEBAQAF+/oA8PHwAAD/AwMD/v7++fj7AAH//fwB/fwB BQgG9vnz8fPuBQgJ9/b46ens6Ojt6+3v+/n9CQcDBQUCAAH+//3+Dg4P/f38/v/9AwME9/j3/v0B CQkIBwgFAwIC/v78+vn/+PgA3+Dn5ObrAwT7EA4MEg4O8/b2/gEC+/n4/v0CAQL+CgoHAQII/wX+ BAL9AwACAwID/v/7+QAA/fkDA/4CAgUB+fz5BwQFAwYA/gAC////GxwSBg0NAwgFAgYCBQYE/Pr5 +vn2AAEAAQEBEREP+vr4/Pv7Av8GEhAW9/b1CgoECAwI+/r6/fr/DgsL+PX4/AD7BgYECQgHAAH8 BAQB/f4F/PsD9PX3/gD86uruBwQDAgIACAgHAgMBAQEA9/f1AP8A+/r6AwL/CAgDAxE0/wsH/ff6 /AYMAhEJC/oABfb49/7/C/r++hAMBwQBBAAAAf8BAwEDBAADAebu8MnZyu/u5AIB/wMAAQABAvz/ //j8/gIA+wIBBRUVC+jsAuPk6fPx6v//AgP//wAD/wYGBQMB/wMC/gAC/w0JBRYTE+vw8v8CA/z/ AAUDAggH/gMF//T4+v38+woIAwQC/gYGBPsA/PDx/+3u9Ovq6/37+AwMCQH//A8MCfz7+/r3//Tz /v8A/QEAA/v4/f/9/wD/AAYCAPf5BfP2//f39AQCAPv6AfwA/P4C/BAOChoZFe/y9P/7AgQH//r9 /hYWCwgICAgHAQL9BgAAC/8BAv4B/wEC/fz9AQD/AwYIAPn7AwcE/gQCAgMCBAMD/wEDAv///QUG AQUG/wQFAQgJAgYFAQQE/gAA/QUEBQQCAv7+/wIBAQkHCvr5/QMDAAcICf7/+woMCfv7/gMBAP/+ AAEBAfz7/QIBBAb8AfoABRcOFicaJejr+Pn7+QAB/fr8/QUEBgEB/g0MDf3/+/8CAv39AQH/AwL8 AA0JDP35/P4BAf8E/wYEBAQEBQsMDfT09vz+/P7//fj2//f6APz8/QkICPX6+enq6+jp6/Hx8/f5 +fn1/QcIAQYHAgQBAAD/AhAPDf8CAvT2+QEBA/76/QAAAQD///r9//j4+AIDAAYDBAUGBAYDBP/9 /QEF/QoDBgoKDAQIB/T19AIDAf/9Avz7/P39BAwOBQYFBAYDBQQEBgMDBf78/gIBBAP/AP3+/P4C AP38Afv5/gQE/QkIBP/9Bff4/BofEiYdJAoKBgcHCfv2/+fh6AcLBAEDAQH/Aff4+f38/wUEBQoL Df3+/fr89/3/+gAABPj7+wQDCAYEAA4HEu738f8B//3+/f8A/v8B/QMC/wMFCevr9fPw9AoJAP8C AwQEA/f5+f7+AAEBAQQIAfr5/AX9AgsHBf0B/AMcQQEFAwr6/PwaGwYVEhL2+gTz9fT3+P8DA/4T Dwr8AQL5/f4BAwT9//4BAQD+///6/P4BAAL+//0DBQP8/f3+Af8KCgL//v329/zu7vgAAQD48/kC +gIRCwYJCwz19fX9/v0GBQEMCwoCAQP09fkICg319Pf8+/kKCQEHBwn8//0CAv8EAgIGBgMWFRL7 /fkAAP0DAwEC/wL59/j+/P0EBQT4+f4EBAINDhXq6PPy8vwAAAEIAwIB/v4GBAMGBQEFAwEdFhw6 JUXr6f7v/OgA/A0BBP/8//38/v/4+Pvy8/T/APsBAfv4+v/7+gYeHQ0FAg7+BPv7AfoBBAP///0C AgT//wH5+vsDA/8GBwIA/vz49wELDAj+Afn9/QYFA/wIBgMAAf0HCAQEBQACAv8DBP8DBAIAAAD+ /v79/vv/Af8LDAn/Af77+/j+/P/6+P8BAAT7+vsBAAP6/P/+/v0HBAMBAP8HBAQEBgsBBvYkGw9t XG8IACPK28T/A/4AAQL6+/wFBgL+/QD////9/f/7+fz7+PoD/wEiHiTs6vL9/vwCBf8B/v3+///3 9vf+AQH/AAAQDxT2+Pz59/z8+P/39Pz7+v/++gT++wL8+AD49PwDAP8GBAEFAf8MDAv59vny8vr6 /Pv/AfwCAQMCAAP9//wBAwL9+/z+/f4A/wIQCw8KCQj8+/cBBP8GCQUREhPh5Of29/L9/f4EAgQI CAnz9ff6+f8UFQ0EBgYAAf8CAwP//wADBAT+//8AAP4A/wAAAAIAAP/8/PsBAP8JCgf3+fzz8/zu 7vQIBf0JCwrb2eDa2d8FA///AP0GAwUEBAb59/v7+fsZGxUTEg4FBgL39vcA/wIeHx/q6e4TFAwB AAf3+P/5/PoJCgkDAf0EBQP8+v/+//8A//8SEg4BAP0EBAH+/vz29voDAgECAgP//wDz7/r7+gEL BQ4JBw329vkDGDMc+wH2+fn99fL8DAkS6/Tw/Pr5+vsCDg4DEQ0E/wQHAgUEAwUGAAD/BAICAAID AP///wH//wD//wH//f7//gP/CwkEDQwKBwgJ+Pv8/fr9EA0ICgcBMCkt3+Hn//8CBwgD+/z7+ff9 +/r9BQcG6ezyAgIBCgkDJyYgBwkK8PPzAQH/BAEA/wD89PX0AgL/AgL/AP/+BQMBDAoGCggHAwME +fv5/wH77Ozy+/wEAwMCCQcDCgUEBQMBBwYDAQD+BgcCMS8eaVNjBwgoxNXFAQD0/wD+AAABAQME AP//BAUFBgYIBQUB9vf/9/UBGhz/GBgL/gEMAwoJAwX/BwQL/P3+/v4A/fz7BwcCAQH+//z+DA0G BQgE8/b5BAcACgQA/gD8CAgDBggCAQL8BgUDAgL/BQQCAAD+/v3+AwYH/P3+EhQVAQMF9vb4CAcD HBsf+/v7/v/9/Pz99vj+CgoCCgcGCAYHBAQBAAACAwIG9fX109rO6PDd9f/7/v/++vv9/v7/BgUD +fv6AAEBAQEC/vz+DQoLCQcHEBAY6enw+vz5DQ8GDAsLBQYEDA0O+Pn5/v//+fr7/v76BAIBAgED +vgA/PsBAPwD9/P7+/n8AwACCwkCBQQBBAMA+vr7FRUX//4I+fv3AgH+HBwb9/X5/QD+/v3+/v3+ AP4CAPz/+PT7+fL8+v39+Pz7/vwA///+CAYCAgEBAwACBQEF+Pr7/fwB+vn/DAwEDg4MAQUE/wH/ AgMD/f//AwUEBAIA/wD/AAD/BAUE/v78AP/+BwkFAwQC+Pn+9PP94d3u1tXi7Ov2AwAECgsFAgD/ ERETBwYI+fj6AwIE7+/4HB0d8PHv8vLxAP8B5+jr+vn/IiYWBwkL/gL6//0H/Pr2AAH9AgAC/fwB BQUGAAD9+vr2BAUCAgEEAQIAAwMDAQEB/wAB9fX5AwAFBwYIFRQVIyEh5OfoA09tWNfgyfv5A/z1 A+zu8QAA+QMBA/b0/QwNARcWCgIDB/3//wIFAv8A/QQCAQIEA/z++wUEBP3//QABA/39APr9/QsI Avbz9/n7/f//+wgFBAwPA/0D+fLv9fH0+f8BBAIE/QEBAAsKEPT39wMD/wYEAwAAAvn6+u3u9Obl 7gYE/wkJBPz/AQYDAAYHBAEB/gAAAAMCAQkLB/7//SMjIff59AD//QABAfz9AP/+/gYEAQYB/QMD AAUGBfz9+gUHBAQFBerq6tvezODo4+zz7f/8+v/+/vz8/gD/AAUEA/4A+/v6/v37APv9Afj4/gYD /S4wGgoKFgMBBAECAAMDC/8B//P09/v69wgHAAYFCPf2/BcZDx4gIe/v8wMD+hYWFPf49gACAAAB /QICAQQEAwICAQEB/wICBAkJCAIBAf/9AOTh7/35+AcHCPf39/Ly8/8C/BQVEvX2+fj8/g4OBAgG Bv8AAwIFAgIF/QUGAv8G/vL79/X9+wMBAgAA/gABBP//Afv9+ggJA/8AAfv9/AkJBggKB/8CA+zw 8v4AAPr99wECAPf3+Pr6/f3//P/+/QQDAgH//gH//QACAAD+/wIDAAYEBP/9+wAA/wgHAwkIBAMF /wUFAgUGBPv7/gICBvz8/v39+v3//+7r7v8A/vv+AP79/gEAAAT/Af/+ABoVGiQaLOTn7PkA+gD8 AAEA/QgIBfz7+wUEBgQCBfb7+fX3/Pz8AQkNABQWEgEAAAMCAQUFBgD/AAEBAAICAvv7/QECAff4 9wABAfn7+hQWFA0ODe3u7v/9/wH/AgYEAAcI/gwNAgID+QcICejo7vX18w4OEAICAuvt9uTj5/Lz 9QQEAAMFAAAAA/79AgD/ADAyLAEDAOzp7P7+/QIBAf7+AAAAAf4A/gEA/wUCA/7+/f8B/QkHCPz7 /QcHCPr8/AgICAsKBwUIAv0A++rt6P4C/wP9JOD4/vv6+gIGBv0JDgED/wX49vv5+QYDA/sdGhIM Cw0AAwACBAQHBgcB//8EBAQCAgIBAgH/AAL+AAP8+///Af0PDQgSERD0+PwB/v8aGAr+BAH9BA7+ /vv5/vv7/fsHCP8hIhkA/gXz+voFAvwFAgD+/wH7/wD19wEHAv8pIxwAAgDv9PcFAf/9//4BAQEC AgIBAAH4/f739vzw7/T9/vsFBQP5+QL7/PwGBwQLBwcJBQcECQL8//wBAwEDBgX+Af/4+v/o8vnq 8eYE//gDAgECAgMEAQP+/v4FBgEGBwEEBgD+/AP4+vz49wP18P729fgtLRgWFA8A/w/2+vfj5+fq 6fAODQcGBAALBwv09frp6/bp6uoFBf78+QH1+fQGBgb7/P0FBQUAAAABAQACAgH8/P0KCgr29vcC AvwBAQAJCAMGBQcBAQD6+gECAgL9Af0GBwnw8fz8/fwRDwUGBgYDAwj/Bf8CBgcA/wIFBggHCAcH AgUKCAUNDQsMCw/y8/T+//wICQIGBwb09vkREw8SFA8CCgkABAH9Af37/PoFBAT9/wD6+/oFBAQC AP8LCQgFAwb9/f8BAAUAAQEBA/8DAv0FBQELDQUHCAADA/wCAgICAwIHCAj3+frx8/cGCAH7+vsC AAIEBQQDBQD09f0EAwIFAgMFAwQIBAYZFxNNQ1fY3eD0/fEB/vz/BAD+//0ECAUDBAf/AgP4+vf+ /gL+/gMAA/saGxQIBAcDAgIEAgMA//8DAgL+/QH+/v0AAAEEBAb9/f309/3w8Pby8fIJBwQEAQEG BwQJC/8JCAQHBwYBAAP9//0GBgIBAgP29/f8/PwICQIKCwgDAgQEBQMICgUGCAYEAAPk3vPc3ODs 6vH+/vb+/f4DAgUAAAH//fv8/v0WExf09PcBAQADAwIPDxD7+/wBAQHy9PkLDAsLDAkGDAcBAwAD BQQBBAMDFDsB/v7+/v37AgP/DQsDBwYI9vj9/f39/PgAFBb4GxkP+/8H/QUEAAP8BwYJ/wIBAP8B AgEE/f7/+fz69/v7BQQBAP797/L0/v4BCAwAKCQV/gIH/Qf/AP8G+gAB+vf8/Pz8AAMCAwL+9PL1 CAgE/wAAAgEE/fv8BgQAAAH+6O7w8fT3BwYF/f0CAgL/BgUBBwYG/Pn+AQH9Af8DAQEA/wH8AgME 8PP6BgUBBQAACAYGAQQA/wMCAAECAgEDAwEDAwIB/AD9+fz6/wAB/wAB/f/+AwD++v7++wD9AgQB BQMCAgIBBAQG+vkA+/j99Pb+7Or61tff3+Hj3dvh2dPl7+z7DgoDBQL9+vn79fb5BAUAAwYDAwL9 AP/9/wMEBAX/BQkFBgUC/Pv8//8AAwUECggH9fL6+/n/Bwj/BfwBAAIA+v7+EhESEg8Q9fbyFBMW /Pn87ezv/wEB/fz+GRgOBAQBAwMGAwcBAP0ABAUFBwgHBwQE+vj2/gH6Dg0PDg0N/AD/8fT2BgH/ /f79+/wDAvz/MTAcCwsTAP4D+Pr99vbzBAMABAP/CAYHDg0Q8fDz+/39/f39AAD+BAQAAAD9BgUE /gEBAwcDAQP+AgIABwkGAQAA//4BAwEEAQEBBgYAHBkZ9vb4/P37EhIQ+/oB+ff5CAkGBgYKBQf+ AAEH9fjxzNfM8vjy/fz/+/z8AP0C/v7/GRgUIyIh+fz+9fHzAP0E/fv+AgD/CAj/ExQTAAH9/gAB /wACAgP/AgEA//4A/f39/f3//f4A/f/7CQYBBgUCAAAAAAL//gL8BQUFAgP+GRkU9/b3//3/Af/8 Dg0M/Pv///78BAX+AwL/AgL+AP//CQgL9fL3+/37/f////7/Bgb7/foBDQsN/Pz9AQMC9vv7FxUQ /Pz8AAID/v79/P39+ff8/v37/P77+fr+CQoLGx0WBwsHBwoGBAQCDAgKAx1DD/8B//n5/QIEAAgI Avr89/8BA/X2//f1AQcGAhcbDBgZG/35AwAACP0E+AICAwEBAAEDAvv8Aff4/fn5+xIPDQoJCPX2 +vj6/vn4/zIvEyIiHf3+CP7/AfLvAfv48QsKDO3s9/r2+ggEBgUFAQMDBPv8+gUHAQUFAwAA/Q0N CQgGAgEA/AEC/QAA/gsKDBQUE/Pz8f8B/w0NEBQUEvLx8Pf3/v0A/woJBAUFAAQGBAMFAgACAAYH BAMDA///AAEDAwUFBAUFBP///wIEA/4BAf/9/f4CA/v8/QUFAgUCAP7/Bfn4//Pz+gIACAD/AQAA Avf2/vTz/fr5//7+/woNAgcG/QYGAAABAAMDBPv8+/38BAP8AwgEAAYI/gD9Af/9/gMCAP3+/QMC AgEAAwYJCPn6/P78/AkDAgwIFPn8+/r7/PDv9fHv8wED/wYGCPz7+wAC/vv8//38ARQWAA0OCwEC CgYHBQICAQcHBgD/APPx8/z4/fj49hcVEvj59PLz8vv7/QD//AMFA/r4/vDw+QL+Aw8VEe3t7+jm 6QP//wgEBfr5/vn5+wMCA/j59xUWDwEABAAA/v7+/QECAAgIBgYIBQUDAQQDAgUFAwD+/gIDBQAB /vj4+AYEB/n3/e/x8vz9/QYGBff4+Pf2+/z9/xESCgsJDQIE/gICBgEEAvz/+////AMDAv7+//39 /wQEBe3r8QAABeXn6v/+/Pv8/vz9AAUIBfv++BQSDA8PDQQEBAYFCAMCAf0AAQMFAv7+//3//f7/ /Pv7+wMBAP/+/QICAAMDBAMC/wIC/QID//Lw9P8AAvn2+gUDBwYDC/3+//8C+gYEBv///wEBAP7+ /ff3+Pz9+wkJBQECAQMEAAQG/wkKBQICAAAB/vv8+/3+ARoZGSAgIenp6v39/QkKChQUEfz9/Pr7 /fn5//Xz+R0lCycjIA0JDBAPEe7v7wMcRQ3+////AAL+/f0DA//+AAL39v8BAgb6+AL7/vz+APEe HAwYFhADBQv+AgMEAwL+///z9ff08/nv7vUDAP4B//z7+foDAwb4+f/y7wT07vMHBAPv7vrb2vDx 7uobGAcHBQX+/QIIB/4D//v29voKCwr3+f0DBgb69/oFBQT9/P0HBAUA///9/v0IBgrz8/j08vYB AgD/AAD8/P3x8fAGBgf8+wD+Af8ICP8KCQQFBQQDBAMHCAQAAf8AAQL/AP8CAwMBAP0DAwP/AQH7 /Pz+//8CAwL+/wH9/wAEAwAIBgL6/f8NDg/9/f3/AP3/AP0A//8BAQX8+gICAwAMDQMFB/wGBQMA AgH+/AP29fsA/wP//fwIAP8B+wH7+QgA//3//v4DBAIEAwMDBAP//gHx8/b7/fsKBgUcFBoNDBnl 5+YVFxL8/voGBgj9/fzw7/MAAfwEBAL7+wD6+wMFBfcdHBgBAQUAAv8FBQUCAwT39fn19Pf08/f/ //7u7+v19vT9/f75+vsDAwAAAgD9/AL39f/q6fTW2eHp6O7//PwMCQYGBgP9//3+/v35+vkCAgMM Cg37+/z8/Pr///4BAQAODw749/YCAgAA/v4BAP8MDAz5/v/9//wBAP8KCgz28vsAAf0CAwIBAQD9 /f38/QIDAgEPEQYCAgUBAv8BAQH7/v4BAv4BAv/8+/wDAQT4+vcKCQj7+vvq6u8DBgEFAwD6+v78 /AL6+v3///74+/UZHBUKCQn8/P4CAgIBBQT19vb+//3+/fz5+ff9/P0A/wAEAwP//wAAAf0DAgUC Av8BAAL9+wT19PsC+QELBA4JAw349/j5/Pn//wH///8CAgAAAP8AAAABAgEDAwYAAAAEBAP8+/4h Ih0bHBn/AP339/YB/wDl5u3p6Of6/Pr+AAH/AAIcGxfq6+kCAgP9+wH08/zi4vD59Pf49PLZ1+Db 3OsDIkwT+v37/f7/+vz6BQX//vwE/PwB+vn5AP4D+vv89O8D7u3vAAH3CAn/AwQC9/T87ez06ery OxD2kQAAIABJREFU9fL3//78CQgBAwL+BwYFAQIE9PX5/Pv96+cG39/v5uXt+/v2Cgn/HBgVFBMU 7O/rAgP8AgECGhsW8/T69fX5AAEDAwD///8B//8A+Pr8//8BBAQFFRUY8vH0AgQE+vr8/v///v7/ AgL/AAAA/PsA+/z+DAwCDQ4HBQYFBQcIBAUEAgICAQIABAYE/gEABAQB////CAkJ/v7/AwMD//7+ /f8C9vb6BgYCCAYB+/7+///+/f38AwL/CQkDCAgF/v76CQsCCgoBBQb+AgD//wAB//8E+fn8AwME AgACCAX+FhILYl5p19bq8fPrAAD/AgIBAAL/AAD++v0A/f3+DAsHCQgG+vj98fP47vLz+vz4AgIA ERAM/P39AQD+BgUDBwgJ9/b69/YBAf3+GxsSFhcO/wABAgYJ/PwA6Oru/Pr/8vH2BAQH+fn9/P// +Pn6BAQCAwYCAP8D/wD/AAEA/wABBAQGCQUECggD/f36/P36AAL+AwMBCAcIAwIE8PD0AAH9///+ AQEB//8A/f3//v78CAgIAP//BwcHJiYm7vPw+vn4HR0cEQ8S9/j4/P75BQUFBQYB/wD/+vn/AgEB FBcJBgYJAQECAQUDAwQF/f7+AgIBBQUHAQAB+fr4CgoFCAkFFBYQ/QD9AgD/BAMG+ff8+/n/CgcI AAL/9vf0DQ8MCAoK/wMA+fz8+Pv4+Pj5+vj7+/z+//38BAIBAv8AAgMAAgIA/v4CAgAA+vcC8vD7 CggECAYFIyAjSUVKz8/OAQT/+/z+ERIQ/f76AAEAAwQEBAMC//8B/v/8CAkI9vT98PD2Dw4P5ebm +/n8CQcIAgEEBgUDBQYCAQIB9vb56ejr/wD9AAAA/vz///8D+PUC6uX15+Xy8vD3CQgBAyxaHfr8 +vLx8wgGAwQD/v/+/xUUFfv7+fv6BPX2/f38/+zq/Orq9eXk6uPd7Ojq6ujo8vTz/AD//QwKAgkI Aw0MCBIRD+zs8AICBAP+BP8G/wQI+wkGCQ0OAwcFAufh8+zs8f8B/QMDBPHz/gwNDf7/A/n8+QUF /AMC/v7+/AACAf7+/v7/AAD9/ff38/8B/AEC/wAAAP/+AgQFAwQEAfz9/fz7AP3+AAkLAQ0NBxAP EwECBQYGBv//AAQHBgMFAgIEAQIAAfr7+/z8+wQDBP/9/gECAP39Avv9/AYGAQQFAP0ABfz6/AEB Af7++wMDBAAB/QoLAggKABARDPr6+wIC/wECAvn8/AYFAg0MCAcHAwL+AAUCAuXm4vD38ff6+wED Av8B/gYHBPz8/v4BAAL9ABcUDwkJBv4DBvf6+AIDAgABAAME//r79QH//wUFBQAA/vz+//j3APn3 /f75B/7+8iwwGwkIDfwACPr8/enp7/X0+/f1/Pr4/fz+APv8AQgKCAEC/QMDAvz7AP7+/wQE/wYH AAkJAAUD/AME/woJCQ0QEvf1+wYGBv39/P38+wcHBP8A/gAAAAICA/79APz7/gAC/QEBAfv7/PX2 +Ojo6v8A/f7+//Hw9/z8+fb49AkIBwMCAPz8+QMBAf/9A/z8/RgbCwkJDQMEBQMEAgEAAgQEBgEB Bfv8/f7//Pr4/wAB/gAB+goKCvj5+/35+goJDPLv+AD/A/b2+/z+APz++e/y7u3x7uvv7fDy8u7s 8PX19/n4/Pf2+QYGAwYDBQD//wICAQAB/wIC/gQDAfLw/QgHCQ0RAgMLBfr78tfZ1gAFAfwB/v37 /hYXFPr69wAAAAcHCQQFAAQDBQED/RYXEvb1+vHw/Ors7P///g4NDAkGB/z7/v4A/AcHAv39/AAB AwQCAgUFAgEB/gABAv38/gQBAAIE/wMIAQkIAQsIAwMUPwfo5Ov8+fsMCgn9+/36+gHz8fX7/v/9 APoPCQcAAwP8/P769f/29P/08/zx7v//+QAIAgARDQQIBP/4/P369v8GBAH5+vj6/wIEBAAEAfsI BAIGCP8DBP0DBQH9AAEHCf8VFg/28wD0+ADz8/L29/gDBv0IBAT8/QEAAAD+/v8CAgIEAgMBBQH8 //4AAQACAQID/wAEBQUHBwH5+f8HBgP8+AX3/wADAv4QEAASFAgFBgv7/PwHBgwCAwQCBAL+AAb9 /v4FBgcEAgX//v8AAQH4/Pf+AgX4+voFA/0TDw4NDw/4+vcCAwAAAQD+/v0DAAECBQX6/f0CAwAG BAD//wIEAwD89wMLDAABAgMCAwb/AgD9AgDu8/P4+/cHCAL8/P8BAQIEBAACAv7/AAL9+f8iIxIJ Cg//AgL8AwD9APv6+voCAwEA/wEBAP8DBAMAA/8bGhvz8ff5+f/6+/319f3z9fAtMRgQCxEDAwTs 7fX19PkDA/0A/QAEBwIGCwL//vsJBQX7///9/v4IBwf/AP4EAwECAf4AAQIAAQEAAQAODgrz8/MB A/0KDQr/AQD+/QAHBwYKBgr8/Pn+BP0DAwMGBAMAAPz//gEGBQj/AP0HBQIHBAn39vn29/gFBQQG BQX+///+AP///wXv8Pr//wISFAYWFhQBAQcAAvgBAAUCAwQC/v/+/PwA//7y+fQMCgn8+f3x8fP/ AP8QDRD7/fz6/fv6+v4C/gH5+AD49/37+/34+Pv08vf6+Pv59gD49P/9+vwLCgcA/QD+AP0NDwv4 +fkCAgQGBAn29f3+//0OEAQHCQQGBAb9AP4BBAD/AgACAAT4+fjv7+8A//8DBAMHBwTy8ff6+vz+ /QDp6PATEQ8EBf8DAgD8+/0bGxYMDwj+AwL29/j7+/sCAgMBAP0BAAD9/P8CAQb+/v8CAwAHCQID AwADAgANDggAA/0D+hz0BAIBBwgB///4BQYCCQoM+vn5AAIBAgQG/fj9/P7+AQABAwMFAAH+/wH/ BQQABQYBAQMAAgT//wL/A/4A+/j++/r+AP0ABP0DAv/+AAQD/AP//wP/AAP///8CAQEFAAD/BgcH 9vb7AAMCEAoDBgAGBgcBCAsJ9fT2AwMBAwMB/v7/AQICBwYC+fr8AwMGCwkO+vf7/P/8+vv7AwEF AwQC9vQB8u75CAgL/gD9FxcKFxUI/wUL/wP//QP6AwIABwIF/wH8AwMA/v////7/AQIB+/v/+fj/ +vr9/wEB9vX58fT1Af/8/fv9BwUH//4ACQoJFhcW8fPyAQD9BQQDDxEP7ez5AQX6FBYNCAYKAQQC BQUEAgMD/vz/BwYH/gH9/v8C+vr7AQL/AQEB/Pz++fr+HB4GJikg/fwJ+/sC6+nrAAAAAwH//v39 AgIF/fwE9/b9CgkL8PHz/gD7AAAC+/sA8vD54+PqCgv0FhYUCwwS+/n9/f74CAkBAQMD9/f7DAgI FRIT9ff3BwUG/f3+AwIB///+BAQH//4AAQED+fj88PHzBQYCAQAF9PL39/L6Afz+BgMCEQoV/fwA /QD7/v77AP8AAgMBAgEEAQEE/wD/Cw0M9vb3+/38GxoY+vr5/Pv5BQUG+/r6BgcK9vT8+ff9BQX+ ICIYCQkIAv8NBQQEAwIE/v8B/P0A8fPz/wABCQcEAgH+/f//+Pn9IyYeCg0N6+3wBgYI+/z+//79 +vkAAPsG9PH/9/IA9/QA/Pj+AwH/BQP/BAICAgIBAwMC+fn4AQEB+/v+AAD/8vL6CwsJEBENCgkI BAYGAAEAAwMEAgME+/r6+/v6AQEACAgH/Pv89vX4BAQH+/v9AwMEBAQD9/f5AAACCQoN+/r/8O/2 GRkb8vDv//79/vz9BwQFBQMF/P39AgIEAgMDCAgICgoIAgMA/v78AgMBDQ0M+Pn3Aw80AQ4OBwUF //z8/f79A/v8/AH//wACAvz9/wD8//7//QMDAvv8/gkJBgUGAAQF/woLBwMFAAAA/gAAAv38AQED AwACAgUE/w8MAxsUGfj6+fn+/AMDAAQB//z9AAMDBPr7/PLx9gQFAvz/+wb/+g4LEPDz8vv9/AMC AQUFBP39/QICAv//AAIBBAACAP///vn59gwMBvz9AgAB/gH/BPX3+Pf3Af/7/vj4/fb4/QD8+iIe FRoWGfn6/wIFDQIGBQED/AgIBAIDAwEBAQMEBPn7+/z9/fv6//38/AkKBQIDAQABAAH+/wcFBBoX GvDu9fn++/f59gD//AIAAPr5+/j6+vj6AP8AARscCQ8OEwADAQIEAgADAwIDAgQDAwADAQMCBfr6 +wcIBP8A//79BvbyAu/w9f7+9/Hx9eLi6Pv7+wgEA/8A/wIBAggKCQIABff1+PL08QEC/wL+Av/8 Afz8Af/+A/Lx/ODa8ODg4ejp4/Pz8Pz7/vX0+/X1+gUDAwMB+wD++fr8ACgnJ/f29v///wEBAQ8P C/j4+AEBAQUGAgQEAwIFAvT1+fr3/wUCBQUCAgkDCAL9C+fn8P8A/wQDAAEDBP39/RQTFvj4+gEC /w8QEvL09AQDAf7+/f7+/Pz9/vj3+AwODP/+AvTz+wL/Bfj4+QgL/SEjFwcHDQME/gAB//n6+fP2 9PHy8QH/AQIC/AEC/gICBfr4AOTi6+3r7gP/AwD+/gUEAP7+/wIABfv5AgH+/wQBAAMCAgcFAAYF AAIBAAH/Av8C/vv7+w0NDvv7/AMDAf7//vb2/hIUEBQWDAQGBgMFBAIFAgQFBgIAAfDw8gEC/xYV FQgICfX19wcHBxkZG/Hx8QkJCvr7/f8AAf79/RkYGvr6/O7u8+Lh5wAF/AIDA/n7/CwtLvb49vj3 +w4ODQEAAO/w8vz9+f39+wUEAgYHBfT09QICAQMWPv8BAfz9//4BAAQEBAX6+/sLCQoBBAL29/oM CAYbGhL19/cBAQECA/wEBf8FAwL+/v0A//4BAAIB/wL8/P4GBgAEAP///wEAAgAE/wEQERD6+fsD Av8C//8AAQIAAP4CAP8HBwQEBQAJCAEPDgny9P3+AvwBAQICAAL/AP8HBwgTEhXy8vUBAQP/AP8D BAEFBQATEhDy9fsBAf0FAwcCBP36/AP7+v/9/v/89wHw7vvs6vAaG/okJBkJBwcBAQQCBgMFBAIG Bgf7/P36+wH5+vvy9PT19PkEA/4IBwH+APz//wMGBQAPDgvt8PL5/AD+APwHBwMCAgAEBAP//v// /gb8//r18gMcHA0cGBT9Af8ABAMBAwYHBwgFBwb8/v75+f76+vkFBQEDAwECBPr9/ALr5QHq6fbp 5/MBAvoMCwcAAP8IBggA/wLz9fT8+vwFAgALCgn9/QD++wQCBAL3+PoAAP/+/////gL19P/07gD1 8v/6+Pv59/8GBAMQDwgGBgAPDwzv7vbh4ucGBgIICAf09vYBAPwGBgf5+voEBAIAAPz6+v39/AAG BwQIBwUDAgMfHxxXVV3S09bz9/T/Af8AAf8AAADu7vH//wD9/fvx8PALCQcCAgH6+vr//QAFBQf7 +/sfICD+/v7x8Pb4+P76+f/x9PX4+/MQEQz+Af7u8PHs7e7t7u/8/f0PDAr+/Pz//////f/8+v0J Bg1BPUDp5OX//vr/Af78/AAGBwQFBf8FBv0ICf8JCwIUFQ38/vsDAgIIBwj7/fkJCAr5+PsHBwX9 /fsAAAL29P4KCwUhIhYICQn/BQMJDAkEAwP29/zw7vL/AP8PEBAHCAjs7e4AA//v7u8FBQYLDAz+ /v0BBAMFBAPo6OgKCgYSEg79/vgHCQYBAAD7+/zl5Of49/gDAgQwMDDy9PL7+/gEBAL+/v7+/v/8 /P0EBAIBAQEDFj8DAgQFAQABBAX/DA0E9/b++/n7/wD/AwUB+/j8Bgf+AwQEAQMACQoHAQD7/f0B AwMBBAAABAIDAf3/BgQBCwQADQQNBgAT6uz69wLz+fr5+/r6AAD+AQYB/fv/AQH+AgABAgEBAwL+ CQgDLC8s8/r+7u/wCQIE/gAB/v4A+fn8//4A+fn7/wD8///+AQAG9PL8+/cB+P37BAIA/Pr8CgwH +foA8PH/Af7/BQAH+fkB8PT72tn08e/pDwz8FRENBwUGAAQF+fn78vP37Ozv8fL19fn+Av8CCQUF AQD8AwMD+/v+CAgFIyQeAAIF9Pn+AQL8AP/+//79AP3/AgIE/Pv//v0B9/f/+fX5KCoNFxge/P4A AwUGBAUH/v7++vv+6ejsAwMBAwP+AgEA/fsICQsA9/kACAYECAgACQsAAAD9AgAA8/P3/f0AAP0D AfwACQYD9/f89vYBBAT8/v/8CwsH/P7///4D+/wBAQAA/fz9/vv9BgQEAwMBEBAIAQD7/v7/9/j/ BQQHAwP+CgoJ9ff3/v3/AAAD/v4B/v7/BgUG/f3+9/j9BwoFBwcDAQL/BAUG8/jszM3N+Pv3/gP9 //7//wD/DAwKAAABAP8ABAQCBwQB+/v5AwEAAQEEAAEE/f0A/Pz+9fX4+fv69/f6+v3/+foC//0M 6uvx7/Ls5eno6eru8O/1+fX9BgMFBQP8+/v8BQUH/v0ACAkGCQ4D7O3p/P77+/78AgUCBwUCAQL8 CQsF/wH+AwYE//7/BgYHBwUG+Pr3AQH9BAYFGRga8/T0BAQE+vv4/vwC9fT//v/5IiQWHBwbBgsI DAwL9fT54t/k+fj9ERIM5+jq7u3vCgoIAgL//vz+/f39NTc17O/u9vf3Av/8BQYAAwQCCAkCAgP9 APv+AP7/A/4ACQQHFRIR8PLz4eHk+fr2///9CgoI/v4BAAAACAgH/v7+AAD/Axc7AAABBPwA//z6 /f75AQEBAP79AAABAgQAAfz8//Pz/f4A+QQGBAD/AQIC/QQCAQEA/wQEBAH+AAEAAP4CAAYFBFZA OmdPcQAFJ9De1AEE9QAD/f3/BAIB//0B/wMDAQEBAAH/Af79Auft/N7e5vTx8AkHBf8BAv/7/QUD A/r3/f/+/wQG/wEDABscF/f0+Pn4//4C/QMC/AMDBAEBAvn1/AYEAvj6AP38/gEDAgIB/wD+//r5 /uTi+dPV7NLV4N/f5t/d5t7d6Ofj7/T0/Pz7APr2/QkGAgoJA///APr6/gQACO3r+AwOCQcHAvDr 9f8D/Pr7/AIBAwUFBf39/Pr+/f37APj1Avj1/uzv9SQjEBwbGAgICfr9Aeft7+De7gEC/QQD/QQD A/r6AAsJCxEQE/r68AgIAAUE/wEAAAD/Bfz/APz8AAUFAwYD/gIHBh4WEVdIYs7T2/f49gD/Av38 /gH+Af/8//79/gkKAgD//wMFAwUH/g8QBQwPCff7+AYHBQMDAP8A//7/Afb29wMCAQIC/woHA/f2 +wQBCQ4OD/X19PwAAQ8MCgsHCQQDBQIDAAAABQADAAAB/gMBBf/+A/wB/RcXEP79+v7/AAQGB/4A +wECBfz8/f4B/gAAAwD++P4BAPn3+//8/wAGAAH+AgD9/Pz4+/v3Afn4//f1A/n0APn0+wYFAggF Af///AMDBf3/+/39AxYZDggQDPsA/Pz9/fr6+gUCAwIEAAIDAAIDAAQEAAQC////AAMDAggJBvv8 +gABAP79//Px8//+/vr5+AUDBPj6//v7Avr5Auzu7g4SAREKCurq7dLS3e/u9AcG/v78+QcEBwgG Bvb39wABBAoJCvj4ANbY4Pn29QcG/ggIBf/+Aff2+vTz9vv7/vrz/AQCAAwKCwUAAQwHBvX++P8A /QEC/wYEBAH/AQIC/gAA//37+/38/QIBAgMWPgUDAwMC/voFBQMGBgv6/fcCAQIDBP8AAf4BAgMK CwQDBv7//v4DAwECAP4C/wAICAcEAwIBAQL//v4IBgUCCPn5+PLy9u7g6uro7d////oC/gP+/QL9 APwMCQr//v4AAP/8/v4FBgcAAf0FAwIGBAUEBAL8+/kJCQsMDBTx9PcGCAX/Afr9+wIA/wH7/PwD AwAICAP+/f/+/f8EBAUDAgMSERD09vYBAAH7+/0A/wEBAQL+/wD//gf8+gL9+gXz7v/y7fr18f/6 9wD8+f77+f0JCP4IBgD///oCBAAICgf59/j8+Qbn5vLx8fAGB/4EAwIA//8BAQIZGBr19vgA/wEF BQjz8vj//QTz8vjd3OXl5+Pl5t3d3ePg2+4C/vsOCgUKCAT+/P0BAQL09fb19fEHBwYhIR7x8/H+ +/37/v7/AAMAA/4LCwcDBwH/BAD+/frh4uTy/fb/Af3+/v0CAwEAAAABAwEGBgEEBP0HBwMICAQC Av0eIBYQEg/x8/T6+PwPDBIaGxbu7u0DAwP+/v0CAAL5/vwDAgATEA/4+vnx9vgEAgMXGQoFBgYH CQ4BBf4BAwUEBAMEBAMCBAT8/v34+fr5+fcA//7//wAHCAb7+/r//wEDBAACAf4ICAcC/QwCBP0I CQADBAH7+wL6+PsIBgb//QL8+/4A/wD8//wCAP4GBgIIBwMDA/8A/wQGBgz5+fj6+v0hJBcMDQkH BAj7+f/49voDBQQCAP8FBQUBAQADAwIAAQACAwAYGBUFBgT09PQEBAMBAf7/AP8EBAQCAgMCAgL9 //z//gL6+QD29f3e2+zZ1uTf3+rw7vkKBwgFA/8EAwMHBQr6+vkEBgH8/v4CAQD7+/sHBgUCAwAC Av8BAgL8+//6+P7+/AX49/z9BQQB/P8C+wD8/v7w+/EC/gQB/wEAAP/8/P3/AQH+/f4A/wAAAAAD AwQBAQADFj4GAPr8BQIAGhgb9/n9+fv5BAQG/Pz8AAABAQIF/v75AwMF/f3+AgEBAf4ACAUDBQUC /f39AQEAAAIAAwH/+wAD8fID2uHV4+veAwP//vv9AQAD/P79/f//AgIA/v79AwME/Pz+AAACBwMD AgAF/f39BAX8FRcICw4G7e7z8vT6BwkBAwQBBQAI8fL0BAQCBgb/BAMA+/z/AwIC+vj79fX69vb2 BQcB/f39/foA+/v+AQEBAwT///3+BAT/AP77Af4A+fgCAv8CAgABBQQADAsECAYAAQH//f7/BAMF /f8A//3/BQQFBwcBDg8J/P37Af//AgEB+vn97e7w/wAB/f3++Pj7//4A//8C/PsF+fcA6uj+6+cA +PUABgL+DQsCEhEMAP39/P39/P3/AwQACAgIAgIB8PHyBwoGAgADDQ8N+Pf/CQsADQwK//8ABQUD //4A8vX0+/78AgH//fz9AgIACAgFAQL/AQL/BQUCBAQBAQH//f4B8O/1/v/9+ff3CQkJ8vHx7e/u BgYE+/z8AgEBAgMD/QMACAUEKysp+vz+7PH1/Pn7GBoICwwKAgQIAgcAAgICBQYFAAEB/wD//fz9 9/r5CAgD//7/AgIFGRkY8fH0+/r8/v7+BwQDHRkcCAcD9ff0AAEAAwIF/gH/HBsX/gD7+/39AAL/ BggAAgIACAgFBgQCBAQAAAD9AAH+/v0B//8B+fb/DxEMLSwk+vf84uLm/f/+AgT/AwAD/f79BAQE +/v7AQEBBAUC7e7w9fXzAwME////BAQBAgIDCwsL+fn6BQUEAgEB//z+/vz+//wB/voD8vX+AgIC CAgECwkCBwf+CgsNCAcM8fHwBgcEAQQFERAO/fz8CggH/fz7BAIC9vf6+Pf++vcAA/4EAPwBBwD9 BQEHBQMO+vf/Av8DAf/9AgIBAQID//8A/v/+FBMT+vr6/v7+AwMEBAQEAxU7/gMBB/b3/Pv7/fP0 9wIGAv78/g4MCxESEfHy+AMC/v7+Bf78/g4NBgkHB/4C/AICAwMEAgECAAMFBQABC/0A//8C+/4B AQQGDf7++AIBAQECAAADAvz9/wgIAwICAfv7/AEBAwEBAwH9/AABA/3+/fv+/BUVFCQjHQQFDvr+ +v799wD+Av/+/gUIB/0A+/79/AD9AQH+/wAA/wABAAkJBwwMC/r7+AIBAwoJDPv7+wQEBAEACP/+ BAAAAP/9/gQFBQIE/QEC/wYI/gkLAAYIAAMCAQMDBQUFB/n5/P/9AQICAwYI/AAC+/7//P7+AAEA /wICAQMDAgAC/wYGBQIB///9/wACAfz9/QD+AwH//QICAAQEAAQF/QsMBAMD//f39v7+/QUFBQkK Cfr7/hAODgD9/vn7+vwA/v37/v4A/fb1ABEQAQ8OCwUHCgUFAQABCgEFAAQCBP7+/AAA/gECAQQE AwQE/wUGA///AAEC/goLBhEQFO/u8gEB/wcIBBkYFvf49gcGBgEB/wcHBPr6+gICAQEABPPx+OPl 6e7v7v////r4/goKBSUlGwQFAAYFCAUCBwAAAAQFBf//AvDz9AQDAAYFAgD/AfPy+urs7v/9/AMC BAD+/gH8Avrx/O3s7fn7//z7Avv7/P7+/BISEPP08v///QUFAAgH/w8PC/36+QUGAgMDAAUGAwEB /////wEBAPj3BeTj7ebl5d/f5QD+/QYGAwEA/QMDBAEBAPr6+gUFBAIDAg0NDPn5+QMDAgQEBf39 /QMDAQMDAw8PEfLy8AAB/wUDCP7+/gICAQAB/QcI/wUEAwgI/gkIAAMD/wID/vX0+fn4+QIDAv7/ /fr7/PT29QsJCRgWFPX09vP0+gH+Avr6/gL+AAIBAA0NCwcMAjsnRHJbgQ4OGNTi0/r79QICBAIC BPv+/fz8/gwLDAQEA/f3+QsLC/39/AMhRAkEBw3w8/j9/v8IBAIAA/z//fwPDAgODgvy8/UAAfz5 +f8GBv8KC/8EAv7+BQQBBAICBAL9//4B/v8DC/v9/AEHB/8AAQX7AfgBAQD8/fwDBAD9//38+wP9 AvwJCQgCAQEKCAr9+vwQEAf9//v4+/78+wTn5fPp5O7j4u/5+/YICQIHAwUJDQT3+f39AP0AAf8A /wcEAv4FBAQCAgH////9/v3///8A/wP29vgBAgIAAf4A//z3+PsGBwALDQj4+f0TGAUHCwAEBv8D BwIEBQAEAwENDwz09PUEAwIB////AP4EBAP7+wAAAAMLCwYAAAAAAgEFBQMDAQEDAwIBAv4DAgcB AQAEBAABAgEEAQEAAf0LCwMHBwEAAQADBAIEAwIFBgYMDA3w8fP9/v77+vz6+/sPEA/0+PisdW+H AAAgAElEQVQBAwP6+/r49gELC/whHBv8BQIBBf76/gMDCf8BAQICAf8BAgL6+/wFBgL/Af0DA/0E BAENDwYfHxr6+vz8//oJCAT6+vn39vr6+wAB//79/fsAAP4DAwIEBAMMBwz4+v37/gEGBQQD/vr2 9QL39PkWGAkpKhwHAxAOCxAIBwj8/P7n6ery8/ULCwH+/vsB/wQBAAX//wEFAQEA/wIGAwYIAApF PEoOCinj5eb/Avj9/fz8/QLv7fECBAICBAMDAgEDA/4KCQf+/vwAAf8AAP8EBAYCAAYBAAD7/vkH BA75+fvv7v4FAwQEBAL///4A/wEFBAMGBgf+/v4CAgL7+/v8+/4DAgL9/v4DAwMAAP8AAAH7+/zx 8fEHBwQAAf75+Pz+/f8DAQUCAv4HCAMFBv8HCP8FBQH+/gD9/v8WFRP//v8KCQr/Af/9//8BAQL7 +ff19PP6+Pv+/wIA/QEC/wAEBQMGCAMHCQMaFhkqKBzz9uHb4s7t9OcAAgT/AgH/AgD//wH9/v71 9PX+/v4DAwH39/j///4B7HsThAMQOgMBAP4D//wYGBX7/vz9/fkCAAfn6vbj6u8KB/4FAwL+//// AQAKCQUGBAQHCAYDAwEAAQADAwP9//4IAgMIBwMAAQMAAQABAAL7/v4CAQQDBQAAAgD29wAFAgIK CQj29vf9+vwFAgXr8PYAAAAGBQT//Pz++wH8/wADBf8HBwP//f8LBwnt8ff7/f0BAQH/+v8B//79 Av8FAAELCQj9APv/+wD/AAD/Af0HCQIDBP8LDAv8+vwODgIABQP6/gABAPr+//wGBgIODQgA/voL Cgn2+fwODAzz9vX/AQEEAP8ABAP6+P8HBQQBAf38/QD7/v0EBAb7+vwDAgINCgr29f3+Af/7/Pz+ /QAHBQMBBv4HCAIDBv4EB/8HCAAFBP3/AP8HCQYKCwjz9fgNCgUcHhzt8O/1+PUHBAEDA/4B/QP7 +f8DAAEnLhMEBwMCBAz+BPwEAwECAAQAAQT8/f38/vsEAwACAgD9/AAICQz08PcUFBQJBwDq7u4K CQcB//4MDAv7+vn7/PsICAgICAf7+/r+//34+PoDBP8JBwIAAf8KDA/49Pz2+P/o5/D59/YREgT1 9vXo6+zV2eHw8PYGBv4FAv4DAAj8/wD6+/gJCAAHAwYBBAEDAQEEAgAeGhQeGCDU1tH7AP7+AP0G Av8DBgQDA//+/P0MCwv////3+PgDAwL+//4CAQL9/f0EBAH9/v7//QEBAv0DA/0GBgEHCP4FBf4B Af4FBAb49/z8+/sAAAH9/f0AAAMDAgECAgP9/v4BAQEBAQESEBD29/cBAQEDAwb6+v/+AP7//wAA 9/wLAwr3+P39Av4CAgIBAAICAQH++//3+P/7/PkOEQn/AP35+/sFA/0FBgf19v4BAQb9//wFAgIG BwICAwIDAwX//gPy8/Ll7OTV4dXp8ev7+/4BAwMCAQH9//wEBQX7+/0FAwMDAwL/AAD///0CAgAD DDQAAQIECwoM4ePqAQIAAAH/BAQAAwUFAAIBBgMCAgIE+vr9AAL/CgsDDAwGBQUIAgMECAgJBAUF /f78/wEBAwUGAQEBAAAB//4CAQIA/f3/AAH/+fr8+vsACAcC+Pj4AgMFAAEEAAEBAwUBAgMA+/z8 /v0AFhYWBggC+/z4AwIA+/v8/v0B/gL//v//APz/BAIEBAECAvn+AP/++vj7AP0FBQb+/f4BBQUG /wD/AP8C/Pz8+//+Hh4MIiMR/QD6/wABBwYAAQH//f38BAUE9vb5AP0E+ff7AQIAAAT/CAYE/PoA AQH7DAwO9fT+/wL/AwEDHx4f8PDw/vz9EBAR8PP0/wD+AQH/BgUDAwL/CQoL/f37BgYFAgL+BQUD /v0AAgAE+Pf58PD0BQMG9vb66uruAwMEAwME/fr9ExAV+Pb9+vgA+/z8CAoBLSwjAgAGAwIJBQMF BgQH+vj77+/tAwIBBAQD/v79FBUUDAsN7Ovx5ebt8/P4AQMA/v39+/r7+Pn4CwwL+vr6/Pz8+/v8 //8BAgIDAwIEBQYF/P39+/v98/L3+/sA+fgA+/wB6+nz3tzp3dzn3+Ds+/f7DQoJBgT9/wD+/v0C +Pj9BAMBCQcJAQECAQICAQMC/wEA6evr0N7PAQf8BAcC/v/+/gAEAP/+BQQBBwgGFBQT+/33AwIB AQH/AQEAAAD+AAD/AAABDw8O+/r7///9BAUEAQL+AgP/BgYC/Pz+//8BCgkJ/P37DQ8LBQUG/QD+ DwwO8vPzAwQCAwMD+/v6+/r7AAECAgIC+Pf6BQYEBgEC/Pf9EgkRcGly7+v05evkCAcH/Pz7AwQB AQIB+/36//sC/v0I8fDzBAgBAP8B/fwB9/f8AgEBBAUCBAQDBggH/v/+AgQD9vb66uv3+Pj6AgUG AgMD/P8BAQMBAQQBAwQCAAEA9/r5BAIAAQIB/v79BwcHBgYFAxg9Bv39+/v9/AUGAvv9/gMBAiEi HPr8+vr7/QP+Avr6/Pr7AgIDAAgJAQkLBQgHCAUEBAABAgIEBAACAf0AAAEBAfz9/AQDBAEAAv0A /wECAP4ABPv8//79AAoIAv4AAf/+Af8A/v7+/f4A/AICAQgGBQACAfj6+vv7+AYHAw8PDfn4+vz+ /v3//QYEBAP/AAD9/wH/AAYCCQcLCAgIEPPwB/b++AQEAvf3+P7+/wICAQEB//z+Avfy+AYCBfL0 +AEBAQ0MBv39/AQEA/79/wICAggHAQcGA/z9/QQGBQsICfj2+SAjFAcGCvP1/P8B+fz7AO3q7AME Af8AAO/v8gQGBQICAQAB/wMCACQiH/j4+/v6+AMD/wIB/wAA/vz8/gIAAQgGBAcEAgD8AAcHBAYH BAIA/w4NDvj4+P37+f78/vz7BPLz/O3t9gYF+BsaEQ0NBfv5/Obm7eTj6AIB/gUDAv///v79//f5 +vn5+AQGAwME/gMFAAcJB/77/AAAAgICAwEBAwUFBP///v7+/wEBAQIAA/3+/QAA/wEBAAD/AQQC BPz+/AACBv//BPf3/vz4Bfj4/gYDAwUDBAcGAwUG/AEBAP79Avb2/AMBAgoKBwcGB/8BAAEEA/8B AfwAAPX/+fz8+wP/AAYEBf4BAPz5+wMEAAECAQoNCvf28//+Af39/QEBAQwMDP39/v7+/wAAAPz8 /AEBAgEB/wQEAAEC/f//ABMTFAD/Avf49wMDAfj4+fv+/Pv6+vr5+QMFAv7+/v///QECAf79/gAA Af38////AAUGBAIBBAMFBAD//t/g3Pb59Pn7+QACAQD///3//QUFAgECAxIREBAQDf38+/n7/AQC BPX0/wAAAQUFAQQDBAUFAwQFAgUGBAICAv3+/fTz/Pz+/xETCwIE/wMEAAIEAwAB/wQGBfv+/fn5 +gkIBgEBAQAAAP7+/QUFBgMbPgv6+vgAA/0AAv0DAwP29Pvt7fD6/PoBAwT++/v8/AD5+f4CAQIC BP4KDAgRDggEBQQCAwT/AQEAAwACAwQAAv8AAP4FBgYBAgAEBAX+Af72+P329v0CAgAJBwL7+v0A AQIB//0IBwL8/wP8+v0TEhD7/f34+vsDAv7////5+foCAgX5+vwJBwEGBAQC//8FAwMBAwT/BPoh FQKGZ3soGE7D180A/vEDAQT9/f0MDAkDAwH6+voB/Qns7fcCBP4FAP7+AfwCAgICAgMCAwL8/fsT FQwYFRjw8vP6+/z8+PoAAgMJCwj7/fzv7u8GBQH9+wEEBgIDAwECAgECAwIICAL4+vsDAwP+/gDw 8vP5+PoEBQEBAf8AAf8GBgb+/f8BAQIA/f4KBQYMCQ3z9PIJBQQA/vwCAP/+/v0MDAoAAvz29vz5 +AL9+wLl4PPZ2OHc2uTW0uXo5fUFBPwFBQEDBQEBAP8EAwT49vsNDAkDA/8DBf0MDQYCAwT29fcA /gIWFhrs7fAFBAABAgIEBAT///78/fwDAgL/APsBAv8EAgX//f8EB/8EBAX5+vgDAf8ODAf7+/oL DAQFBP8CA/79//3+/v4EAwj6+v0NDAgIBgECBgIFBwQFBQQBBgQAAwMEAQYGAwYEAgICAgH7/fn9 /v4HCQX5+fz18/T8+/wCAgMCAgL+/v76+vsCAgH9/fz//wACAgL9/f4BAQEBAv8BAQMEBAbq6fL7 +/oICAYBAQACAQEB/wAFAgQAAgECAQIBAf8CAgIAAAAGBAUEBQb39/kDAwMMDQsCAQMCBwP/A/7z 9u/1//P/AQEAAAACBAD7/P0CAwD8/QH9/PsTEwzt7/D/AQEA/f/29fwJCQUKCQIEBAb///0ICggB AgEDBAICAgAGBgUNDgMNDgcBAf4EBAIBAQMDAwIEAwL19vf7+v0IBgMBAf////8DAwP09PcDI0EX /P38/P78AwQF/vz+CAYKCAgG/f4A/wEBBQP+AAAD+Pb+BAUEBQUC9Pb2FRQDExMTAwYIBAUGAgUE CgkKBAQBAAD+BggGAwUF/f7+9fj39vf++Pf8CAcCAwL9AP4AAgECBgMBHhwX8PP8Af///f37+/z8 BAcF+/r+BAMDAf8B+Pn7BQkIBQD8CAYEBAMB+/7+AgUBAwAA8v0H3efO6+7l6u/m+vv2BAQFAQIB /f38/wD7GRkPBQcEAQj6Bwj9DwcG/wQDAQAACgoM+vr5BwgE6+r57Ovz/fz+BQUAGBUQ8fP+6enx 9ff2ExELDwkT8/X2AgP////9AAD9/v7/DgsH+/v8//8E/f4A/P4ABAED/wD8BQUCBAQD/fz9+/oC /fwC/vr//vv99/L6/gD+BwQFCAUH+Pj6//0C8fP3AQMACAcI+ff6AQIA+foC+Pf/9vMD//8DCAj8 CQoGAwQBAAD9BwYH+/r8CgcG9/j4AP/9BAQH/Pv/+/z3EQ8RAP8D+/r++Pn7AAL7AQEB/f38BAQB AwMAAAEBAgP/BgYDBgUG+/n9AQMAAQACCQkEIyMXCQgCAwb9BQX9ICId8/b0/gMAAgD/AP8D+vn8 CwwHERIJBwkHBgYF/wD/BwYGAgMDBAH8AgUBAAYDAQUC+fn7/QH/BQUCERAQCgcN+vf5AAICDg4P +Pj6/fz+AQEDAwT/AQEA/f3+/fz/AQEC/wD/BQQIGBcX9fX0BQUDBQYH///+/Pn6EQwQ/fv9AwYD /f38AwMDAAAAAgIAAwMF/v7/+vr+//8BFxgVAwL+BwkHBAMFBgcKAAQFAgUBAwQC/f7+//79AwMA AwQD9fL97ez2AgECAwb9/v3/9/b+BwcBCgwEBAQFBwkIAgQAAwUEBAUDBwgJCgsEDg0KBAUEAwMF AgIEAwQCCQoH+/z68e7zCggH/wD+AwMD/Pz7//8AAAAAAwYz9QACAAQBAAEB//4A/gEFBAgC/wD9 +AEDAP//BPv7AAD9Bfby/AEAAAUFAfn7+RITCxQUCggGBQYECQIC/ggIBvv7+gUFBvr7+fP1+PDw /fP0+w0LBwwI//z7/wEGAv7+Afb1/+nt8gL//gUGA/8A/f7+//76/wAB/wYGA///BPj4/gcI/wYE AwcHBv38/ggHBgUCBfr9/AL//ers8+bv5Pv+9gD/AP7///8A//r+/gECAPj1+v0A/gUBAAwFBfn+ APf8/BsWCPT0APr++g8HCPr9/AMGAQgFAQL+/gMJB/v6/QkK/wQCBPHx+Pv+9QgIBAD//QD/AgAB BPn8/vb5/QUDAgsHBP7+/AIBAvr6+wYHAQYFBQD8AQD8/f36/wUEAgIBAAYDCBQQFfz8C+30+vr5 +wP/Av0CAAQAAQsKBBEUDe/x9f39Bf39/QQHBQAD+w4OARQUDP77+w0NCPr8/Pz8AAABAQL8AwYF BAAC/vz8+v39Av35AR8gFBkbFP3///8A/f38+v//AQEBAf7+Af3+AP79AAICAwkFAhUPFA4FFvH0 9v4B9/r6/g8PBwIE//n7+/n6+vr69wIC/AUC/wIAAv7//vf5/QYIAxIUCQUFBgQEBgIDBgIDAgID /QMGCQIAAQUCAQAAAvb3+/n8/v/8/goIBvf49f4C//kB/gkFAfz9+AQGBQgDCvz+/AICAv//AQYG Bf8A/gQBAfb3+fDx8QcHA/79+/7+Af7+/AsMCgMGBv3/Avv59f7+/QIBAP7///3+//33//8B+fn5 //0AAxYbCQkNDPz8/QUHBgEB/wUFAAUDBQMDAgACAfv5+QYDBv8A/hIRDwoKB/sA+P8B/f78Af/+ BAMEAQsOAwkKCQcHBQkJBgUFAwEBAQgJCAMEAgMEBAMEAwABAAICAQMEBAEBA/Lx9Pn5+gACAwAA //z+/AMEBQMCAQICAQMjTBj29vb8/PsAAAACAgH7+PoEAwMECAf+Af4EAf8DCAIEBQX29Pn7+/// /wT//gbq6u3w8u79/fgCBPwBAgj29vjz8vfy8vbr6+/07/z5+PwA//0JBgIB//8AAQIA//4BAAQA AAACAv8AAP4BAf4DBgMA/gEKCQz4+vkCAf7+/AH6+/0LDgMJCAP/AP8AAgD9/gADBQMBAQAHBgYD BQX9/f0DAwL9AQICAgL+/wAA/wAJCQkQEAr4+/wA//0mJCT9AALy9fcyMyv5+fry9PIA//77+wH+ AP8CAP4EAwLz9fcEBv4REQ0BAQP8/AIA/wP9/vsGBQYCAgL7/PsDAwIAAv4MCgcXFxX19fT6/PwG BQIICAP8/P7//wIIBwb8AfsFBQMGAAEOCQRTTER2VX8AACfR3Nn+BOwD+wL+BAH29/n09PYFBQUF BQECAwACA/4KDAcDA/79/Pr9/vz+Af4A/wQB/gX8+v0OEg/29/0AAQMDAwIBAQD8/QDt7fACAQPy 8vLy8vEFBgUEBQT7/Pv///8DAgIBAf8FA/4B/QL19/rw+OwA/vv+/QL/AQDr6/YHCAQJCQf///39 /f0DAwMB/wL7/fz//wT39/4HCAEPDwQXFxUEBQIFCAMAAfwFBwQCAgYDAwX/AQL3+P3x8fIOCwYC Av/6+/v9/wH9+v8C/vwIAgYCAAP9//38/vf//wADAwMFBQUHBwj//v8BAf8CAgECBAEEAwMEBAER Eg76+vwMDA4qKinm5uQEAwMA/wD8/QANDg79/v4IBQX29/wB/w74+PgOEgAeHBoIBwkFBAcJCwgF BgEBBAACBATy8/UDAwIEBgECAwTu7PT9/foBAQH/Av/++wH4+P4CAgADBP4REA4FBgIBBQEEBgMI CwoBBAEHBwgEBgUFAwABAgAQEQ0BAQDr6uzv7/IHCAYICAL8+/0HCAf//v4SEQ76+/gDDTUE+/v5 BAUD/v7+AgACExEJFRYX6e3w+Pn9//v+9/kABgMI9vX8/PwA+vj/+vv8+vr/9PIA5OL049/y4t7p 3trr6ub17ej2+fYC+/f/BQQBCQcABQQAAwAE+f3+AP3+CwkK/gIBBQMBAQH/AAIB/v7//wAB+fj6 AQICAgEB+vr+/wD+CgwBDw4IBwYFAQECAAIB/P78AAD+AAMABAcEAQIAAQIC/gD+/f3/AgIE/P3/ +vr7/P37/gED+vf78u/08/X5+fn/4+Pl8/XzBQIH9/n9Bf0AAP79BwAEDQcS/PsG+v759/b5AQL/ AAD8/v3+AAIA/f3+ERAQ/P38AQH//v0A9/b79vX2/f4B/f4ABwb+CQoGAQEE/Pz+AP/+AAH+BQMF AgIE+v/66e7j8/XcBQoH7PHp8vXrAP4B+gD9/f//BQUH/P36Bgb/BggDAgP+AQP/BgUCBwYF/wAB AQAA/v79///9Hx0V+QD7+vv/+vr7AwP+BgYC9/cC8/L+7uv2+vf8BgYEAQMA+/z6BAMCAwIC/v3/ AgECBP4A/PkD+PkA/gL9BgID/PwBAgUABAMJBQX+AAH9+/r6AAD/AQAA//8A///+/f4E+/n/AAAB /P/2EREPFBYXBQUIAQEIBgUNBQT+/v7+8PHz6+zrBggEEgwJ9vj3+/8A/vv//fn/BwIELSYv4eHn /AL+CwsI/////v7+/Pz89/f3AwMCAgH+AgIEBQcG/v39/v789vj5+vj/5+by5uTl/f77/v39DAwN //8A9PT1AgED/wD/DQ4KAgMF8O/19fP8FhcAJCQhCQoIAgUCBwkE/fz+7u3z8fD1AgIA/v76DAsQ /Pv7AAAB/wD//f7/Af8F9/b9AwME/wL9DhENExISBwkIAgICAgQEBAUHBwUEBAUCBQgFCAkJAQEC 6Orv5ePs//4DBgYD/v37BQUIBwYF+Pf3/v78AwEBAw4w+wUFAAEC/wMCAgD/APf9/hENDfT19gEA AwMABvv6/vr3+gIBAf39//z9Afz4BfTw/vb1APz4A/f0/fTz//78B/n3//v6AgD/AwQG/gkJAgQF //8A/v39/wAFAw0EAwD/Avb6+AUDAgMAA/7+/gIDAwD//QD9/f8BAv///v8ABfz9/w8QCAwMAAED AwEDBAMFBAMFAwYGBAADAAAAAQkJCgMEA/39/wEBAvv+/fz+/f0A/wQBAvz9AAIAAAMDAfv8/gcF A/f7/wYEAQH9Bfn8/Q4IBQAA/BQSE1xYYdXV3vH08/7+AAQFAAAA/QMEBAD/Afz7/Pj3+AD//wEC AAIAA/7+/v//AwIDBv7+/gcH/gUHBfv9AAcGCf7++wIDA/8BAv4BAf4CAO7599fl49bWzvf19vv8 AAEG/AD9/gQEA////f8A/wEB//79/QEC/wIAAAH//wIAAAABAAAB////APr5/h8hGR0dHvT09vj5 9QME/v3+/QD//P/9/gME/gQJ/gkKA/j3+wQEA/79/f//AQH9AgQBBv77AgQCBBMMEwDzDv0ACv3/ +/r9+gD//vn5+QcIAwIBAAAAAfv7/QoJCPz9///8//n4/vf2/QECBPP27QwMBRcaEwcIB/r6+vHw 8urq7+/v9Pz6+wQB/wUFBfn4/AMABPf2+gsKBwMFBQ0LD+3w8fr8/fv8/AUFAwQEAwEBAQoKCv39 /P///v39/vn6+gD//wQDBPz8AAAABAcGBgsLCvz8+gsKCgsLC/X29f///v//AP7//ysrJ/P08uzs +PfzBOvm+/T07w0R/v3++uvq9eLh7u3s7wQBAQsKCfz8/fLx9QsKCgYGB/j5+gYHCQoHC/Hw9vz9 Av4AAQEC/BwbFgkIBgUHBgcHBwYGBwkNBQUIAwgHB//+A9rZ4ODf6///AgoJBgQDAv///v38/fz7 /AMCAwD/Af38/wMePgUSEgz7/vsRERAA/wPq8P3z7/EC//wCA/4CAgEIBAEJCAIBAP78/QD9/QIG A/4CAwL+/QEDAQQC/gABAgH7+v0CAgEJCgMFB/0JCwAFBgMDAwH//wD9////Af8nHR0AAgTw9fcB /f4EAAL6/PwEBAUIBQMPCwn0+PwAAAD6+QD6+v4ICgASEgULDA4DBAcCBAUBBAEDAgEEBgf/AQH7 +vsAAP8CAAEBAQL7/f36/v0FBwIFAgICBQQDBP8JCQYKCwgEAfoAAwcGBP779fsHCwQFBwgDCAH+ AfjR1M3z+vP/AP/9/v8GBgASExL7+QL7/vsHBQUCAQH+/vwBAgIEAwADAwIAAwD8+/oBAgEKCQQE BgUDAwcDAwQDBQH9AwABAf8FAv/+/v8B/gT8+gQB/f35APoECwYG/wEFAgMBAf4CAf4CAwMCAwYI CAL+//4CAwIEBAMDAwAFBAD+//7//gb7+wTn5u/t7e/t6+8IBwX///79/AIGBAcMCw//AfwHCAP4 9/8BAgMHBgUAAAAEAAP//QL//fz/AAUNDQFYTFBROmjg7Pvf4tn6+vsICQAC/wYBBP8A/wABAf8H BwYLCwnz9vj//v7+/AH39gD29wH59QDq6/Pe3+Lp6Ovk5efm5O/o5/P6+P4OCQsLBwfw9vUFAgX8 9/wODgkLDgn7Av3x8u8BBP78AP7//QACAv3//wABAQEEBAX9/f0CAQMCAgQAAAP//v0CAgIDBAP/ /v0QEQsDAwD5+voEBAQNDAv19fUBAgEGBgb7+vrg3+n49v4CAgECA/74+Pzm5vPb1+zh3fHj3+3w 7/YJBAUGBAH9+/wJCg38/PwNDA78+/v7/P72+Pr8+/z//gH19v8CAwT6/fgTDwUeHhkNDwkPDw0N DgoGCQMDAwTq5+za2OHm5O///wEJCgMJCQD///wFBAUFBgMGBgf9+/0CAgT//wEDET0E/gAF9vb6 AP0C//7++v35AwMEAQD+GBUW9fH6/wH+9PT9+/wCAgICAwT+/vv+AgIBBAQD+vz5AAIAAAEABQUA BwgCBQX9BggBAQQAAgH9/wL+/gAAAv4C+PUA4+fu8vL1BgD9CAgCCwoO8fj5+/sCBwb++vr/AQD9 AP8B+/wB9vj9AgMCDgwCGxwWAQT/AAQDBAcF/wIBBQIDBgIF/P39AgMEAf/++/v/9vv9+vz8DggG //3/AwD+/Pv9/fz7/wEA+vn9BQT++v39BAcBFRcLAQL+AgEFAAECAgMAAP/9AwQB//z/BgQGGxoY 7vDsBQEABAYC/gMAAQAAAf0AAwUFBAUE+/v8//8B+fr/BgYADQsRAP36///5AgIGAgICAwIC/wED BAQGAgIDBAT//AH8BQUGAv/8//8A/AL+AgMCAQQF/gAA+/39AgH+AgQBAwIB/v3/DgoP8Pb0BwQG Av7+/v7/9Pb+/Pr6CQkCBgcA+/r8AP8B/gH8AQL9AQL8Af0K+vr5CAkBAP/+BAEDAgEDBAIC/gD9 AQIBCAUEAvr3KSUSDAYR1OHYAAH4Avr9+/3//voA/wH9/gIB+fj89vb5AQAAAQED+/v+/PwB//sC 9fj+9/QB7+r87un49/P98fEBAwEBBAP9EhMMFBYU8vPzAAH99fYEEBoCDA8PCwkMAgMCBAMF+/n6 AgD/AAQBAgIEAf8B9/b3FBMT9fT8AQMA/v74AQEBBQMHAv4A+//88/L3/vv9AgUA8co1vHYAACAA SURBVPD48fDyAgD/AAP/CQ4J/Pr9/vz/Af8ADw8P8vL3AQIB//0D+fj+/v3//v4ACQgDBQYBAgP+ /f78+/n7BAICHh8f+fr68fT0CgsKCgYI9fT5/fv+9/P8AP0G6Ozw5uvn9/rx9/rx9fX14+Pn1NDe 19Hn7Oj3AgADBgUABwgD/wL/AgL/BwYEBQAC/v77CAsKCAkL9vj0AxI2Afn6+f8AAPr7+v8A/wcJ /w8K/xAMEOrr+PL8+AMD/xEVChQWDPHx9f77BQQGAQAC/wEC/wIC/wcHBAwNCAEC/QID/wUG/wcI AgMGAQH9/v7+AAEDAw0LB/7+/hUXEQQEAAEF/R8fGO3z+vr6+g8M//z6AO/0/AsMCP7//v79AP37 Avr2///7/g0T9B0dGgUCFv7++AYDBgMEAgQEAQQHAvv++f7+BPr6/vDz9gIBAQcCAgMC/ggKBwQF Av3+/f///xMVCAcIDO7t+ggGCBgYCf0DBQMECQADAgACAQAAAv3+Afr9/vT4+O7u7gL9AP0A/QD9 /gD8/v////4AAQYFBfv8/fz8/fz8APz9/wkKAwwPAQcIBwUGDgAE/wMDBAEAAQYFBQMCBAMBAP7/ /gcHCP8A/gIDBAMEAgQFBQAAAAUFA/3/Afv8/QD9AgEBAgEB/w4ODBYWEvPz9fz7+wAB//8BAAoK BwgJAwAA//79/wAAAQUGAQYGBvz8/AMDAfv6AwID/gsMAwMDAwICBQD9AQACAwQCBAYFB/r8++bv 6cTUz9zj0/T/8gD8/AH/AAEHBAD+/wEE/v7+AAMDBQIB//7+/wEBAP//Av////8A/wcEBvn4+/78 /wIBAAUEAQEC/QoJAwYGAvr6+e3u8AEBCP8C+fr8/RoZChsZGwYFBgUFB/z8/fX38AQI/gQAAfz8 /QoLDfPz9xkZGfn59v7//f///wUFA/38+goICSAcGwUB/wD//AUEAwMFAgcGBP7//QAAAP7+/wIA Avr7/BITDPn6+f3+AQQE/gIDAgAA/gYIAAUFAQsMBAYGAgYHBQD//wUEBvX2/OTk6vr4+gYGB//9 /vv6+wMDBP7/Afv6/v39/vj7Avn4/u3t9+Pg8NzZ7eLc7+7q+fz4AQYEBQICAQcI/wYGBAICAAD+ AAH+Aw0JEfr7/u/w8v39+wAA/wMdQgn////+AP4CAwMJCAr39QIYGAUmJCD/BQzx+Pj7+fr4+PwA /wP+/f0FBP4CBQAEBAL+//0FBQIFBgQDBfwBAv4EBgAICQQCA/4BBP8B+wAEBAj////+/vv6+/36 +vr7/PsBAAASExLq7vT9/PwpJRgMChXq8fb7+fkEAwH//gH8+QL49v718v739/oIC/gaHAgPCxQK CgkDAwMDBQb9/wL2+P/r7PXu7vICAgIHBwQGAgIBAv35+vsDAwMDAQP//P7+/QP8//n7+/sFBP8m Jhb+AwUBBAUEBgcDBAQAAgP9/QHz9/kEBwILCQUIBAn5/vwC/gERCg78/P/9AwL5+fj9/f4DAwT2 9/0C/wYABP8REgAPDw/9/gX/BP0CAAMAAAACAQECAQAEBAMDBgQAAAABAQH///4AAf8BAgAAAQAA AAH9/fz5+/4ICAP///7//gD08vn7/P79/fsDBAP9/f0HCAT6/PkHBgEDAwX8+/8EBAL///wAAAEA AAEBAQH39/8BAv8GB/8CAQMDAQQBAwX//v4BBwcC/wMB/vz9AgD1/Pr2//YAAAEA/P8EBAMABAAA //8BBAIBAgECAgQFBAMBAgD//v//AP8AAf8BAQD9+/0KCQYEAwEHCAIICQQHBv4ICQMGBgMDAwMB BQX/APgAAQL49gEJCAUvLSMRExD5+fze4OL5+/sCBAAA/v4ZGRoHBgnu8PHq6+0AAfkBAQL8/P7+ /f8EAQH7/f338fr8/v3z+Pf//wACBAAAAgD//v4BAgL8/Pz6+P0AAAAtMCoJCgbz9PQAAvsGBgUF Bf8CA/0SEw4GBwH6+vcKCQn5+fn8+/0DAwMBAP8EBQQA//0DAgD/AQD29/r+/wD//wH+/AEB/QL9 +P/89gL17//79gT39AAA/AIFBAIDBP0JCgIFBQAAAgD8+v39/P4EAAT59/T9/P8BAgD/AfwHBwkD DjT+AQQCAAD//fv9+ff6+PcI7+/y+Pr06+zv+fn4BQED+vf/+/kAAgMAAQL8BQACBwMGAgH/AgQC /v/7AgP+AwUBBwgEBwcG+vv6AQACGRYX8/L0/gD/AwIEAQEBAAABAgID/Pz+5+fw/v/++fb99vT4 +fj69/r6BwQB/wD/+vn//fsB/fz+/wAA9PEB7ev68PHt/wHw+/359Pby7vHx5OPp7Ory8fD7APz/ Dg0GBQQAAf39BQYJAwUG9fT4//v+A/wA/vsB+Pn+/P0K+vr5JikMHx8bAAEF/gABBggH/v4A8vX3 /Pr5CwgFBQUDCQoL7u/zCwkHGBcb6Ovu/wECAgL+AgIABQUG+fb9+Pf9BgUFBAX9FxcRAwcDAQMC AgEEBwgHBAQDAQIA/f/8/wD+AwQCBAUGAwMCAwQDBAUEAQEAAQEB/P4A+vr9Bwr/AgABCggM//4B 8/X4BQT/AgIC/////Pz9BAQD/Pz8//7//wD+CQkI/P3+EQ8L9vb6/gD/9PP8BwkFBwX+AQEFBAYH /wH+AAP/AQIA/f3+Af79BAMBAwAD/gIGAf4C/wAAAgYAAwP+BAMG/f/8/f4A/fz+AwIBAAH+AgIB AQEBAgIE/v8AEA0IBwgFAQP9AgL9CgwEBgUAAQIAAAD9/f77BwYDAwP8/PwA9vYF6uf16erk5ufp 2Nfe+vj7CAYHAv8D/f3/BQYJ+vv7+Pj2CgoHAgEB+/38AgID//3+Af8DCwcJFwsf8vL7/wkAAwEA +Pv7//3/AgEB/v3/AgMDBwQG+fr/8fL17O/v/f36CQcBAgECAP/9BQUA+vr6/f78//8A+fj4AwMC ////EA8N/f36/f78AAD/ISMi+vr++fn1AAD/Av8C+/v+AP39AwED+/j9//0B//3+BAYCBgb/Bwn+ CQsBBgcB///+/f3+BQUDBAACCAMJRjdY8Oz8+Pn2/QD5+vz8AxM7BAAC/wAAAAQCAgMAAf3/+fT0 AfDxAAMB/wkEAP78/hUVDf8B+Pz7/fn4AxYPEA8ODvLy8gcKBgMF/wUGBP7+/wICAvz8+wMDBPv6 /gwJCfj49wABAvz9AAEB/QAA/wEBAvv6/wgJCwQA/v7/A/b0AwEA9gUEAAAA//37/f78A/r8/wEB /v4ABf7///n4APHt/unm/uXm8ePj8erq9+/s/Pj1Av/9AAwIBAIC/AgJAhcXFOzu+PP09wIAAgYA BDYwMgH8Eerv6PX4/vj2//j49yAcChkaHQYJC/b3+OXk6O/v8QcCBAkDAPb3+PP5+BUTCQIDBu/x 9Pv7/vr6/AYJAAIEAP79/vz7APr5AP38/gAA/goL/xgdEQD+BgUECAIDAgEFAwMFBQIFAwcGBwED AQMDAgUEBgD//wUIBwMCAvv7+vv8/vr7/QUHBPz6/fv6+gAA/QgLA/v5/Pn5/QICA/7+AAAAARIT Efz9+v8A/vr5+gD/BBERDPf3+v7///b2/gYJAgwLBwQFB//+AAMEAgQE/wQCAgAAAQAFAQIGA/8B BAP+/v8A+wAG/wAEAgX/BAEBAgEDAf8AAfr6/QMEAAMD//39/v//Av7+Av/+AAwOBiAhHPX29AQG /wEC/v//AAYGBP39/QMDAQAA/QUCCP3++/z///j2CfLv/+3t9gMDBAYFAAYEAgD+/fz/Au3u8vn5 9wcGAwEA//X0+wUHBAMDAAL/BP/8BCUbG3lmg+fp7uHn3v79+fsAAAH+AgQDBP//AAECASAeHvLy ++vu9f39/AQFARoYFQEAAvn6+gAA/wQEBP7/AQIBAv79/wsKCgoKCREMEPTz9gMEBwQDB+jp7vr8 +gAA/wMCAv//AgEAAf4D//wA/wADAgUIAgIF/wMEAAYH/wQGAAUGAv8BAP/9AAgIBgMDAwQBAgMA AiQYEg8QDePo3AEG/fz7BAMVPf8ODAz7+fz+/v4EBQICAf8LCggGBf4BAfoBBAESDwn2+QHz+fkD B/8SDw31+/3s8+/7//4LDAgEAQH7/P8BAQIAAP8AAAECAQIBAQH4+vr7/v4NDgkA/vkBAQEDBAIF BgP9/fv/AP4CAQAA//4PEgUUGBP29vkAAfwAAwL/Af8EBQT+/AEA//8FBQT+/f///gP7/vv49v71 9AD8+AP8+P0FAgALCgQLEAL+/v/9+gLz9ff4+/wKBQMJCAH9Av/39fzp8er6/PkA/gEB/QPz8/zd 4O/k5ePd2uHf2Ovw7PUIBwMWFA8FBgH5+fn6+wIdHQoSFxj5AAD7//z9/vsDBQAA/AD9/AH7/wH+ +//5+AD8/wP5+/oVFv4cFxkCBQ0AAwAAA/8EBwMBAQD+AvwFBgQBAgEEBQQCBQMAAQH6//7y9vf1 9vkFBQQGAwEFBAQHCAj6+foGBAP//wQAAP8BAQH+/v4BAf/19/kCAAAHAw0JBw7/Af3s7fACBP76 +wH4+/4JCgQJCAAJCQ0DAwIGCAT8/v4EAwUBAgEEBQQAAAIBAQACBAL+AAAEAwMB//8AAwACAgQE BQH7/P0A/QAFBQEAAwIBAQP+/v8DAgMAAP7q7Pjs7/D8/fsFBQb9/P4ODg3//gQAAP0DBAD//gYA //0BAv///QH8/fwECP4MCAIHCP4HCAP/Af7/AAEDAAAPDQsDA/4CAv/3+QEAAAEJBAYE/QECAQEC AwH0+PTS3sno7t/29fb/AQcBAf7+/v/+AP0WFxP6+f3k5usCA/0FBf4GBQP8+/4FAwYICAfy9PQC AwQHBwv7+ff9/AIGBgYNDQ7v7vb9AAD3+fkFBwYTExP08/EBAv/++gAGBAv6+Pz/Af4ECAMA/AIT EwQSFQYAAwIA/v0EBQEGBwL/Av/9/QAJCgQFAwUDAgYFBAb+Afzc5d7m8OP/A/8BAgb+//4DFDoE +fn7AQH+BQYAFRYQ9PT8+Pn8Bgf/Bgf/CwgELCke9vcL7PDxGxYHFgwQ9wD6//8BAQIE/fz6AgL/ AAEBBQYDAgIB////AP/+DA4ICQgK+fb5/Pf9Af4E/P79AQEB+vv7AwMB//7/CQkH/PwB9vX5+Pj4 /////wEAAwEDAgIC/Pv9AQMC/vsE/f36BAIDAQIH9ff8Av4FAwIEAAD8DAwCFBUIAAEBCAkD/P39 /wAC/Pz8BQUHEg8KBQcGAwUH9/31/wH//f//+/wA/v8C+/v9+vcH8fD79fMC+fcCBwYEAgX79/T4 +/v6Dw8S7e34+/oBOTogEw8P6+f59/v0AP0DAf39AAEB/f4D+/j/+/oE+vn8+vkD6uX2Cw7yIh4R GRcVAgEGAwQJAgQDCAQKBAMHCQoLBQcH/QAB8/Xx7Ozw9fP7AP0BBwMF/v4B+vr+///9AQL9CwwF +/kC+/z7BAQCAwMAAQEA/v7/Dw4NAwID5ujsAAP9CAgDBAYC/v0D/P0BBQUCCQkADAwLAQUCBggH AAEBBAIDBAYE/Pz8AgMCAQIBBAIDAP4BAgECAwMEAgAB/f/+AwQC+vr6+fr8BgUDAAD9/v7/AQAB BAQECwoK/f/9BQP+BAX/BQb+ExUPHx4e////9vf0AQEBAAAE/P/7AgIB+/v9BAICCAcCBgcABwcE AAEAAP//AQAC//8ABAQC+/r6/v//+fr+CQgFBwQDAAAAAgQDAQUEAgQC7e7u9/n4BggH/QL////8 //8CAgIA8/P1+vr9BAQBAQL+AQH/AQEAAwMD9PH79PT1BQYCAQH9AwT/+vgCAgL7IiQY///9+Pb/ 7/HwBQYG9PT37+/wBQUF//8ACwoH/f37/gAAAgIFAgP9Av8DAQIAEBAL9vf2CAgFAwQABQYAAQID //8BCAcCAgMDAwICBQYEAAIBAAMDAQQE/gD/AQIC/wEEAxE5AQABAQMEBvf2/PX1+/0A/wQCAgAB AAcDBfPw+vv8+Ozy8vn9+xAOBzY1HQIGDvj5+/b19wEA/wAA/gEBAP////z8+////wICAvj4+fv5 +QkGAw0KCPz8+f3+AQIDBAIBAgECAQEBAP7+/QIBBf39/wAB/gAA//4A/wMAAgL/AP7/AAEDAf79 +xQXCfr7+f39/AABAQIA/gEB/gkKAgMC/gsIBPn8+fr6/AIBAAAAAAAAAQQE/h8cEgMHAgEFBwIG AgABA/7/Avf4+wAAAf38/gEA/gME/wD//AcJ/AgK/AMDAAIAAwEBAPz8//38Ae3t+9/c4+Te6fHw 9AcKAf78AQkHCQIEBff5/AD8A/3+/AH/A/38//nzC+3s8+ns5v8C+A0NABANBA0ICAsKAgAB+/v8 +enr6ufo6ezq9Pv4AQD8AQsIAwME+///Af7+/AMDBP38/yIiJAEABPX29AAA/gMEAv8A/gL/ARgZ FwgJDPX39AoKBvz8+gIB//j4AP38AQIC/ggLAQwOCAMEAwAAAwIEAgMCAQICAAEDAgkLCAABAAQB BAACAAcHBwAAAgIDAwEFA/7//fj7/P78/gYHAQEBAAICAv7+/wEAAQICAAIB+QkKBgABAAD+BPb0 /AsLBejo5v38/hcXGvz8/Pn8+gD/AAMBAgUFAAMC/wkKBgAA/wAA/f//AAAAAQEC/v79/gIDAfv9 //n6AQwJBAQEBQEEAwQGBgMGA/8AAQACAf4BAP0B/QQFAwUGBvj2+QICAAID/wQBBQoMCQQDAgEB /gQDA/79/QUFBAoLCPz9+wkJC/j4+gAAAPb1/wUECP3+//Ly8gYIAwQDAQIC/wcGAwIFAgH/ASkr IwsMCPX18/4AAAUG//7/APz8/fP19gYGAgcGAwUGAP///v3+Afz8/woKAgcIBgUFAwACAQMEAwAD A/8C/wUGBv7+/gAAAQEicQAEAwMAAAT6+f8CAQT/AfcFBAgCAQD+/QDy7vsCAgYGDfr19QL9+v4i IwT19gLu7/YICQMBAf8GBAH+/wICAgH8/P0AAP4CAgIDAwb/+vgLBgMWGBT3+Pjs7/X//gH5/PwL Cwn+AP349/kEBAj/APz+/v4AAAP7//sHAQIXEhXs7/L1/P0A/PsYGRIICAnj4uzz9fgHAwH/AP8F BgECAf8IBQQCBv8AAAX8/vv+//77+gH6+/5BQBoUExvo7QL3+ur08gHm5e/08vMEAQD5+f0B/wMH BwUBA/0CAvsHCAT7+/sBAAT+//0CAgL+/ATy8/r69gIHBwEQFAD9AfsLCAgHBQfv8/f09v4A+wD1 9AP69/4DA/sEBAH/AAIDCf8LCAQGA/wMCwEGBwH4/gL4+v739/34+QECAgb+//oIBAMJBwEEBPwC A/79/wACAQT8+gL7+v39/f0EBAAEBQIEBAH+/v4PEA3y7/b5+/z/AAAJCAcPDwr29fT+AAD7+Qbs 7/UOEAMLDAAdIBINDRL7+gL/APwEAgP7+/z9/v39/P3//wH9+v0BAgL//gD+/f/6+/sEBgXv8u/2 8/v//vwHBAACAgEAAAL7/Pv9+/8DAwIBAv8NDQz5+P33+ADz8vYMDQMPDwjw7/UJCQwBAv36/fgE AgcDAgD6+vgCAAT+AP0BAQAAAAECAgMAAP8AAP39/QEAAP77/AH7/QYPDP0NDQ4EBAb/Af77/foD AwX7+fz//v8EAwP9/fz9/wDw7/MIBwMJCAUA/wQCBAPz8/AFBQX8/PwDAwX+/vv//wAAAQT6+f/+ /QEEBPz49gX19fkQEgYDAvwCBAT8+fsIBQb9AP/6/Pz5/P8WEw7/AP7v7vQBBAMC//3/AAT9/QAC AAAHBwX6+/cHCQQVFRbh5Of+/AMTFQQPEA0FBQX++/7//wH7/f////0A/////QD+/v4DEzkDAAL+ AQD+BQcB/gD8BAIG/Pz8/v/8AgP9AAIABAL+EAwDDAYG8/H76+z8/vr+Dg8KBwcAAP/9AwID/f0A //4A///+BgYI/v79/vr8BwEDA/8E7ez0+/wE/P75/v3+AQID+vv7AgED/P4BAQH9BQf/BwcE+/oA AgUACwYGAvz/+Pv7+/4A//4B8fD18vD2+vr8BwkEAQD+BQcEBAYACAkCAgT/FxUT9vb6/Pz9AAL/ +vr/8PEA8+z7Dg79FBYD9vEE4OPo7evyDAoFAQH6BQQCBQUAEhQN+/30Dw8K/f0A/v7+AAABAAH+ BQUDBQQFBwr9BAkBCRACCQgD//sAJigYHh4j5efu+/z+AwH9BwsDBAP//PgGAgP///8G/fcE/fr/ +Pb+8vIB8fIH8e399vIB9/X/Av4BAP4BBwf+CggBAwH9AgMD+/wDBQME//8BAwIDBQQCAAH+BgcD AAD+BAQDAQEB+Pj5BAMGBQgFAAABAP4C+fX0BwgL9fb5+vj/AQADAwT/AP4AAwL6GhsaBgUKAgH+ BggHAQIB/wD/BAUF/f79BAcFAgMAAQMDAQMCBAUF9/n38fPz+Pj8CggI//37/wEB/v7/AwME/wD/ BAUDAf4E9vb5/v77AAL9BQYCBwYFAwQC/fsA+/r/AAH6BAIBEhAU9/j2GRkV/PwA+/v8AgIDAQAB ////AwMCAQH+/v4AAgMD+Pn+/f4DEhIHCQwLBgUHAwQCCAYFAP/9BAQEAwMGAgIBAP///QD++fj4 CAcEAgH+/Pr8/f7/AAAB/v79AQECBQQGAAECCAgI+vr5/f7+/v7+AwMDAQL/CgoCBgcD//8E+Pb7 //oBFRIVAgIH9PX3/PsD8/L6+Pb8CAkI/P76BwMH/gH7AAIACAgK//7/AQL/AgMC8vL0/wAC/Pz+ BQf9Dw8NBwcFAgUDBQUGBQUDAwQBAwD+AwME///+AxA4AQICAAICAP78AAL+BP8C/QIE/gQFAfv8 AQH/AgUAAgAC/vf4/gIF/AkIBgUI/QYJAQQGAAACAQMEA/v9//z8/AUDAwP9/gcABAAB/gsHA1dG TTEkVcXZzv39+gICBAAB/AsMBwIDBfT39wkIBf/6/Pn6/f4CAxQRCQkLBfn///T6/fr/AAMB/f7+ AQEBAAkIBQMC/QMFAgQE/gAA/f7+/vz9APj0+v0A+wAEAQAABf38AP77Afb4+97g8tjU7OHb7Pz8 +gsMBAAD/v7/AAICA/79/vb49QECAhoZGvz5+/T2+QcDAf//BPr7AgEA+wMEAQ0NCQD9+AAAAfD1 Aenp8u3o6P/+/gD/AAIA//r9/fv8AAIE/wEA/gD+/AX9AQABAP8B/gEAAf/8AQABAf7//QAB/wcJ AAcI/woJAAICAAEDAf///gcHBAoNCfj19x8eHAIDAvX7+QYEAgYFBfz8/gYGBv7//fr5//r6/wUH +wEA/gMCAxgOGe7s9vj7/P39/fz7BQYEBPz++gkMABocFAQFBgICBQYJBgACAf//AAMGCAkCCAIB AgcFBAMCAPj39e/v9Pn3+gUCAwQDAQIC//3+Af8AAv/9AQEB/gUD//wA/gIDAgECAgD+/goKBf0B /vn7/AEDAAMF/gkKBvv6/g4PDvX18/v7/f7//P39/wEAA///AAIDAf///QMDB///AAEAAv7+AQMF Ag0LAwsKCAYHAgMGBQAEBAIAAgIDAwEA/v39/wQEBPf6+/r7+woKCgkJCwUEBQQEBfz9+w8OC/Py 9ggFCvX2+v39+AICAQEAAgUFBBAND/b49v3+/v38/wD+AQIDAw0QDfr+9vsA9gEBAgUDAAQF/wYI Av4A/P///wYIAv37AgwKCRMVDwIDB/z49QQFAf79/AAAAvv8/gD/AQ0PBQ0MCwsIDQYGAgEEAwgI CAIEBfz++/Dx8AMUOgIBAgAAAAD//wD6+/4CAwEHBgYCAQP7+Pv9/P//AgED/wID//3//QUIDAb/ //4BAf8JBwb5+fr5+PsDAgUBAf8IBwUCAQABAgIDAQb/A/sFB/Hy8/ff4+j7/vUAAAP9/f0DBAL4 9/sEBQMGBAH+AP7+/wL4+P0LDAAnKB0CAQn5+AT5+vIJBgEHBwT8/fwDBQH8/PwEBAEBAf8CAwIA AAEDAgX8/f0EBQMA//7//f7+/P0FBgb//f77/QACAgADBQALCQUFBQD+//wIBAULCgr/AAABAgAA ///v7/D+/f0CBAb+/fz///8EBQAIBv/+/gD6+/3+/f4JCAn6/f/59AEHAwAMDwvx9PcCAQYBAP0E AAb//f8A/gD5+f4ABAATB/xURE/Z1uf1APoBAfoDBAEHBwEGCAAFBgAEBAH+/v4BAP8BAQH5+P39 /vz7+v/z8fb2+fcAAv8QEAYAAAT59/0HBQMEBf4PEBD29/QB/wYHBgIJCQj0+fT5/P36+v0AAQH5 9f78/AQCAgH6/PYEBfshIxYNDg0CAQQGBgkEBQUKCgcHCP0FBgL6+/3m5unp6u/08vwCAgEHBwEC Af7//wECAgH+/f8CAgECAQADBAD//wL+/v4AAAAGBgX+/vz/APwC//4EAwQEAgT+/P4AAP/09fMN DQz19fcICAj29fcKCgkCAgL9/v0EBAL+/gAFBQUEBAX39vv/AQICBP4OEA4GCAgCAgICBAUEBgEF BgYBAgIDBAb8/Pzq6+4DAwT++/v29fr8/Pv5+vj7+/r6+v0EAggPDhT5+/QCAv4AAAT//v4XGBP+ /v75+/j/Af8DAgH9/f0SEwwZHAsFBwUFAg79/P///vsDBAEAAP4BAP8GBAIBAf0MCwv29/crLCXx 9Oz5+fv9/fwBAQIDAwT6+Pz8/QP+//oBA/0QExEJDAkDB/sCAv708vfo5u/29fwDEzoC//3/AAAB AgICAgIB/wAA+vr7/fv+CAYGBAMCAQD9EAz8T0dODggt3OHVAgL+AgAA+vr7/v7/BQMF/v4BBQMB CwkEBAUC/P7+AgT3/gEN7fDz4eTgBAX5AgQD+/v+//8A/v3/AQMAAgQA/f79KiC9JwAAIABJREFU BAME/v4C+fj+8On9+Pf88vXx9vTzAf0IFBIOAP8B+fr6AAEBAwUCAQH+AAAAAAAAAAABAgIC/gD/ ///+AgIBBP8BEQ0L/Pz+/f3/AwQDAQH+Cw0EBAL+BgYEAAD9BwcFEA8P9PX0///9BwYFEhIS+fr7 +/37AP4A//8BBAIECgAIBwYK+Pr8AAAC/v3//gD7EA8DJSIf8vP49/v8BwkABgEF+/r8/fz8//8A BgQGAAL+CAYE9ff38/j0/gH9BAUACAcCBwoCBAX9AwP/AQAAAwMBAAAABQUFAQEA/v0AAgAC/v7+ AgP+AwIA8fEB+vr8DgwMBAII9PD99/r2BQgB+/oEFRYIFhkL+wEB+Pv9/P3+/vsB/PgB/f7+/Pz+ AQAB+fr27e/qBgb+AgMCBwUHAQH////68e/05uXu3Nrm7Ov49vP///4BCQYCBAP+AAD+AgIE//8A /f39BAMD///9/v0A/v8ABQQEAAD/AgH//vz+/f4ABAECBwQBBgUDAf/9/f4BAgMD+/r+BAQDFxgY 9fT1BQUF+vv6AAD//f3+/Pv9CwwLAP8A9/f7/P0CAQf+BgcEEhIMDQ8LBAcDBwkGAQIC/v4B9fX3 6OrrAP3/BwUFAf8B////AP4A/f39BQYG/wD+FhcTAAL6AAD++vr7AQEE+vr8FxcT+/sA9/f3AQAA AAABBgYH9PT3LC4dFxYW7+709PXrBAQD/f79/wD/BQUFCAYG/fr/+vgB8fD919bk8/P4BwcA//// AwMC+/v8AP0B+Pr9/wD9/AD38vbw8PHy7uv06ufx6ejx9fT4AQECATF7DO/y9AMEAQAAAAACAwMC Av79/AMAAQYEB//9/fz9AAkEBA0JCvn6BOrw6/4B/QQEAQsOB/X29wAABPT4/w8MAhENBP79//r8 AQIEAf79A/z8+AD+/vz7APr//wD+Bvz8+wQGAAMDAQAA/f7//wEBAf/+AQD/BAL9Bejo+wwOAQsP +//9APf4/goKBwMDAfz9+gcGB/3/+AAAAf///wMDAwAA/v7+/////wUCAwsHBwP/Af0CA/Hz9/j6 /AYIAwMCAA8MCf4CAfLy8gEBAQH+AAADAv/9/QYGBvv9//n6/QUG/wL6A/v7/QwIBiIVH9be5voE 9wEEAAkJB/4E+/n2/Tw5LPb499HV3/j1/QYEA/n4/QQEAQQFA/n4/gIAAvf6//8D/QcDAAH8Av3/ /wMD/wYJAQME/wICAQAAAAEBAQEBAQUFB/r5+gAD/v78AAEBAQICAAUFAv8AB/n68yoqI+3q8uno 7wMEAwkMBe7s9ggIAUNFMPP2Ad7e6uHh5/n0/vXx/QQEAQMCAgEE/gsNAwsMAQoN/wIBAQIFBvv5 /vn7/PTu/vPy/f79AQICAQMD/w8QBgQF/gID/f///gQCA/z8/v7/AAEBAQQFAvz9/QIAAgYHBQEA /v38//39/fv8/wT+AAMAAAkIB/7/Afb8+/8A//4A//v+/gD/AAgFAgEDAQQEBP39/QD/Afz8/v8A /RISE+Tk7vj7AQsOAwwMARYXCxweGQEFBQD+Au/u9evp8u7r7/f3+gwHAwMCAv////7+AAH///4A AAICAfj5+yYoHhUVEdHP2/7++QD/A/7+APb3+gQBAgICAQMDAwUFBfj5/O3q/QUI/AYEBf7//QsN AgQDAP8CAf79/v35/Q0HCQIEAfL49vz9BPj3/QcJBAcI/v7//QIBAgAAAwEAB+zs+//+AAIE/AED AP78AAID/v39/wIAAQsLAgQFAAMjSBD3+PcCAQMCBQP9/vwDAwH9/f4MCwkIBQQCAgD7AwD6APjx 9/z1/PX+/wQAAQABAgD8/v0EBAX+/wD3+/4NDAQMCAMBAAEFBwn+AgEBAPQDBAQABAb+Af4DAwH7 +//+//4ICAUAAf8CAQIDBAMA//8AAAH8/P0BAf0FCP8CBQEFBQIEBP8DBQQSEw79/vkA//z/AP0B AQICAAMAAQD+/v0ICgQFAAH/AP4DAQMB/wD8+/v//P0JBwMCBv4EBAAA/wD7/fv8/f4HCQf//v8E BQQEBAMBAQD+/v76+/0AAgIFAQMIBAoFBP0RDQJUTEoDBB7g5t7+APsFBAQDAwHx8ADg3ent7PP/ /wIIBwEBAQT8/vwTFAsGCAAHCQUCBgIJCvwJBAcGBAsCB/sB/wIDBP8EBAABAgADAwP///4FBQX/ /wAQEBD29vUCAv4EAgIAAf8EAwMGBAT8/vj6+APn5PP49/oHCQD9/v8BAQX+///v6gDu7PHz8fHp 6O4AAQH9/v//AAH/+wL9/QEDAwT39/319P/y7gPz8f/v7Pnw8f3u6/3++gEA/wEHBwMICf8KDAEG BP0CAv8FBAYA//4CAwAHBggCAgAICAf8+/0AAQIGBgMCAv/7+v37+v3//QL8/v8FAAQTDBg5NkfX 1Of2+fQDBgX/AAAFBgMHCQUFBAX//v4DAwIAAAL9/f4BAQEAAAD4+PgEBAj4+P769f///f/7+/fx 8vLu8fDq6Ont7PHw6/T39/wFBAQGBgD+/v0BAgEMCwv9/v3/AP0MCg739/zm5u/o6Oz8+gEGBgH9 /fwJCQsCAQMCAf0QDAsJBwQKCQf4+Pb/AQD59gL//v8KCwIEBQD/AP8AAAD9/f8D/wIGAgUA/Q8A AvwBBP8HCQYEBf0DAAAAAP8QEQ/09fj7/v8FAvz5+P8A+wL8+f0B/QMCAf4C/wIMCggEAQALCwYD By32CQwI+/z8/v//AwAE/Pr9/f0EDg8DCgkF+gMECQgFBwYJBAQB//77BQME/vz7AgQF/wH9AwMA BgII+vj7ExQDCwwKAAAGAQH9BAQD/wAD/wACAAD/BwYF/f/9//4FAAH7EhII9vT8AAAABgMCBQkE +/38AgAG/P79BQcDBAT9AwL+AAEA//4C8/P1BAQB/P3+BAMF/wAD+vr6AwIABgYE///+//sFCAD+ //4FAgIABAEI9voEAwL9/f8A/AACBQX//P7/AAAB/vr+BQYDCgwI9vf7AQAE+/8D/P78DAUGBgUG /wH8BQcD/P3/09rX5OzcAgH+//3//wH+/gH8AgAB/P/9BwkDBAL+CgcG+/j7/v7/EBUGEhYLBgUK BwkGBAYFBwgEBgUCAgIB9v0AAAP+AwQABAUE/fwABAQF+fn6////8/PzAwMDAwIB+vz+9/cAGRcc 7erxBQUBBgUF/f37ERMOBAUE+Pb2/v7+DQsN+Pn38PH77Oz3CQgGAwH9AgAA//z///4BCAkEAAD+ //4A/fsA+vv8+/v//fwD/vwB/fv/Af8CBgYCBwj/CgwEAwQAAQADAAP/AgUD/v3+DQgI//0F//79 CAoF9/j5AQABAQEB+/v9+Pf/AQAEAgH+AwIEAwP+ExAKQDg77OLt6fTtAwT9AQL9AwIBAgL/AQIA /gD+/f3+AwICCAkI/P36CAgGCAkKAwME+vr6+fn++fkA8/EB9vIB8Ov69vH89PIB+PkABAQBDAoE /v4BAgIB/v79+vv7/f0ACgMEFxMV8u/0FhMS//3+CwwHBQYF+/r7BAIA/vz5AAEBAQAB//0C7/Dz BgkCAQL+BQb/BggABAUA///+Af8D+vr8Af8DBAEGHx0bPDY819Xa+vz8BQgABQYA/gH+//8B+fj6 AwEDBgQCBQcE/v/8AgL/BAYBBAX+AwUACAkCAgT8BgYDDQwPAxU6Bfv9/AICAAwKDPz8/vj9/v38 /xsaBQoLFfoEAAQE/v//AAQDAQgDBQMBBQIEAvj7+AkIBvv7/fTz+vv/ABYVBRcSC/0AAvwEBAIC AQQDAwQDAwEBAfr8/Pz8Avf2+QgIBAMD//z9/wAA/wkGB/z8/gMDAAwIBPf4+wUFAwYGBwECAA8P EPz6+wIB/gUEAgD//gEBAfv8/QMDAAYFAwUCAQL9AP4B/QIABAMAAB0QDlU7YPr7HNjk4wAH9QL5 A/4B/gIBAQAB/QoKBfv9/vn7/gMCAAEABPv9/gMB/w8MBwIEAwUGBfz//wEAAfv7/ff6+fz8/P8B Af0A/v//AAYFBgQGAQYGBBUUEQgHBu7v9fv6BgUH+SAgDwoHEQYGCAYFBgECBgACAvv8/vTz9QcH BQIB/v/+/v7+//7+/AYGBf///gICAQYGBf8C/wcFChAND/X39fn/+/v+/QsKDPv7/fL09fr7+gEB AggICQgICvb29gYFBAsMBv8B+gMDAf//AQIBBP39//7//gEAA/n5/AEABAEBAgICAf///QEBAAYH BAMD/ggIAwkKAwsLCQD///79/QcICf38A/77/w4QCu/x+vv+/vb29woJCv7+//8A/v79/wMCAgUE AwgJCAIEA/v+//T489LZzfL67gQIBv8B/vz7AQECBAAC/P79APz7/QQDBfz7/Pr5+wIBAgkJCvHy 9fr5/f38APz9APr5/gD/Avz9//r4/v/7Bf78/AQF/xsYDwQF//v5/v//AQD/AgUEBP7+/QoLDvDz 9/f5+vn8+AAD/fr8+fz9/f7+APn5/AQAA/r6/wYABTYvOd3c4/z+AAMFAgMDAQgIBv///AMEAv7/ /wYGAgYHAwQEAvj69eDl2vsA+AEFAP3+/v78/v7//wMCAwAAAAUFA/39/P//////AQQEAwMDAQYI BAAEAQUJBAUGAhEUDgAD/gMRNwEDAgP//v8BAQH////5+f779QESDwEkJgv+AAcAAwsCBQcAAgH9 AP7+/gD+AP/4+foBAv4BAAIA/Qf4/f8OC/4bGQ3/AwEABwoA/wAFBQMDAwH/AQL+/gH29//6+foH BwT6+foA/wD9/wD59PoGAwb8/AAFA///Af8EAwP6+vn7/gD6+vv//f0BAgELCwn5+fv+/wD///4K CgcHBQQD/wH//P8EAQr5+v3//wYUEwRTSjg9LlDP2PDm6dgHAwH8Af8BAAAJBQIhIh35+vz09voB AP4IBwvx8/ULDAQQDgUFCAj/AQADAwYBAQP/AAL/A/8EBQYEBAX+//0BAwIBAP3+AP3///74+Pr5 9/cAAAH19P/49v8LCQUoKBgLDgQKCwn//wH09Pjv8PMA//4GBQIBAf/+/v8EAgQDAwIHBgb8/PsE AwMKCgnu8fkWFAodHA/+AwD4/QL5+vj39/gCAQMMCwz9/f///wH6+fzy8vEICAcBAP8OEAj+/vwE BAP8+/74+PwJCQT9/f79/f8EBAb9/f0CAgH//v0GBQIGBwEEBAAICQENDgf4+ff+/v3///8HCAQp Kirz8vb6+/osLij2+Pzz9/MKCgcSEg/29vQCAgT49/0HCAQFCAMEBQQEAv4JCAz+AAH+Af78A/8B Af8DAwb8/QH5+voFBwH//wECAgIBAAEAAAP//gADBgIYGBj19PMAAAEAAP4CAAABAQAEAwEIBwQF Bf8DAAMJCwEICAAICAf7+fz+/voCAQECAgL+/v4ODwsNEQgFCAb5/fv8/fsEBAP+AP0BAAEA/wP6 +f0IBgcBBAME/wAgHCHo6er2/Pr9/f4GBwP8/PoEBQIAAAD6+gAPEQ0KCggDBAT/BAD9Af8EBgcD AwT6+fkDAwICAgEEBAT+/f0BAgABAAD+/P4FBAECAgH///wEBP8HBQP//f0MCQo1MzAEBP8DIEcQ /vz7/vv//P7++/v9/vgC+PcB+PT9HiD/JyEm/f0CBgYE/wMA/P/9+vz/8PH3AwEABAMD/fr/8/T8 //8BBwX8GRoPDhAM/P3/AwUGAgEBAP8B+/sA9Pf97uzyAwMABwYCBgUH//39/wMEDAkCAAAC+fsC +v78BAQE////AQEBAf//BAMC/f7//v7++vv7BQUH+vr9BAUAAwMABwcGAAABAgEF+Pr0BQYAAQIN 8/jx2uPU8+7Q7PLz7vLn/f/7/v8HAP//9vj87u/y+fn5/f7/ISAe/PoB7/D1DxAJGBcL/wIDBgkL AAEB+/78BgcEAAECBgUD/f39/f//+fv8BwQCAgMB/////v3/EQ4Q/P399vb7/PsK7uz27PDnAf// +Pf95eHr5+ft/fv8CAkC//39AgEAAQEAAgEC/v7//v3+AgIB/v/9/v3++/oE+fr1ISEe9fb47Ovz BAH/BQIE/v3++vv7/f3+//z+AAH/CgsIDA4M+fv5/f35AAEBAwEF+vr8FRUSBwkBAP8A+fn8AwMB AwQABAT/AwUABAX/BgcCAQL/AwQAAAD/BwcEFhYV8fHy9vX9AgIA7e3u+/v+5+jo8fHyBQQA/fz9 +vv4/wD+//0B+/r+DQ4IDA8GAwIGAwQAAQIEAgMEAwUGAAAFAgH/AQIBAAAB+vr6CAkFAQEBAAD/ //7/AP/+BwcH9vf58vLw/wH9BgUDBQQB/v//BwcDAwP/AwT8BgcAAwX+CAgBAgH++fn6/P4BBQP/ BwcE/v79+fj8DQwPLTAn/gAA7/Dx/fv7DwwLAP78AgME+fj8AwMBBQcFCAoG/wD75efk9/z4AAT+ /Pv+BAUCAwQAAQEB/PwA+vwBERELCAkFBwkJBQgJAwUIAwEG//7/9fX2BAQBBAIDCwoK+fj6/v3/ Af8C/f3+BQUFBwcFAwMAAgQBBP///fr/9PT67ezv5uPoAwow+AYFAxwaG/Pz9v7/BPn4APD4+/X2 A/Tu+REO+x8aDQsKB/r6+/Hw9ern8/T1+gcGCP/+/Pz7/vn4AP/9AAUEAQYJ/R4fFwoFBvoAAgEB AQIABe7v9+Xn7wUDAgsLBv/++wD9Af/+/wAD/iMjEwUFBu7x9/4BAf7+/P8A/wYFBQQEAQkJCfb3 +P8CAQEBAv7+APz8/gYFAAgJBv3+/P7/APr+/wIECAH9A///+QMF/O7sAtno8+vw4v8EBP3+AgH6 +/wCAQMDBgH+AgcGBgIDAfX1+PHv9/j6/QAB+x8dEgoOD/8BA/4BAQUGAwQGAgICBPz9/v////z8 /gAAAQMB//8AAQD/AgEBAvX09/78APv7Avj7+fv9//HuB+Th7+Hd7/Dt+AD+AAsJBwID/AQFAwD+ AAIAAgAA/gEBBP3+/wIBAQIBAf3+/f78/+3s/9zb7PLw9QgE+wIB/wUDAQAAAAICAgABAQUBAwMD Afv8+/b49v4BAgH//wgHCwMCBPn5+QICARQVDfLy9P/+AAMFAgYGAAEC/wcIBAICAAEC/gYGAgIC BAIBAfz9/f7+/P79AP38B/Lx8QMDBfv6Afr7AQkFAQUFBf/+/v8AAP3+AAD/Afv6/woNBBESCgME CgEGBAMHBgIF/wEC/gACAwH/AgIFAAAB//z9+wQDAPv9/AUFBP7+/ggICAUGBPP0/AIAAgQEBQIB /xMTEvf2+P7+/wD//wgJBAUE/wAEAAMDAgcGB/3//AAC/QQACfz9/AIBAPz8A+fl9evp7ebm7fz8 /AUDARgVEfP08wIBBPj7+w0PDAcIBAUDBQQJBvf//AUGBQIB//z8/wQEAAcIBv38//r6APj8/AkL ACMkHAYIBgYIBQME/wcEAvLv8f38/gIDBAkIBhAREvX29v38AAECBAEBAP///v39/P7/AAoJCP4A /v7/BPj5//Hy+QQGBwMROAP5/P3q7fABAQANCAf3+voGBAj8/P/19v7f3/HY2+rd3e7i4ezo5/L9 +wAKBgEBA/4CBAP+/QH8+v7/AP8DBQD+APsAA/sPEgcB/QT18/jn6PHl5+/49/0PCgcDAf0CA/8H CQf4+v349v/t7vrt7vQFBQEGAgICAgELCQkBAAHx7/j4+P8DAv4A/wACAgP+AgL5+vwNDQQDAwQB AAIGBQUDAv4CAgEAAgADAwADAwb9AP/+/ff7Av3+Af39/fz/AAAB/AIEBAP+AP4ICgUDAP7s8PcD A////QP9/P0KDf8pJRgEBAj9AgIBBwICAwEDAAT+AgT8/wLz9PUC/gABAv8HBggEAQX7+/0KCwf2 +PkDAgEDAQH7+f///f/5+QAA/wEFBgIMDgMDBPsDBAICAgMAAQAAAgD8/v38//4BAgADAwL+///+ /v8CAwQB/wABAv4KCgL9//4BAwP+AAEAAAIJCgn7+/0EBQH/AP/9/wACAQH+//8C/gLz8/f7+/oD Awbr6ffo5vQFBQMEBAACAgAAAAABAv7//P0EBAEFBwMAA/8GBQEFCAX9+foNCQ74+/0EB/sVFA35 +vgGCAYQDAj5/PgDAv8FBgINDQz+/P38/QT08v0ICQMbHBQHBgcABgAGBwUBAgEFBAcFBwQIBgP/ /gH49/oA/v0ICQf9///+/f8A//8VFRMMDAvy9fIIBQD++/33+vz3+/cFAwICAwECAgEHBwYAAgEJ B/4LBggIAgf+/f4CAwH+//0BAv3+//8CAQb4+Pzw8PoEAv4FAwD6+vzq7PQDAgH+/Av5+fkIDAIR ExEDBAQBAv4HAwIBAAL//AH7/AABAwH/AP0EBQT8/f329AD59vwSEAUfIBELBQsGBQDh4Ofu7fYD BAMEBQD7+/4AAQD3+fcBAwECAwECAv3/AP8DBAQEBAMJCgj2+fsB/vwWEBINCwz29vMDETYD/wAB CQkJ/vz++vr7Agb9BQMCAAAD/fz9AgEC9vX+8vL99/X9AQAACAoFBgQAAgP//fz8AwT/BwUC+PcB //7+BAcF9fX35ufu4uXt6Ojx7u30/Pz/BgQFBwb+/wD/AP8BFxYW+vr4+fsB////BwcCAgL+/v/8 //8A+vr9/Pv8BQUF/f/8AwMBAgIB/f8A/vv+/P0ACQkCDAsHAwQCAAACAAIBAwMDAwQCAAAB/wAA AgMB//39AgQE+/v+AgIDCAYG/f0A/gD9/f/8/fz6AwQABAT/AAAA+PYC9/T/8vH5Cgv1MC8jEgwS BwAMBgQBBAUC7/Dz6ervAf7/CQkCAQABDw4PBAUE+Pn4/f37//8AGBgZ/v/+///8AAH+CQkBDAwE CwwDBwkAAwX//v3+AP/+AQAA//79AQACAwL/CwcGAP0A/f4ABAMHAAH+AgICBQYCBAb/BAQD/Pv8 AwMD/f39+Pj5AgL///79/v79AgMBAwUCAwIABQQEAgIBCAkE/v77AwICCQoAAwMD/v7/AgICAAH+ BgYFAgIAAP8AAwMCBgUEAwL//f0CCQcNAgEB9fv2//4A//v7Af/+DQ8JIiAW7+/0/v7+///+//// +vv7+vr9+Pf+AgL9FxkNGxwT/QMHAgQCBQcDAAMABAUCAwMG+vz98e/yAgEBCQkJ//z9AP//DQ4O 5OXs+vn5BgEBCAQHBQECAAD+AgIAAAAB/fz+AAAA/Pz8//78/P0CBQUAGhgUHRcZA/v89vv4AwIE AwQFCAcJ/v77CQwHBwcEBQQBAQIAAwQACQYIDw8N7e3zBwQGHiIQAQcDBAYH/gEDAwQG/wEA+vr8 +/v6AwMA////+vv8Bf8M+Pb/7ezx4+To4uDq1dLn8fH4BwcFAwT+///8+vr+9/f3BAQBAP/+BAQC AQEC//8A////+fj9AAAB+Pn6CQcGBwUHDQwQ8PLyAxA2AAIBAf39/v38/QACA/77A/Px/AD+BAH+ AP/9//v9AQMCAgcIBQcIAQYH/QUFAAUGBfz7/gD8A//7A/X3/f8AAfv6APX4//37B/r7Afr4///9 Av36/QcFAwQE/AEBA/r5/vX18wAB/QED/wcGAAAA/v//AQABBAAAAf/+/QICAgAA/wED/wEBAQAA AAIBAfn5/v38AQcHAgwNAgUEA/8ABP4AAP79/AUGBgMDAQQEBPz9/QQFBf8AAf7+/v7+/f///wIC Af4A/wIDAQcHBgICAP8A//z8A/r1//z8BPz6AOnq+t/c4AD/8fv69ezu9+Lj6ujn8Pr3/QoJB/7+ +v/8AvP09Pv8+v///QICAf79AfLz8vz8+gID/wcIAQgI/gwPBgEC+wAB/QgJCP/8/wMCA//9/wH/ AAcFBQwIARYUEg8ODAwMDPT19f7++wEAAgMEAAID/v//AAQEBQEBAQMDAgQEA/7//wgHBQMDAwAA APz7/BUVFP79//z9/AID/gUGAgYFBgkLAg0MDPr7/AICAAMEAQEDAQD//gMA/iEfIO7u8///Avr7 +CMkGgUHBfn9APv6+gcDAv78//Dw+fv5+fn7/wcGBvz8+wD//wEAAf//Avv6AP39APr79hkcDyEf Hg8LCQwICwoHCwMACOnr8Ojn6P///w0LDPLv8gIC/wIBAvv7/gQFAvv6/QEAAQ0MEu7w8QsNCvv8 /gD//wEBAP///gD+AAcGBwD+BAAA+fDv8PHy9vv+/f8A/P8AA/v7//f49gUGAAD/+wsMCvv8/AEC /wME//z4//r89vj1APb2/SMlERYVFgIAAwYECAD+AgD+APv7+QAB/QEBAQEBAAICAP79+fn3//f2 A/T0APPyAAEAAAgLAwYG/gIDAAAAAwkICv///gQDAwMCAP79/AIDBAMDAwEBAQEBAPn4/AUGBAwN CQAB//P0+AIEAwMRNwAFBQP//f0AAQECBAIIBwYHCAP8/PgICf8TEwj6/P0BAvwMDQIEBPwJCgX4 +/sDAwP7+QD08/wFAgj3+voEAwb49/z6+P/59v739Pv8+P/8+f0JCAQIBgMDBf8AAAEEBAMEBAP+ //4DBAEIBQMB+/3//gP+/QMCA/39/P4EBAMREhH6+vkCAgMDBP8EBAf8+wD6+AACBAEVFgcIBgIA AAcCBgIGBQX+//8DAwP9/fwDAwP7/fsBAgEAAP4GBAb+//0AAQECBAH9/v7/APwFBQP9/gEA/QH/ AAAAAAD6+P37/ALv7Qje3fTb2+zm4/rw7/T//f4LCgcGAwIBAQEEBAQCAwAFBQIAAAAA/wMDAwIA AAAYGBT29vUDAwATFg4SEg/49/j9/AD7+AD4+P7/+wH9+/7//P8A/f7+/f/+/fz09fL09/T9//0A AQEDAwMDAwH+//38/P8AAAEBAQD9/f0AAP7///7//gACAgIA//8CAQEhcl+lAAAdiklEQVTz8fT4 +vsFBQMMDQwAAP7w7/cA/wIMDA36+vkICAf/APz8/P0HBQEICQb3+fr5+v35+gD8//0MDAQUExTl 5e0CAfwB/fwFBgr19/sCBQgIBwUKCgj4+PYCAgP/////AAIA/wP+/QT39/3r6+3//e4GAwH7+vzl 4ufV0dvm5e7++/4JBwICAf//AP7//wAAAAACAwIBAAAFBAQLDQv5+wD5/fr5/fn7/AT//PsBAgEF BAMBAf8C/gEEAP8hFSoeEDrv7gHzAvEB+vv+AAH6/PoCAwIB//8BAAH6+/n/AQAA/v79+/4ODxL0 9vb29f/8+wL19vQnJhgUFAwFBPv7+vXs6uz29vcCAQAEAwMBAQABAAEB/QcAAAEEBQQAAvwIC/0H B/8JCQACAwD+/v/9/QD99/sIBgX////8/f0GBwX5+vv///0DAwP6+vv//gMGBgUaHBQDBgH8/v4E AwMDFz4DBgMDAgEB/wEA/P79/Pr8////AwQD+fj9BQQIAAH8Cw0CBAb9AgAC/fwAAAMB+/3/AAEA DAsH/wH7+fwA/Pz+Av8EAgADAP0ABAECAwECCAYDBQQAAAD8AQMCAgIA///8AwQE//0A9/X/Av4A DQoKDAsK9/r3BQcBAP//AQED8vP2BAUC+/v+/wAA///++Pf9+PX+/wMCDg/8ExQP/P0FAAQBBAMD /wEAAgEBBAQEAwMC/gAAAwICBAQFAP4ABAUD/v4A/wAAAQIC//7/AgICAgL7/Pv+AwMD9/X7AwII Af3+AQX7+fz+/vwH/vz7AQECCwoDCQf9AgL8CAYG+/z9/wD9BAQE+vn7AAAD///8AAH//P38AgMB BgYG9/v58vP0/Pn++vb/9vP9/vsAAP8DAP7/BQMCBAID/v4K9vf7AgMCAQEB/P3+//8ABQUG/v79 AQEAAQED/wAA+vr8BQYEAgEB/v7+//4C/v7///8B//8CAgICAwMD/v4A+fn6/v3+//8F+Pb+9/j2 BAUA+fv5BAQE/Pv+ExMPEBIO+Pr8+Pv//f77/f0F7Oj25OLpAwb8BQMDGxcXAwQD9/75AwcA+PX2 +fr3BAUEAQIB/v3+AgMC+Pj8+PYC+fcB9/X95eL41dTo2djq4eLy8/IBBwMCCQYEBwcD/Pz7BAQD /f7/AQIBAgIBAwIABwYFLS4kAgIH9PTwBAT++vn9AwQBBAUDAgEBAf4BAQACBQYBOConaVdiFBEX zNHN/fv5+/38AgQB/wD/BAIH//8AAAD//f/9BwYH+/n/+v37BAQG+/sA/PsC8fD56Ofq7u7x7e7x 3Nvo7+7+AwT8CQkJ/f79Dw8O9/f3AgT+BgcAAQL/BgYECwoFBQYC/v4AAQAAAQABAgMBEw0MFhUV 8vLyCw4L+Pr6AgEBAwQACwsI+/v+//8B+Pr8JSkeDQ8KBwcH+/39Aw41BAAB/QMC/gIEA//+Avz7 /wMDAgMCAAUEBPj5+gkIBgYKBPv9/f8B/wQDAQIC/fz+ABQLBSUeGur2/fn8+wUD/wD/AQIBAAMF /QAGAQwI/wcMBPwD/gYEAQECAQAABQkJAPz5BvXz+gYB/wsG/ioiMNjY7f0F+QMDABwYFP3//vb5 +gkJBf7+/P/+Af//AQUFBv7+A/j1AQkJ+xISBgoMDv3+AP4DAwQABAP/AwIDA/4DAQMDAwEBAQD/ /v8BAP4A/v/+Afn9+f8CAgAAAQQC/wABAv4AAPv+/QwMCQUE//T9/gD9/wYDAAcG/QkJAQYHAAcI /gsNB/j4+/j4AAEA//8A/wEB/wMEAv3+/QIC/wQEBPz7/gMEAQECAPb1/fj0/v75A/77AvwA/wUF AAIBAQYGAhUNEEUxSDopVPMAAejv5QL++v4CAgMB//7+/v8CA/8A//z8/QP/AwYFBP38/QIB/gEA AAACAggJBvz9/P8A/f8B/gICAfz+/P////8AAQMDAAgJAAYFBgD9/gcGB/r6APn6AQMEASwsIQMG /wECB/z4+QQD/wUFAQME/wYFAv/+//f6/AQFBPv59v7+/AUGA////wAB//7+/AYICgIDBvr5/Pz/ /vr8/QABBP78AQEAAfn3APr3/QkKAAkKAgQGAf7//QABAP7//wIBAgUFA/v+/fb3/u/x/fj4+vHw 6/b6+fb3AAUAAgsFAQUCBAD8Av/+AAYFBv3+/ubs4tbizNzm1fPy9Pr//AH//QIEAgICAvv//AIA AQEBAQIBAvz8/AIDAf/+AAgIB/v5+gEAAfr3APPz/u3q+urn9vr6AAMFAgkJAwkJC/f29/j3+AD/ AAoKCvz8/AMDAAIC/gICAf8A+wYFBP/8Afr6/AMCAfn5/PTw9gEBAPn99/8AAAD//gL/Avbz+QEC Bfr+/vTw/fb18xAPCP79/Obj6QMTNf8EAwEMDQj5+v39/v4CAAIDAwH9/f0AAf8ICQb6/fr9/fz+ AP4D/wEIBAb59/76/QL/AAEQDwzx9fT7+v0BAf0IBwIA//8ICQYLCQMB//0AAv4DBQIEAQP9//0A /v349/769QEKCv8FCAMHBAUCBAPt7+72+f/5/f/59fr8+/0GCAf9+/kBAQIBAQP9/f7z8/v7+f/7 /v0C/w0BAvYeIQwEAwv//wP/A/3/BP/9//4BAQH+/v8CAQECAQMDAwP+//4EAwEDBQP/AQH9/f0D AwH+/gECAgP7+v0QDwwREhD18/UIBgQCAwEFCAIAAv4KCgQCAgH/AAL8/P8FCAYA/f7+//7+/v8K Cgv6+v0AAP8CAgP//wH9/P/7+v38/AD//gL++/0BAf8GBgQCBAIFAf8JB/4vJx5ZTEgPDRDT29Hu 7uX/AfwABQMC/gD8/gD7/P3//gABAAD//QD+/v///wAAAAEAAAH+/wEHBwf7+/oCAgIAAAD///8C AQEGBgYAAAD8/PwBAAT7+/sHCQIHBwT29vv4+v3t7Pn8+vf//wLj5ekDAf4AAP8DAwEDBQIDAwL9 /AD9/P/19fcFBAj9+wAB//0UCg0eExf6+P/y9fz9/fUBAgP7+P4DAwr6+QADAv8CAwL8+/wMDggE BvwODggAAf/9/fsEBAX+/v8EAwX5/PoCAgIAAAP4+fzx7/j8+/0FBwf7/foGBv8FBQX7/v7+AAEG CAgBAwAAAgD+/f/x8fXv8fD9Af0FBwT9//0FBQP8/f/8/v8DAQADAwIAAAAICAb+/v4GBQgAAAH9 /f74+PsHBwb+/vwBAP8CBP8JCwIGBwD+/gELCwn29vUEBAP8/P35+Pr///4AAAD///8AAAD//v/8 /P7//wABAAH///8VDBplXnHLydn4+/z/AP7//wABAAT9/QEODhH29vj7+gPy8Pnk4u/l5e4AAAMD EjQDAwIDAQAG/P7//f7/AQD+AwME/v7/ExQPAQL++/v8AwUHAf/+BQUCDAoO9fb3+fwC8/T85+Xv APr+AgQBCwwEDAwI/fz7BQP/CwgDCwwK/gH8AP/9AQIDAQICBAQB+/gDBQQDCgz+AwcE/P4B8PPv AQUA9vcDAQL/Af79CAgF/gD9BQP9AgMG////AgMCAQAC+vkBAAD+Af8DAgT8Bwr4GhsVBgMO/QL+ /AH+AAABBgII/wL9BAMEAgIC/wD//gABAQH+AAMB9vX5+vr9BAQAAgD/AQED/vwA7ev38vL3BgYA /wD+BgcCBQcDAQL9BQb/+/r++vn+BAYE/P75AgABAgEC/v4B9vb4BAMCAAEA//4B+/v8AgIE/fz/ +Pn+AgACBwUDBQYDAwL+BAMACgcEAwMA6u/uz9XQyNLF5ezk+vz5BAIBAwICAP8F+vz+/f4ABgYG AP//AQACAQEA//8A/v4A//8B/v/++Pj5AgIBAwMD/v7/AQEAAQEBAQECAAAB//7//f4BAAD/Hh0Y ExYU8PD1/fsF/foB7e346+vxAgIGBgb9AAD/AQIB/v78AAD/BQYDAgMBAAAA+vj6AQAABP//AAP7 /QT/9/z7+/z4BQQGBgYG/f79AgH+BQT/BAQC/fv9CAgDBAT8CgkF/wD8///9AQEAExMU9fX3/f7+ AgEA/wH/AAH/AgEABgYGBQQA+Pv7AwUECAb/AwUGAwIEBAUFAQMA/v/9AgQCAQIF/gAC/gH/AAYA /v7+AAH/AAEAAgMF+/z+BwgFAgMC/P38FBUW9/n5+/n9+fv4//79BAUDBAMDAgP/AAL+CgkCCAkD BwcB/Pv8+vr7AQH/Dg4OAAD/AwQCAQEBAQEAAAABAgIC+vsA//8CAgMCAQEBBQUFBgP4/fz09fjs 7/Tv+ff+CgoG+/79DQ4L///9/fz6AQL+AP4E+vgABwgFBgX/AyVIF/j7/fL29gEBBf///xYWEP39 /vX1+fb2+QAC/f7//gMBBQQG/xobEfbz+Pj/+wUFBP/+AQQCBQgFBwID/f3+/f39/gIC/goK///9 /vD4+gYIAg8MB/r8//z+/wECBPr4/REWAg0NBv8CBP4AAv4DAP4AAfz7/AYI/QwKBAkJCPb5+Bsb G/z8//j4+f///AD+AQD+BPv5/AME/QkKBfv8/QgL/hweDQQBCgUBEQYGBQMI9gQEBgD//wIDAwAC Afz+/f4A//f3+vn4/gQDAwwLBf7++/39/gcGCgUEB/r9/wwLBAAA/f0A/gAA/QIDAAQEAQQDBQMD AQD+/ggFAAIDAf8A/wICAgEBAAAC/gQCB/n5+gUFBAQEBP7//gUGAgYDAgYDAgEA/AUIAgcHBAMB /f0BA/wDCPH69/D88Pv//gUGBAAA/gYBBv4BAP3/AP7//wUFBP79/P//AAECAv4A/QMEAQMEAgEA AwEAAQEB//7+AAICAf7+/wAA//39/v39/gMEBP7/AP79/+3t8u7u7vz9/gID+wIB/gcJAQkLAQQG /wEBAAAAAf8AAAABAAIEAf/+/f////v4/P8A/wP/AAP9CwICCfPzBfT0Af39+/78Afr6+wgIAgAB /BkaERsaFgoLCvz++QQF/AICAQEDAAcHBfn5+/j49v7+AAMDAgcIBvz7/QMCAQsLCvwB9wQDAPn8 /v8B/woHBQMCBAYGBwAAAgEA/gQFAwIBAwECAv3/AP4A//z9/P8AAAcHBgIDA/7//fv+/gMC/xIS EvDw9PX0+P38/QQEAgkIBwQEAv//AP8A/xERDP//+wcIBAQDAAIB/wMDBAAAAP//AAQEA/j4+QID AQABAAAAAQMDAgAAAPz9AgYGBQoJBQgJBgEDAv7+/u3v6/X78wACBf/9Cv3+9wAA/ycpJhESDu3t 6wEC/wMEAAUH/wsMAwIE/AMOOP/4+/r+AQEBAf4CAf74+Pj8+/0EBAb///4CAv8GAwX7+/8AAv0a HBH+/QLs8/YGAv4JCQIHCQEBBPoGAgT6+v0BAAQKCgUSEgYWFhzr8/f8/voLCAQCAgf4/Pn4+AAB AvwcIAUODBf/AwYFCAIDBAr9/QH///cFAwIpJCL3+f3x8vjz8/b7+/v+/v0DAwABAQH5+P4A/AID AwT5+/wABAD19Pn//vEXFg0YFggHBwT+AQcEBQIHBgQCAgD9/v709fXw9Pnz9PoFAAMJBQb9/fcC AgMA//7//v0BA/wMDwUB/wH5+/sICQcBAQACAAEBAgL+/vsGAwEOCwgLCAf6/voFBQX+/v7/AP4C AgD+/gIFBQMDBQH8+/oDAwMEBP8AAf4EAwAFBwIGBwL8AgQCAv4EAgQBAAIGA/wCAAQF/gIAAf7+ Av/+/wH/AAH6+vv9//8DBAD8/P0DAgUDBAH9/f4EBAECAgD9/QABAQH+//8BAQEAAAEAAP8DAwMF BQX////+/v0CAwADAQf/AAMCAgL/Af4KCQYAAQAEBgAICQMA//8A/wADAwX//wD9/f0DBAP6+gD/ /gMCAQMHAwcAAAEAAvs4JSx7Yn3Rz9rq9+wFAgH9/v0IBwr9+/73+PwIC/7w8PIAAPwEBgEA/wMC AQD+//4BAgAEBAICAgL8/v39/fwGBAX9/f8DAgP/AAABAQP4+f0DAwEJCQIJBwkAAAH///4GBgYD AwECAQUEBAMDAwEHBwcEAgYAAgH+//4AAAACAgP5+/n9/P749/oBAQP+/gABAAIEBP4KCwn49/gA AQL9/gD//vkEBQL+//8FAwT//v4EBQf7+/sBAf/6+/oCAgL/AP7+/v4DBAT//gD+/v/5+f0HCQQI CAUGBgUEAwMDBwT8/QQABQb/A/0FBP39+gH7/P/o6Ozo6O0EAgAAAAYBAv0DBP4BAv8DAwUDK1Ik 6uztBgYCAQD9AwEAAQEBAwQE///8BQQD/f7/AP4A+Pn99/T+5eXy7+/1DAgFAQH//wD9/v3///8C Af7/CwkH/Pr++fr/9PX89Pf4+vX3AgEG8PP5A//8AwAAAP0D/fr/GhUELSUi+wIBBAYG+/3+/fz+ 9fL4AAMBAgQE8/P2/fv7AQL+//z9Av8ACAQK8O/6/wAD/wH//wD+/Pv++vb//PgE7ez46eju8PLv /Pv4AP39+v348/Xx7e3u6+vy8PD5+/n9BP4ABgMADg8M9/f6AP///wAD+/v/Af3+IBkd9vT7AQT8 EA4GBAUD+P3/AP8AAAD/FRQQ/Pr76e33DgsLBAID+fn5BQYFAAD/+/sCBQcD///8AwMBAAABBwUG //79AQQCBAUEBQcEBgQD/P/+AwMB/wD9AQICAAMD+////wEC//8BAQIBBAb++vsE/Pz7BwcAAfwC AQQA+fn7BAMF+/v/+vv+AwMAAAH/AQABAwEAAQD//wECAQADFBET+fr5AQP/+/r/AgP9AgL/AAH8 BgUE+ff7ERIQAQABBQQH+vv7AP/+AwIBAAL8BQUD/PsCAgH+BwYAAwMEAP8ABgb9/QAB+fzs5u3a 8fft9/b2/f3+/P39AAP/AAED9fX76+v5AgH8BAP+AwICAgL9DA4JBQQE9vf7BAUI/f8ABAP//v3/ CAgL/Pz8Dg4M+fn2/v8B+/n/BwYGAgT/CgkGBQcEBAUHAgMEAwQBBQYD/wH+AwQEAAEA/gD+BQMD AQD/AQIB/gAB9/n8AAH+AgECBAQEAwH9CQgEAAL/9fP6/v/9CQgF//3+AAEG+/j9/fn8FBAU+fX9 9/r5BAcAAwX/BQQEBgAFCAID+/7//P/+AQEABAL//f8CCgoBDRENAgQFAgUAAv3/AQUC/gEAAf4B //z8/gH9/fwA/vz/BAMBAwQA/P/9AwICBQQE//3+AQAAAwQo9P//+wUEAv///wD/APz+/wUGBfz9 /P3//AIDAf8A/wIEAgMDAgUGAwkLBgAD/AIDA///AQD/Avbz+wMGAAoMDfH0+P7/Avj5APz9+wH/ Av//AAgCAg0CBQABBfLz9/n3BvXy/iMpADAtJ/78APn5Bejp9O7y9wkGBvDu8gUCBAMEBP39/QQC Avz+//n4+woLCvv9/vz7/AIBAwD/AP39//v7APLv/fHu/Ovo+d/d7+Xi8Ofl7vby//bz//Pw/ffz /gMCAQcEBP//AP7+/P39/P/+AP7/AgD/Afr7/+no7/8C/fr8/Pr3+//9//0A/f77/gH/Afj1+vn6 /f8AAPb3+Pz9/AMEBAUFBfb1/Pj5/QgJBQMD/gYGBQEBAQD//wcHBgUFAgYGBf7+/wMEBAQCBQID BAkGB/4AAQMFAgMEAwQFAwEBAAgJB/0A//Tz+wABAQICAAD+A/8AAP//////AAEBAgMCAv7//gIC AgYGBv8A/QMEBPz8Af79/vT09QABAP8AAAH/AAYGBgcGBf38/AEBAf79//b2+fr6+vz7+wICAfz8 /QD/AAECAP8AAvv5/wcHAgYHBgD/AQIDBAYHBf4B/vwCAOXt7/P49/4E/gIAAAMEBfn6/AUHAwsJ AwIC/gYFAQUECAIDBf0A+wMEBP8AAAIBASIhIPPy8Pr7+gMDAvPz9/z8/vn5+QD//gAAAvj5/f8C AAQIAg4MBwYGAwkICv//A////wMEAgMCBAMDAwEBAQMCAgUDAv///wUGBvj5+/P1+QkIAwAA/v79 /wAA/wcFBv4A/QYGB/v7+wEAAP39//v8APz9+wgIBRwdGu/v7/v//f///goKCv37APTz+hkUGfDw 9P7/AwAABP/+Afj4/QEBBhobFAcHAAgHDwEFBQIFBf8CAPv7+wQDBQEC//79/wMDAwMDAgYGAwAA Af////38/f/+//7+/gMQM/4KCQX+//0AAAACBAQCAAP9/fwDAwIHBwYBAf4AAQAEBQX+/v3/AP4F BAD+AP7//wEA/wAEA/8aGA4FBg329/v8AfsECP0HCQH8+v8GBQQAAP4OCQk4LjLZ3ez+//z+Avv2 9Qji4e7q7efm5vLd3Obz8vISEAP5+vwHBAb8/PkCA/0FBQb7/f4LCgn+/v/4+fn+/v4BAAL8/P7/ /wP+/QH8+/8B/wP5+AD6+QT49/729P/69v/y7/zy7vv39P4B/wIGBwACAgECAQD9/fwEAwIGCAP/ //8ABAQIBgQHCAQGBv4BAwMGBgYB/vwICQQDAgIMBgkFBgv5+/4JCAMBAgEBAQEDAwT4+PsA/wH9 /QAFBgEGBgAJCgcGBwQGBwYDBAMFBgQBAgEDBAP/AP8DBAMCAgH8/v7/AAEDBgMFBgUBAf4EBgT8 //75+gH19fkICAX+/v//AAEB//8CAwL9/f8AAAD9/P7+Av8CAQH9/f0AAAD////+/gEBAQIIBwf9 /vwKCgj8/f78/P0EBQT+/f4AAAH9/f8BAQADAwMBAQEHBggDAf///wH///8AAAD4+P0ICAMEBQEA AQEHBwj9//sGBwT6/AAABAX+APwDAPwAAP/9/gD8/QEHBgILDgICAv77+v0GBgf//wD+Afz6+fv4 +P79+v/49/n5+PcBBAADAgMCAAEAAAIAAQMEAwH9/QD1+P4AAQEBA/8KCgMODAoGBwYEBAUDBwUC AQACAwEBAQIAAQADAwL//f4CAwL7/P7z9fb+//4IBgMCAgIB/wAAAAL4+vn+//4EAwX9/fwLCwj9 /QD6/P4QEQsGCAL5+vgCBAL+AAACAgL5+Pv19fsICQgQDQr6+/z6+vwBAAD9/v/6+P/08/wICf4k JxYCAwMCBgUAA/4DAwAICQYHBwX8+vr5+foDAwIPEA79/fz6+vwFBAX+/v4CAgEAAAADHUUQ/wD+ AQIA/wAB+vr7Af7///7/AgABAQH///7+//8A/v7/Av4BCAcDAQH/CgID/PwB/v4A/P39HyAXIR8V +/3/8vTxBQQDAPsEBAL+Dg8I/AL8/wD/6uXp9fv1+PoD/P8D/vwB+PUH3+T45+X6+vYADAYECgcC /gP8AgABCQkCFhcP8/L4+fv9/Pr9EA4P+Pj4AwUCAwIE+/v+/////v4BAAAB///+AQEBAwIBAAH/ AP7//f4CAf4EAwMBCgoGBgf+CQgBBAMC/gH/AgAAAgEBAgMB/f79//79/wD9DgsIDgwL8vX0BgYC /Pv8Cg0KBAUEFhMO7/T09Pz9CgUA+vr7AAD+/f78AQEC/v0B/wADAgP+CAkBCQoGAgIBAQMCAQIB BgcEAQIBBAQFAQMAAgQBBAUEAwMDAwQCAwIDAgL/BAYE/gEE9fb68e/3BQIBAwIAAQAA/wD9AAH/ AQIAAgICAQEAAwQDAQH/AAAABQQEAQEA/v3/AQMADAwI/v7/+fr6+vv8AAH/BgcD/Pr9AAAA/f3+ AgMD//7/AgICAwMD/Pv6///9///+AQEAAAAB/fsBCwsDDg8KAwQCAwQEBAUDAwMBAP0CCAgEAwL/ AP4CAgQCAAEE///9AgP+//38AAEEDw4OFRUX/wAA/f37BAICBgQH+Pf8+Pj4AAEAAAIBAP7/AwIE Dg0Q9/n5BQP+/wAC9/f+BgUJ/v37AQH+CQkEDw4KBAcFBggEAgIBAwQCAwUDBQYEAAH/BwYE+fz+ 8fP08fP4BwUFAv/+CwgK/P36/v79AwMCDQ0M+Pj8FBMSDg4O7e3wBgsHFBcQCgoFAwUDBQUH+fv7 /v3+/f39DQ4LDBAK/P75AAMA+/z6GRkY+vr3+vgA/PoB8fL2+fn3LCwoFBQTCAcCBgQCBwcH8vL1 9PL0/v//AAAC8/T1/P38AQECAQEBAQEBAgICAAAAyu58qqfmVe0AAAAASUVORK5CYII= "
       preserveAspectRatio="none"
       height="90"
       width="240"
       style="stroke-width:0.35277778" />
  </g>
</svg>
